WeightClassKg,Name,Sex,Event,Equipment,Country,Division,Best3SquatKg,Bench1Kg,Bench2Kg,Bench3Kg,Bench4Kg,Best3BenchKg,Best3DeadliftKg,TotalKg,Place
44,Sarah Faye Biddle,F,SBD,Multi-ply,USA,13-15,60,,,,,32.5,70,162.5,1
90+,Hannah Jo Biddle,F,SBD,Multi-ply,USA,13-15,82.5,,,,,42.5,95,220,1
75,Abigail Marie Biddle,F,SBD,Multi-ply,USA,16-17,100,,,,,57.5,100,257.5,1
48,Leslie Watson,F,SBD,Multi-ply,UK,Open,67.5,,,,,60,100,227.5,1
56,Leslie Jane Thomas,F,SBD,Multi-ply,UK,Open,205,,,,,87.5,170,462.5,1
67.5,Lee Steggles,F,SBD,Multi-ply,UK,Open,217.5,,,,,120,185,522.5,1
67.5,Wendy Michiels,F,SBD,Multi-ply,Belgium,Open,200,,,,,107.5,180,487.5,2
67.5,Michelle Murawski,F,SBD,Multi-ply,USA,Open,190,,,,,92.5,177.5,460,3
75,Jodi Van Deursen,F,SBD,Multi-ply,USA,Open,160,,,,,107.5,142.5,410,1
52,Margaret Kirkland,F,SBD,Multi-ply,USA,40-44,177.5,,,,,77.5,157.5,412.5,1
56,Lora Greco,F,SBD,Multi-ply,Canada,45-49,,,,,,,,,DQ
67.5,Marie-J Burrick,F,SBD,Multi-ply,Belgium,45-49,117.5,,,,,62.5,127.5,307.5,1
48,Ann Leverett,F,SBD,Multi-ply,USA,50-54,132.5,,,,,72.5,147.5,352.5,1
48,Wanda Burnett,F,SBD,Multi-ply,USA,50-54,,,,,,,,,DQ
60,Kathy Middleton,F,SBD,Multi-ply,USA,50-54,62.5,,,,,57.5,105,225,1
60,Sheila Rouse,F,SBD,Multi-ply,USA,55-59,90,,,,,42.5,120,252.5,1
82.5,Michael Gacek,M,SBD,Multi-ply,USA,13-15,100,,,,,60,100,260,1
100,Jean Botha,M,SBD,Multi-ply,South Africa,18-19,260,,,,,155,240,655,1
67.5,Pieter Calus,M,SBD,Multi-ply,Belgium,Junior,230,,,,,147.5,222.5,600,1
75,Benna Bartsch,M,SBD,Multi-ply,Germany,Junior,210,,,,,137.5,215,562.5,1
75,Keiran James,M,SBD,Multi-ply,UK,Junior,200,,,,,110,195,505,2
125,Ben Williams,M,SBD,Multi-ply,UK,Junior,282.5,,,,,185,275,742.5,1
67.5,Michael Romanello,M,SBD,Multi-ply,USA,Open,205,,,,,167.5,200,572.5,1
82.5,Shane Brodie,M,SBD,Multi-ply,Ireland,Open,280,,,,,172.5,270,722.5,1
82.5,Adam Brooks,M,SBD,Multi-ply,UK,Open,267.5,,,,,162.5,245,675,2
90,Corey Evans,M,SBD,Multi-ply,Canada,Open,367.5,,,,,240,260,867.5,1
90,Chris Jenkins,M,SBD,Multi-ply,UK,Open,332.5,,,,,182.5,330,845,2
90,Bernard Delaney,M,SBD,Multi-ply,Ireland,Open,300,,,,,225,295,820,3
90,Anthony Cross,M,SBD,Multi-ply,UK,Open,320,,,,,190,290,800,4
90,Marco Lamprecht,M,SBD,Multi-ply,Germany,Open,305,,,,,162.5,300,767.5,5
90,Paul Newell,M,SBD,Multi-ply,UK,Open,335,,,,,162.5,250,747.5,6
90,Brian Johnston,M,SBD,Multi-ply,Canada,Open,322.5,,,,,150,260,732.5,7
90,Andy Fisher,M,SBD,Multi-ply,Canada,Open,200,,,,,135,230,565,8
100,Steven Radford,M,SBD,Multi-ply,USA,Open,335,,,,,240,285,860,1
100,Tim Ironside,M,SBD,Multi-ply,Canada,Open,310,,,,,232.5,275,817.5,2
100,Robert Graham,M,SBD,Multi-ply,UK,Open,270,,,,,155,250,675,3
110,Agayev Rufat,M,SBD,Multi-ply,Azerbaijan,Open,375,,,,,207.5,327.5,910,1
110,Steve Middleton,M,SBD,Multi-ply,UK,Open,372.5,,,,,227.5,305,905,2
110,Stephen Parkhurst,M,SBD,Multi-ply,USA,Open,320,,,,,230,305,855,3
110,Francois Ritief,M,SBD,Multi-ply,South Africa,Open,310,,,,,217.5,290,817.5,4
125,Al Mehan,M,SBD,Multi-ply,Canada,Open,450,,,,,280,305,1035,1
125,Charles Bailey,M,SBD,Multi-ply,USA,Open,455,,,,,265,275,995,2
125,Jani Ihalainen,M,SBD,Multi-ply,Finland,Open,360,,,,,260,315,935,3
125,Roland Prager,M,SBD,Multi-ply,Austria,Open,380,,,,,230,325,935,4
125,Lee Thomas,M,SBD,Multi-ply,UK,Open,315,,,,,180,295,790,7
125,Ian Rutherford,M,SBD,Multi-ply,UK,Open,305,,,,,210,312.5,827.5,5
125,Jeff Green,M,SBD,Multi-ply,USA,Open,327.5,,,,,170,295,792.5,6
140,Jeffrey Vaughn,M,SBD,Multi-ply,USA,Open,387.5,,,,,235,320,942.5,1
140,Mario Piatelli,M,SBD,Multi-ply,Canada,Open,320,,,,,287.5,275,882.5,2
140,Bill Baker,M,SBD,Multi-ply,Canada,Open,312.5,,,,,,,,DQ
140+,Dietmar Zindt,M,SBD,Multi-ply,Germany,Open,425,,,,,290,350,1065,1
140+,Art Ramsey,M,SBD,Multi-ply,USA,Open,102.5,,,,,,,,DQ
67.5,Gerard McNamara,M,SBD,Multi-ply,Ireland,40-44,312.5,,,,,170,255,737.5,1
75,Jim Butler,M,SBD,Multi-ply,Ireland,40-44,230,,,,,140,220,590,1
82.5,JJ Dunne,M,SBD,Multi-ply,Ireland,40-44,255,,,,,147.5,270,672.5,1
82.5,Eric Hoffmeyer,M,SBD,Multi-ply,South Africa,40-44,180,,,,,125,220,525,2
90,James Slyk,M,SBD,Multi-ply,Canada,40-44,135,,,,,85,157.5,377.5,1
100,Sam Graham,M,SBD,Multi-ply,Ireland,40-44,310,,,,,185,320,815,1
125,Gary Boulton,M,SBD,Multi-ply,UK,40-44,295,,,,,195,260,750,1
125,Thomas Edward Wright,M,SBD,Multi-ply,USA,40-44,255,,,,,115,220,590,2
82.5,Bernard Morgan,M,SBD,Multi-ply,Ireland,45-49,255,,,,,152.5,237.5,645,1
90,Ronnie Baker,M,SBD,Multi-ply,USA,45-49,,,,,,,,,DQ
110,Tom Bowman,M,SBD,Multi-ply,USA,45-49,295,,,,,212.5,290,797.5,1
110,Alan Gilbert,M,SBD,Multi-ply,UK,45-49,220,,,,,160,250,630,2
110,Krystian Slosarek,M,SBD,Multi-ply,Germany,45-49,315,,,,,,,,DQ
125,Lee Marshall,M,SBD,Multi-ply,UK,45-49,370,,,,,207.5,340,917.5,1
125,John Anthony O'neill,M,SBD,Multi-ply,Ireland,45-49,150,,,,,207.5,320,677.5,2
60,Gary Bobrovitz,M,SBD,Multi-ply,Canada,50-54,171,,,,,130,155,456,1
82.5,Robert Lovelace,M,SBD,Multi-ply,USA,50-54,212.5,,,,,147.5,222.5,582.5,1
90,Roy Gilbert,M,SBD,Multi-ply,USA,50-54,180,,,,,,,,DQ
100,LH Dunn,M,SBD,Multi-ply,South Africa,50-54,275,,,,,150,290,715,1
75,Danny Thompson,M,SBD,Multi-ply,,55-59,185,,,,,117.5,182.5,485,1
100,Robert Laroudie,M,SBD,Multi-ply,France,55-59,185,,,,,95,205,485,1
110,Bill West,M,SBD,Multi-ply,UK,55-59,350,,,,,205,300,855,1
67.5,Budgie Mullen,M,SBD,Multi-ply,UK,60-64,182.5,,,,,117.5,170,470,1
75,Roger Peters,M,SBD,Multi-ply,South Africa,60-64,165,,,,,107.5,175,447.5,1
82.5,Thomas Dillon,M,SBD,Multi-ply,Ireland,60-64,202.5,,,,,150,232.5,585,1
100,Frieder Hachenberger,M,SBD,Multi-ply,Germany,60-64,220,,,,,160,210,590,1
82.5,Ian Morris,M,SBD,Multi-ply,Ireland,65-69,170,,,,,110,170,450,1
52,Leslie Watson,F,B,Multi-ply,UK,Open,,57.5,60,62.5,,62.5,,62.5,1
56,Lysann Bohse,F,B,Multi-ply,Germany,Open,,72.5,-77.5,77.5,,77.5,,77.5,1
67.5,Virpi Pgbkila,F,B,Multi-ply,Finland,Open,,105,110,-115,,110,,110,1
67.5,Wendy Michiels,F,B,Multi-ply,Belgium,Open,,-90,90,105,,105,,105,2
82.5,Michael Gacek,M,B,Multi-ply,USA,13-15,,-85,-100,-100,,,,,DQ
82.5,David Lee,M,B,Multi-ply,USA,18-19,,125,-130,-130,,125,,125,1
90,Steven Faulkner,M,B,Multi-ply,USA,18-19,,192.5,205,215,,215,,215,1
100,Jean Botha,M,B,Multi-ply,South Africa,18-19,,150,160,170,,170,,170,1
75,Richard Brown,M,B,Multi-ply,UK,Junior,,-130,130,140,,140,,140,1
75,Keiran James,M,B,Multi-ply,UK,Junior,,100,115,-125,,115,,115,2
125,André Conrad,M,B,Multi-ply,Germany,Junior,,230,250,262.5,,262.5,,262.5,1
67.5,Kevin Harman,M,B,Multi-ply,USA,Open,,175,-182.5,-185,,175,,175,1
82.5,Shane Brodie,M,B,Multi-ply,Ireland,Open,,150,160,,,160,,160,1
100,Chris Scott,M,B,Multi-ply,USA,Open,,205,-217.5,217.5,,217.5,,217.5,1
100,Jody Freeman,M,B,Multi-ply,USA,Open,,192.5,207.5,-217.5,,207.5,,207.5,2
110,Jason B. Jackson,M,B,Multi-ply,USA,Open,,320,-337.5,-340,,320,,320,1
110,Jeremy Zimmerman,M,B,Multi-ply,Canada,Open,,-267.5,282.5,300,,300,,300,2
110,Jani Ihalainen,M,B,Multi-ply,Finland,Open,,235,250,-260,,250,,250,3
110,Steven Parkhurst,M,B,Multi-ply,USA,Open,,220,-232.5,235,,235,,235,4
110,Guliyen Bakhtiyar,M,B,Multi-ply,Azerbaijan,Open,,210,220,-235,,220,,220,5
110,Francois Retief,M,B,Multi-ply,South Africa,Open,,190,200,210,,210,,210,6
110,Paul Scogin,M,B,Multi-ply,USA,Open,,205,-217.5,-220,,205,,205,7
125,Heath Powers,M,B,Multi-ply,USA,Open,,207.5,227.5,-240,,227.5,,227.5,1
125,Robert Paden,M,B,Multi-ply,USA,Open,,217.5,-237.5,-250,,217.5,,217.5,2
125,Alois Strobl,M,B,Multi-ply,Austria,Open,,160,170,180,,180,,180,3
140,Jari Mentula,M,B,Multi-ply,Finland,Open,,-305,-305,-310,,,,,DQ
75,Jimmy Butler,M,B,Multi-ply,Ireland,40-44,,130,135,140,,140,,140,1
82.5,Eric Hofmeier,M,B,Multi-ply,South Africa,40-44,,110,120,130,,130,,130,1
90,LeeRoy Banks,M,B,Multi-ply,USA,40-44,,202.5,-217.5,220,,220,,220,1
100,Juha Pukkila,M,B,Multi-ply,Finland,40-44,,200,-215,215,,215,,215,1
125,Jean-Marc Chenin,M,B,Multi-ply,France,40-44,,250,252.5,256.5,,256.5,,256.5,1
125,Dominique Seminatore,M,B,Multi-ply,France,40-44,,225,235,-240,,235,,235,2
125,Al Hunter,M,B,Multi-ply,USA,40-44,,-190,190,205,,205,,205,3
60,George Bradley,M,B,Multi-ply,USA,45-49,,97.5,107.5,-112.5,,107.5,,107.5,1
75,Michel Fauque,M,B,Multi-ply,France,45-49,,135,-145,-145,,135,,135,1
82.5,Alain Francois Mattei,M,B,Multi-ply,France,45-49,,150,155,160,,160,,160,1
82.5,Bernhard Morgan,M,B,Multi-ply,Ireland,45-49,,140,-150,155,,155,,155,2
100,Scott Lee,M,B,Multi-ply,USA,45-49,,205,217.5,227.5,,227.5,,227.5,1
110,Krystian Slosarek,M,B,Multi-ply,Germany,45-49,,200,-225,235,,235,,235,1
140+,Art Ramsy,M,B,Multi-ply,USA,45-49,,217.5,-227.5,232.5,,232.5,,232.5,1
60,Gary Bobrovitz,M,B,Multi-ply,Canada,50-54,,60,113,120,125,120,,120,1
75,Darrel Hamby,M,B,Multi-ply,USA,50-54,,117.5,-180,180,-182.5,180,,180,1
82.5,Omar Pittman,M,B,Multi-ply,USA,50-54,,160,-170,-180,,160,,160,1
90,Klaus Gerhard Kruger,M,B,Multi-ply,Germany,50-54,,200,210,215,,215,,215,1
90,Garry Glenn R.,M,B,Multi-ply,USA,50-54,,140,150,160,,160,,160,2
100,Yan Howah,M,B,Multi-ply,USA,50-54,,210,225,-230,,225,,225,1
110,Didier Douet,M,B,Multi-ply,France,50-54,,145,152.5,-157.5,,152.5,,152.5,1
100,Phil Newsome,M,B,Multi-ply,USA,55-59,,182.5,187.5,190,-197.5,190,,190,1
75,Rogers Peters,M,B,Multi-ply,South Africa,60-64,,-85,95,107.5,,107.5,,107.5,1
82.5,Thomas Dillon,M,B,Multi-ply,Ireland,60-64,,120,130,140,,140,,140,1
90,Frank Taylor,M,B,Multi-ply,USA,60-64,,-155,165,-177.5,-177.5,165,,165,1
100,Frieder Hachenberger,M,B,Multi-ply,Germany,60-64,,150,160,-165,,160,,160,1
75,Konrad Merta,M,B,Multi-ply,Germany,65-69,,100,110,,,110,,110,1
82.5,Ian Morris,M,B,Multi-ply,Ireland,65-69,,80,100,-110,,100,,100,1
100,Marc LeBolay,M,B,Multi-ply,France,65-69,,177.5,185,187.5,,187.5,,187.5,1
110,M Vergnes-Blanquer,M,B,Multi-ply,France,65-69,,155,165,-170,,165,,165,1
125,Leo Detter,M,B,Multi-ply,Austria,65-69,,150,-155,-155,,150,,150,1
82.5,Pierre Pothee,M,B,Multi-ply,France,80-84,,60,65,70,,70,,70,1
