Event,Sex,Name,State,BodyweightKg,WeightClassKg,Division,Best3SquatKg,Best3BenchKg,Best3DeadliftKg,TotalKg,Equipment,Place
SBD,M,Steven Neveu,QU,72.4,75,Sub-Junior,80.0,87.5,147.5,315.0,Single-ply,1
SBD,M,Pierre-O. Caron,QU,98.7,100,Sub-Junior,235.0,152.5,207.5,595.0,Single-ply,1
SBD,F,Kacey Baines,QU,64.4,67.5,Open,100.0,55.0,110.0,265,Single-ply,1
SBD,F,Diana Burley,QU,59.9,60,Master 1,112.5,52.5,112.5,277.5,Single-ply,1
SBD,M,Christopher Neveu,QU,87.8,90,Junior,200.0,135.0,230.0,565.0,Single-ply,1
B,M,Mathew Court,QU,151.5,125+,Open,,152.5,,152.5,Single-ply,1
