Name,Event,Equipment,Age,Sex,Division,BodyweightKg,WeightClassKg,Squat1Kg,Squat2Kg,Squat3Kg,Squat4Kg,Best3SquatKg,Bench1Kg,Bench2Kg,Bench3Kg,Bench4Kg,Best3BenchKg,Deadlift1Kg,Deadlift2Kg,Deadlift3Kg,Deadlift4Kg,Best3DeadliftKg,TotalKg,Place,Team
Valerie Tinker,SBD,Raw,57,F,F-M4,73.3,75,35,-40,45,,45,45,50,-55,,50,105,120,-130,,120,215,1,GB
Kate Vale,SBD,Raw,49,F,F-M2,59.7,60,80,-85,85,,85,40,45,-47.5,,45,85,90,-95,,90,220,1,GB
Elena Kudryashova,SBD,Raw,42,F,F-M1,51,52,80,85,90,,90,55,60,65,,65,105,115,125,,125,280,1,RU
Dominique Fisher #1,SBD,Raw,44,F,F-M1,72.2,75,150,-165,170,,170,75,80,82.5,,82.5,175,185,-190,,185,437.5,1,GB
Olivia Monro,SBD,Raw,17,F,F-T2,80.8,82.5,82.5,87.5,92.5,,92.5,55,60,65,,65,105,107.5,110,,110,267.5,1,GB
Jessica Pallot,SBD,Raw,21,F,F-J,55.1,56,-85,85,-100,,85,55,-60,-60,,55,105,110,-115,,110,250,1,GB
Vikki Thomas,SBD,Raw,37,F,F-O,56,56,65,70,75,,75,40,-45,-45,,40,90,95,102.5,,102.5,217.5,1,GB
Cheryl Stanley,SBD,Raw,27,F,F-O,55.4,56,-100,-105,-105,,,,,,,,,,,,,,DQ,GB
Carolina Aftab,SBD,Raw,33,F,F-O,58.2,60,95,105,-110,,105,50,55,-60,,55,115,127.5,-135,,127.5,287.5,1,FI
Naomi Sheppard,SBD,Raw,25,F,F-O,61.9,67.5,162.5,172.5,-180,,172.5,90,95,-100,,95,160,170,-180,,170,437.5,1,GB
Outi Myllykoski,SBD,Raw,27,F,F-O,64.7,67.5,-105,105,-115,,105,-80,80,-85,,80,120,125,130,,130,315,2,FI
Barbara Cacao,SBD,Raw,33,F,F-O,66.8,67.5,75,85,-92.5,,85,40,45,-50,,45,90,105,120,,120,250,3,PT
Dominique Fisher #1,SBD,Raw,44,F,F-O,72.2,75,150,-165,170,,170,75,80,82.5,,82.5,175,185,-190,,185,437.5,1,GB
Iwona Karwowska,SBD,Raw,34,F,F-O,85.7,90,-145,145,155,,155,75,80,-82.5,,80,140,150,160,,160,395,1,GB
Learna Lee,SBD,Raw,31,F,F-O,89,90,135,-142.5,-145,,135,82.5,87.5,-90,,87.5,150,160,-170,,160,382.5,2,GB
Elizabeth Webb,SBD,Raw,28,F,F-O,89.1,90,95,110,-115,,110,-50,55,-60,,55,140,155,165,,165,330,3,GB
Raimo Sjögren,SBD,Raw,72,M,M-M7,103.3,110,120,125,-130,,125,70,80,-85,,80,140,150,160,,160,365,1,FI
Richard Kemp,SBD,Raw,57,M,M-M4,89.6,90,145,162.5,-170,,162.5,90,-102.5,-102.5,,90,190,210,222.5,,222.5,475,1,GB
Alexander Burlakov,SBD,Raw,58,M,M-M4,110.4,125,190,195,200,,200,155,165,170,,170,195,205,-210,,205,575,1,RU
Petri Mäkinen,SBD,Raw,53,M,M-M3,89.6,90,100,120,125,,125,110,120,125,,125,160,165,170,,170,420,1,FI
Alan Motyer-Lowndes,SBD,Raw,48,M,M-M2,81.3,82.5,135,-145,145,,145,80,-90,-90,,80,160,-170,170,,170,395,1,GB
Bob Fielding,SBD,Raw,47,M,M-M2,87.5,90,170,180,-185,,180,140,145,-150,,145,190,200,-205,,200,525,1,GB
Darryl Traince,SBD,Raw,41,M,M-M1,88.4,90,-170,-170,,,,,,,,,,,,,,,DQ,GB
Ahmed Fateharbastan,SBD,Raw,43,M,M-M1,90.4,100,-120,125,150,,150,115,125,-130,,125,120,150,-200,,150,425,1,IR
Sandro Eusébio,SBD,Raw,41,M,M-M1,140.1,140+,250,275,300,,300,185,195,205,,205,310,340,350,,350,855,1,PT
Kiyan Tavanaie,SBD,Raw,18,M,M-T3,58,60,90,110,125,,125,85,92.5,95,,95,90,95,97.5,,97.5,317.5,1,GB
Tom Collins,SBD,Raw,18,M,M-T3,80.5,82.5,160,170,175,,175,120,-130,-130,,120,190,205,-207.5,,205,500,1,GB
Souleiman Turki,SBD,Raw,17,M,M-T2,66.8,67.5,170,180,-185,,180,100,-110,110,,110,200,212.5,-220.5,,212.5,502.5,1,FR
Maciel Davi Dos Santos,SBD,Raw,23,M,M-J,89.4,90,230,250,,,250,170,180,-190,,180,250,-270,270,,270,700,1,FR
Aleksi Hiissa,SBD,Raw,23,M,M-J,89.8,90,180,-190,-200,,180,120,130,,,130,220,230,-240,,230,540,2,FI
Andy Gregory,SBD,Raw,24,M,M-O,72.9,75,-155,,,,,,,,,,,,,,,,DQ,GB
Joäo Manaia,SBD,Raw,34,M,M-O,80.8,82.5,220,-240,240,,240,145,152.5,157.5,,157.5,245,260,270,,270,667.5,1,PT
Lucian Luca,SBD,Raw,30,M,M-O,81.1,82.5,205,215,220,,220,-155,155,-165,,155,250,-275,-275,,250,625,2,GB
Luke Nash,SBD,Raw,30,M,M-O,82.1,82.5,185,195,202.5,,202.5,130,140,145,,145,235,245,255,,255,602.5,3,GB
John Warbuton,SBD,Raw,30,M,M-O,81.4,82.5,197.5,207.5,215,,215,120,127.5,-132.5,,127.5,230,245,257.5,,257.5,600,4,GB
Patrick Flynn,SBD,Raw,27,M,M-O,82,82.5,165,-175,-185,,165,-120,120,-125,,120,220,235,247.5,,247.5,532.5,5,GB
Juha Inkinen,SBD,Raw,35,M,M-O,81.7,82.5,155,-165,-165,,155,100,-107.5,-107.5,,100,180,-190,-190,,180,435,6,FI
David O'Sullivan,SBD,Raw,25,M,M-O,89.4,90,210,220,-227.5,,220,140,147.5,155,,155,280,302.5,-307.5,,302.5,677.5,1,GB
Russel Orme,SBD,Raw,28,M,M-O,89.1,90,190,200,210,,210,140,-147.5,-150,,140,215,227.5,-240,,227.5,577.5,2,GB
Darryl Traince,SBD,Raw,41,M,M-O,88.4,90,-170,-170,,,,,,,,,,,,,,,DQ,GB
Rosen Marinov,SBD,Raw,27,M,M-O,96.4,100,270,285,295,,295,160,180,190,,190,280,300,-310,,300,785,1,BG
Grégoire Ho Bing Huang,SBD,Raw,34,M,M-O,99.6,100,240,260,-270,,260,160,170,-175,,170,300,320,-336,,320,750,2,FR
Tom Sheppard,SBD,Raw,24,M,M-O,97.7,100,-240,-240,240,,240,160,170,-175,,170,260,280,282.5,,282.5,692.5,3,GB
Christian Murphy,SBD,Raw,25,M,M-O,97.3,100,240,-265,-265,,240,140,150,160,,160,260,285,-290,,285,685,4,GB
Rafael Fernandes,SBD,Raw,27,M,M-O,94.4,100,170,180,-190,,180,100,-110,-110,,100,200,210,220,,220,500,5,PT
Petteri Ahola,SBD,Raw,32,M,M-O,107,110,240,260,270,,270,200,210,215,,215,300,315,320,,320,805,1,FI
Andrzej Roszkowski,SBD,Raw,36,M,M-O,107.4,110,-265,,,,,,,,,,,,,,,,DQ,GB
Alexander Zaytsev,SBD,Raw,37,M,M-O,124.5,125,300,320,-340,,320,210,220,230,,230,300,320,330,,330,880,1,RU
Vesa Vesterinen,SBD,Raw,31,M,M-O,118.9,125,240,-255,260,,260,200,210,220,,220,270,285,295,,295,775,2,FI
Marko Hyytinen,SBD,Raw,31,M,M-O,115,125,220,235,245,,245,155,165,170,,170,210,220,230,,230,645,3,FI
Mehdi Khoddami,SBD,Raw,33,M,M-O,119.5,125,200,225,250,,250,-185,-190,-190,,,,,,,,,DQ,IR
Dmitry Smirnov,SBD,Raw,38,M,M-O,132.7,140,265,275,-290,,275,165,172.5,-177.5,,172.5,285,300,-310,,300,747.5,1,RU
Frankie Kemp,SBD,Raw,24,M,M-O,138.2,140,255,-262.5,-265,,255,165,-175,175,,175,245,255,270,,270,700,2,GB
Sandro Eusébio,SBD,Raw,41,M,M-O,140.1,140+,250,275,300,,300,185,195,205,,205,310,340,350,,350,855,1,PT
Shan Passmore,SBD,Wraps,46,F,F-M2,60.9,67.5,-140,-140,-140,,,,,,,,,,,,,,DQ,GB
Sari Anttila,SBD,Wraps,48,F,F-M2,86,90,140,150,165,,165,90,100,-105,,100,140,160,-170,,160,425,1,FI
Cristina Paulo,SBD,Wraps,44,F,F-M1,59.5,60,80,90,100,,100,50,57.5,-60,,57.5,120,127.5,130,135,130,287.5,1,PT
Jessye Fuster,SBD,Wraps,19,F,F-T3,59.6,60,90,97.5,-102.5,,97.5,47.5,-52.5,-52.5,,47.5,115,-122.5,127.5,-132.5,127.5,272.5,1,FR
Ines Antunes,SBD,Wraps,18,F,F-T3,65.6,67.5,95,115.5,-120,,115.5,45,47.5,50,,50,117.5,125,130,135,130,295.5,1,PT
Jonna Korte,SBD,Wraps,22,F,F-J,67,67.5,130,-140,142.5,,142.5,75,80,82.5,-85,82.5,140,150,,,150,375,1,FI
Tatiana Conde,SBD,Wraps,22,F,F-J,73.5,75,-130,130,-140,,130,-65,65,-67.5,,65,-160,165,170,,170,365,1,ES
Miia Keränen,SBD,Wraps,22,F,F-J,89.5,90,170,-187.5,187.5,,187.5,82.5,-90,-92.5,,82.5,165,-177.5,-177.5,,165,435,1,FI
Vanessa Torres,SBD,Wraps,30,F,F-O,55.2,56,140,-150,-150,,140,95,100,-102.5,,100,150,160,-170,,160,400,1,FI
Cheryl Stanley,SBD,Wraps,27,F,F-O,58,60,90,-100,100,,100,52.5,57.5,-60,,57.5,122.5,130.5,137.5,142.5,137.5,295,1,GB
Amanda Hillary,SBD,Wraps,30,F,F-O,67,67.5,-115,115,125,135,125,60,62.5,-65,,62.5,110,120,-130,,120,307.5,1,GB
Laura Mastroberti,SBD,Wraps,32,F,F-O,74.7,75,150,160,-175,,160,80,85,-90,,85,165,175,185,,185,430,1,IT
Kimberley Cowell,SBD,Wraps,29,F,F-O,72.6,75,150,160,-165,,160,77.5,80,-82.5,,80,160,172.5,-180,,172.5,412.5,2,GB
Sofia Pegoraro,SBD,Wraps,33,F,F-O,72.7,75,110,120,-135,,120,60,70,-72.5,,70,120,-130,,,120,310,3,IT
Steffen Burkhard,SBD,Wraps,67,M,M-M6,73.4,75,145,155,-165,,155,85,90,95,,95,140,150,,,150,400,1,DE
Rui Faria,SBD,Wraps,65,M,M-M6,86.1,90,140,150,-160,,150,95,100,105,-107.5,105,160,-170,170,,170,425,1,PT
Vilho Määttä,SBD,Wraps,64,M,M-M5,81.5,82.5,-145,145,-160,,145,100,110,,,110,170,190,,,190,445,1,FI
Rane Ovaska,SBD,Wraps,57,M,M-M4,80.8,82.5,-170,-170,170,,170,100,-110,110,,110,210,215,,,215,495,1,FI
Jere Marttila,SBD,Wraps,55,M,M-M4,98.5,100,130,145,160,,160,130,137.5,140,,140,180,192.5,202.5,,202.5,502.5,1,FI
Joaquim Morais,SBD,Wraps,59,M,M-M4,109.3,110,180,200,215,-225,215,155,160,165,-170,165,200,220,230,,230,610,1,PT
Vladlen Astaptsev,SBD,Wraps,52,M,M-M3,76.7,82.5,125,132.5,137.5,-140,137.5,90,97.5,100,102.5,100,165,172.5,177.5,,177.5,415,1,FI
Vladimir Gosin,SBD,Wraps,52,M,M-M3,93.1,100,220,230,-240,,230,150,155,160,,160,240,250,265,,265,655,1,IL
David Pennington,SBD,Wraps,50,M,M-M3,99.8,100,-190,200,-210,,200,172.5,182.5,-190,,182.5,200,210,220,,220,602.5,2,GB
Vesa Keskimaa,SBD,Wraps,54,M,M-M3,119.1,125,260,280,295,,295,190,200,205,,205,260,280,,,280,780,1,FI
Mikhail Veber,SBD,Wraps,45,M,M-M2,89.1,90,-180,180,-195,,180,190,197.5,-205,,197.5,135,,,,135,512.5,1,RU
Vitalijs Opalevs,SBD,Wraps,45,M,M-M2,85.8,90,120,-140,145,,145,100,110,-115,,110,170,190,200,,200,455,2,LV
Ari Salmi,SBD,Wraps,46,M,M-M2,86.3,90,150,165,-170,,165,105,-115,-115,,105,160,-165,-170,,160,430,3,FI
Raimo Hiisiö,SBD,Wraps,48,M,M-M2,120.4,125,260,-270,-270,,260,160,170,-180,,170,230,-240,-240,,230,660,1,FI
Paul Newman,SBD,Wraps,46,M,M-M2,131.1,140,-260,260,270,,270,230,-240,-240,,230,290,-300,-300,,290,790,1,GB
Ahmadreza Nasiriavanaki,SBD,Wraps,44,M,M-M1,96.4,100,140,185,-205,,185,-110,110,125,,125,140,-200,200,,200,510,1,IR
Daniel Martinez,SBD,Wraps,42,M,M-M1,102.5,110,340,-360,-370.5,,340,175,185,-192.5,,185,310,320,-325,,320,845,1,ES
Quentin Jacob,SBD,Wraps,19,M,M-T3,87.6,90,190,200,215,,215,115,120,-125,,120,205,225,-240,,225,560,1,FR
David Campos,SBD,Wraps,22,M,M-J,79.6,82.5,180,195,-202.5,,195,120,130,-135,,130,200,222.5,230,-230.5,230,555,1,FR
Keit Kaljukivi,SBD,Wraps,23,M,M-J,81.6,82.5,-190,200,205,,205,120,-127.5,127.5,,127.5,200,215,222.5,,222.5,555,2,EE
Davide Marrone,SBD,Wraps,23,M,M-J,85.4,90,190,200,210,,210,120,125,130,,130,240,255,260,,260,600,1,IT
Teemu Mäkynen,SBD,Wraps,23,M,M-J,99.9,100,240,260,275,,275,130,140,150,,150,270,280,290,,290,715,1,FI
Adam Riman,SBD,Wraps,23,M,M-J,98,100,240,260,270,,270,115,122.5,125,,125,270,300,305,,305,700,2,GB
Jordi Hérnandez,SBD,Wraps,23,M,M-J,107.6,110,235,250,260,,260,142.5,152.5,-155,,152.5,220,-255,-255,,220,632.5,1,ES
Sam Meade,SBD,Wraps,23,M,M-J,122.7,125,315,335,-342.5,,335,200,215,-220,,215,-290,290,-307.5,,290,840,1,GB
Sami Vaskelainen,SBD,Wraps,33,M,M-O,74.4,75,215,-222.5,230,,230,120,125,130,,130,240,250,255,,255,615,1,FI
Iman Akbarian,SBD,Wraps,33,M,M-O,72.8,75,-90,90,-110,,90,-70,-70,-70,,,,,,,,,DQ,IR
Henri Vauto,SBD,Wraps,30,M,M-O,73.8,75,-220,-230,-230,,,,,,,,,,,,,,DQ,FI
Alexander Karpenko,SBD,Wraps,25,M,M-O,82.3,82.5,-310,310,-330,,310,170,180,-185,,180,-310,310,-330,,310,800,1,RU
Jérémy Babin,SBD,Wraps,27,M,M-O,82.4,82.5,235,250,-260,,250,150,155,,,155,260,-270,270,,270,675,2,FR
Teemu Laaksonen,SBD,Wraps,30,M,M-O,89.5,90,300,-310,310,,310,165,175,,,175,300,315,-322.5,,315,800,1,FI
Gabriele Calista,SBD,Wraps,37,M,M-O,89.9,90,-240,-240,240,,240,135,145,150,,150,-270,280,295,,295,685,2,IT
Mika Kallio,SBD,Wraps,30,M,M-O,88.3,90,240,-250,-250,,240,160,-165,-165,,160,250,-270,-270,,250,650,3,FI
Nuno Nobre,SBD,Wraps,39,M,M-O,83.5,90,180,-195,-195,,180,130,140,-145,,140,195,205,210,,210,530,4,PT
Martin Brown,SBD,Wraps,36,M,M-O,99.8,100,290,315,-327.5,,315,170,185,-192.5,,185,260,280,-300,,280,780,1,GB
Samppa Nyman,SBD,Wraps,34,M,M-O,97.9,100,250,265,275,,275,155,160,165,,165,250,275,285,,285,725,2,FI
Austin Hickey,SBD,Wraps,37,M,M-O,99.4,100,240,260,-272.5,,260,180,-185,-185,,180,240,260,267.5,,267.5,707.5,3,IE
Ricardo Monteiro,SBD,Wraps,30,M,M-O,99.2,100,-260,260,-280,,260,155,165,-175,,165,280,-300,-302.5,,280,705,4,PT
Jani Soininen,SBD,Wraps,32,M,M-O,99,100,250,-270,-275,,250,152.5,160,-165,,160,270,-290,-290,,270,680,5,FI
Vladimir Gosin,SBD,Wraps,52,M,M-O,93.1,100,220,230,-240,,230,150,155,160,,160,240,250,265,,265,655,6,IL
Aaron Fillery,SBD,Wraps,29,M,M-O,93.9,100,220,-225,225,,225,-155,155,-162.5,,155,265,270,-275,,270,650,7,GB
Jouko Laine,SBD,Wraps,32,M,M-O,98.2,100,-180,-180,-190,,,,,,,,,,,,,,DQ,FI
Lewis Board,SBD,Wraps,24,M,M-O,100,100,,,,,,,,,,,,,,,,,DQ,GB
Eduard Khanjyan,SBD,Wraps,31,M,M-O,109.1,110,370,390,405,,405,210,220,,,220,330,-347.5,,,330,955,1,FI
Tom Martin #1,SBD,Wraps,29,M,M-O,108.6,110,340,360,-370,,360,200,210,-215,,210,380,-411,,,380,950,2,GB
Daniel Martinez,SBD,Wraps,42,M,M-O,102.5,110,340,-360,-370.5,,340,175,185,-192.5,,185,310,320,-325,,320,845,3,ES
Ville Suominen,SBD,Wraps,35,M,M-O,108.8,110,315,-325,-325,,315,170,180,-190,,180,300,320,-337.5,,320,815,4,FI
Naël Cetout,SBD,Wraps,27,M,M-O,104.1,110,-260,-260,260,,260,190,200,-205,,200,300,-320,-320,,300,760,5,FR
Andrew Riddiford,SBD,Wraps,28,M,M-O,105.7,110,255,-270,-270,,255,190,200,-210,,200,,,,,,,DQ,GB
Tom Shaw,SBD,Wraps,38,M,M-O,133.5,140,220,240,260,,260,140,160,180,,180,320,350,360.5,365,360.5,800.5,1,GB
Dawn Morell,SBD,Single-ply,56,F,F-M4-SP,80.5,82.5,110,115,-120,,115,72.5,-77.5,77.5,-80.5,77.5,125,135,-140.5,,135,327.5,1,GB
Isabel Gomes,SBD,Single-ply,42,F,F-M1-SP,59.8,60,105,120,140,-150,140,40,50,-60,,50,120,132.5,140,-150,140,330,1,PT
Michela Gubernati,SBD,Single-ply,35,F,F-O-SP,66.9,67.5,-160,160,-175,,160,75,77.5,80,,80,160,-172.5,-172.5,,160,400,1,IT
Dawn Morell,SBD,Single-ply,56,F,F-O-SP,80.5,82.5,110,115,-120,,115,72.5,-77.5,77.5,-80.5,77.5,125,135,-140.5,,135,327.5,1,GB
Stephanie Taylor,SBD,Multi-ply,30,F,F-O,65.1,67.5,180,-195,200,,200,110,-117.5,-120,,110,155,170,180,,180,490,1,GB
Minna Kousa,SBD,Multi-ply,39,F,F-O,73.3,75,195,205,-215,,205,110,120,125,,125,155,172.5,-180,,172.5,502.5,1,FI
Adrian Phillips,SBD,Single-ply,53,M,M-M3-SP,95.6,100,-210,210,-222.5,,210,-140,-140,-140,,,,,,,,,DQ,GB
Andrew Murphy #1,SBD,Single-ply,23,M,M-J-SP,99.8,100,270,290,302.5,,302.5,160,170,-180,,170,230,245,-260,,245,717.5,1,GB
Pedro Pontes,SBD,Single-ply,34,M,M-O-SP,66.8,67.5,220,236,245,,245,150,160,165,,165,215,225,-230,,225,635,1,PT
Artur Makutunovic,SBD,Single-ply,36,M,M-O-SP,98,100,260,280,300,,300,180,195,210,,210,220,240,250,,250,760,1,LT
Filippo Ingrosso,SBD,Single-ply,32,M,M-O-SP,108.3,110,375,-400.5,-400.5,,375,230,245,-255,,245,-330,330,-356,,330,950,1,IT
Pedro Martins,SBD,Single-ply,37,M,M-O-SP,106.5,110,-280,-280,-280,,,,,,,,,,,,,,DQ,PT
Vesa Nissilä,SBD,Multi-ply,54,M,M-M3,109.6,110,-255,-255,-255,,,,,,,,,,,,,,DQ,FI
Pasi Koukkula,SBD,Multi-ply,48,M,M-M2,89.1,90,200,230,260,,260,140,150,-155,,150,260,291,,,291,701,1,FI
Jarkko Forss,SBD,Multi-ply,21,M,M-J,90.7,100,300,-320,,,300,220,240,260,,260,240,272.5,,,272.5,832.5,1,FI
Jukka Matikainen,SBD,Multi-ply,23,M,M-J,94.8,100,260,280,-300,,280,150,160,-165,,160,200,-220,240,,240,680,2,FI
Jonne Fräntilä,SBD,Multi-ply,29,M,M-O,65.2,67.5,-225,225,-235,,225,170,182.5,-190,,182.5,200,220,-227.5,,220,627.5,1,FI
Andre Rei,SBD,Multi-ply,23,M,M-O,74.6,75,275,300,-310,,300,185,-200,-200,,185,240,-260,,,240,725,1,PT
Paulo Vilas Boas,SBD,Multi-ply,31,M,M-O,80.6,82.5,-280,280,-310,,280,165,180,-190,,180,260,280,-292.5,,280,740,1,PT
Kurt Beech,SBD,Multi-ply,27,M,M-O,88.5,90,240,-257.5,-257.5,,240,-170,170,-185,,170,240,252.5,-262.5,,252.5,662.5,1,GB
Janne Nissilä,SBD,Multi-ply,25,M,M-O,87.9,90,-230,-230,-230,,,,,,,,,,,,,,DQ,FI
Paulo Santos #1,SBD,Multi-ply,28,M,M-O,98,100,350,375,-390,,375,255,-265,-265,,255,300,330,360,,360,990,1,PT
Kalle Räsänen,SBD,Multi-ply,26,M,M-O,95.1,100,-400,-400,-400,,,,,,,,,,,,,,DQ,FI
Bruno Alves,SBD,Multi-ply,28,M,M-O,108.4,110,-340,-340,340,,340,270,285,-300,,285,-280,280,300,,300,925,1,PT
Mikko Matikainen,SBD,Multi-ply,27,M,M-O,104.6,110,320,-340,350,,350,210,220,-230,,220,250,270,280,,280,850,2,FI
James Clive Taylor,SBD,Multi-ply,25,M,M-O,105.7,110,-325,-325,-325,,,,,,,,,,,,,,DQ,GB
Steve Macneil,SBD,Multi-ply,32,M,M-O,135.2,140,-400,-400,410,,410,-310,320,-340.5,,320,280,-300,-300,,280,1010,1,GB
Aaron Hosking,SBD,Multi-ply,33,M,M-O,133.7,140,-410,-410,-410,,,,,,,,,,,,,,DQ,GB
Kari Kalliola,SBD,Multi-ply,54,M,M-O,162.1,140+,380,-410,410,,410,290,305,312.5,,312.5,260,280,-290,,280,1002.5,1,FI
Maiju Hilander,B,Raw,59,F,F-M4,72.4,75,,,,,,62.5,70,-76,,70,,,,,,70,1,FI
Svetlana Sinacheva,B,Raw,50,F,F-M3,77.9,82.5,,,,,,108,112.5,117.5,120,117.5,,,,,,117.5,1,RU
Minna Paler,B,Raw,49,F,F-M2,58.5,60,,,,,,75,82.5,-87.5,,82.5,,,,,,82.5,1,FI
Mira Mustonen,B,Raw,47,F,F-M2,67.5,67.5,,,,,,85,-95,-95,,85,,,,,,85,1,FI
Satu Lampikari-Olli,B,Raw,45,F,F-M2,74.5,75,,,,,,80,-82.5,82.5,,82.5,,,,,,82.5,1,FI
Virpi Knuutila,B,Raw,49,F,F-M2,81.2,82.5,,,,,,115,122.5,-125,,122.5,,,,,,122.5,1,FI
Johanna Bies,B,Raw,44,F,F-M1,59.5,60,,,,,,100,-105.5,-105.5,,100,,,,,,100,1,FI
Dagmar Liptáková,B,Raw,41,F,F-M1,63.2,67.5,,,,,,85,90,-95,,90,,,,,,90,1,SK
Mia Salminen,B,Raw,43,F,F-M1,82.2,82.5,,,,,,95,105,-112.5,,105,,,,,,105,1,FI
Elina Kulmala,B,Raw,41,F,F-M1,87.7,90,,,,,,100,115,-122.5,,115,,,,,,115,1,FI
Anna Rosén,B,Raw,44,F,F-M1,92.7,90+,,,,,,120,125,-133,,125,,,,,,125,1,SE
Tomilov Elizabet,B,Raw,13,F,F-T1,54.1,56,,,,,,45,47.5,50,,50,,,,,,50,1,IL
Estelle Lhomme,B,Raw,23,F,F-J,59.4,60,,,,,,80,85,87.5,,87.5,,,,,,87.5,1,FR
Veera Hiltunen,B,Raw,21,F,F-J,73.9,75,,,,,,-75,-75,75,,75,,,,,,75,1,FI
Vanessa Torres,B,Raw,30,F,F-O,55.2,56,,,,,,95,-100,-100,,95,,,,,,95,1,FI
Johanna Bies,B,Raw,44,F,F-O,59.5,60,,,,,,100,-105.5,-105.5,,100,,,,,,100,1,FI
Hanna Turtiainen,B,Raw,31,F,F-O,56.9,60,,,,,,95,-100,-100,,95,,,,,,95,2,FI
Estelle Lhomme,B,Raw,23,F,F-O,59.4,60,,,,,,80,85,87.5,,87.5,,,,,,87.5,3,FR
Nadezda Vlasova,B,Raw,35,F,F-O,66.3,67.5,,,,,,110,115,117.5,,117.5,,,,,,117.5,1,RU
Júlia Kostúrová,B,Raw,27,F,F-O,71.4,75,,,,,,112.5,117.5,120,,120,,,,,,120,1,SK
Catherine Croydon,B,Raw,26,F,F-O,73.6,75,,,,,,95,-102.5,102.5,,102.5,,,,,,102.5,2,GB
Krista Pellikka,B,Raw,30,F,F-O,72.6,75,,,,,,95,100,-102.5,,100,,,,,,100,3,FI
Malin Sundberg,B,Raw,27,F,F-O,70.6,75,,,,,,60,62.5,65,,65,,,,,,65,4,SE
Virpi Knuutila,B,Raw,49,F,F-O,81.2,82.5,,,,,,115,122.5,-125,,122.5,,,,,,122.5,1,FI
David Gibson,B,Raw,50,M,M-M3-D,91.6,100,,,,,,140,145,150,-155,150,,,,,,150,1,GB
David Gibson,B,Raw,50,M,M-O-D,91.6,100,,,,,,140,145,150,-155,150,,,,,,150,1,GB
Martti Kirjokivi,B,Raw,80,M,M-M9,74.7,75,,,,,,90,95,100,-102.5,100,,,,,,100,1,FI
Aleksandr Tkachuk,B,Raw,77,M,M-M8,78.2,82.5,,,,,,-95,-95,-95,,,,,,,,,DQ,RU
Boris Laishin,B,Raw,66,M,M-M6,69.5,75,,,,,,107.5,110,-112.5,,110,,,,,,110,1,IL
Raimo Aulis Sipiläinen,B,Raw,67,M,M-M6,109.2,110,,,,,,150,155,160,,160,,,,,,160,1,FI
Reijo Murto,B,Raw,60,M,M-M5,87.9,90,,,,,,140,145,-150,,145,,,,,,145,1,FI
Esmaeil Fotovat,B,Raw,62,M,M-M5,90.2,100,,,,,,150,-165,-165,,150,,,,,,150,1,IR
José Martin,B,Raw,56,M,M-M4,66.8,67.5,,,,,,90,95,-100,,95,,,,,,95,1,FR
Achille Marrone,B,Raw,55,M,M-M4,94.6,100,,,,,,190,-200,-200,,190,,,,,,190,1,IT
Juha Ojanen,B,Raw,55,M,M-M4,98.9,100,,,,,,150,160,-170,,160,,,,,,160,2,FI
Jere Marttila,B,Raw,55,M,M-M4,99.2,100,,,,,,130,140,-150,,140,,,,,,140,3,FI
Reijo Marin,B,Raw,57,M,M-M4,109.1,110,,,,,,180,-191,-191,,180,,,,,,180,1,FI
Vladlen Astaptsev,B,Raw,52,M,M-M3,76.7,82.5,,,,,,95,-105,-105,,95,,,,,,95,1,FI
Markus Young,B,Raw,52,M,M-M3,87.7,90,,,,,,130,135,140,,140,,,,,,140,1,FI
Petri Mäkinen,B,Raw,53,M,M-M3,89.6,90,,,,,,110,120,125,,125,,,,,,125,2,FI
Tomilov Valery,B,Raw,52,M,M-M3,98.4,100,,,,,,165,172.5,180,,180,,,,,,180,1,IL
Göran Rosén,B,Raw,52,M,M-M3,106.2,110,,,,,,180,190,-200,,190,,,,,,190,1,SE
Allan Grönfors,B,Raw,52,M,M-M3,116.8,125,,,,,,180,190,,,190,,,,,,190,1,FI
Vasily Chernyshenko,B,Raw,54,M,M-M3,115.1,125,,,,,,135,140,142.5,,142.5,,,,,,142.5,2,RU
Tero Ylivinkka,B,Raw,51,M,M-M3,132.5,140,,,,,,190,-195,,,190,,,,,,190,1,FI
Per Holm,B,Raw,53,M,M-M3,134.9,140,,,,,,152.5,-162.5,162.5,,162.5,,,,,,162.5,2,SE
Vincent Eldin,B,Raw,45,M,M-M2,74.4,75,,,,,,130,135,-142.5,,135,,,,,,135,1,FR
Mikhail Veber,B,Raw,45,M,M-M2,89.2,90,,,,,,192.5,200,-205,,200,,,,,,200,1,RU
Marko Brusila,B,Raw,48,M,M-M2,88.4,90,,,,,,170,180,-182.5,,180,,,,,,180,2,FI
Eric Platel,B,Raw,45,M,M-M2,109.2,110,,,,,,160,180,,,180,,,,,,180,1,FR
Sean Blackburn,B,Raw,49,M,M-M2,119.3,125,,,,,,172.5,187.5,-202.5,,187.5,,,,,,187.5,1,GB
Mikhail Shumikhin,B,Raw,48,M,M-M2,121.7,125,,,,,,-215,,,,,,,,,,,DQ,RU
Erik Susztay,B,Raw,45,M,M-M2,128.8,140,,,,,,210,220,-227.5,,220,,,,,,220,1,SK
Benny Ferander,B,Raw,45,M,M-M2,132.5,140,,,,,,180,190,195,,195,,,,,,195,2,SE
Sami Salonen,B,Raw,47,M,M-M2,143.5,140+,,,,,,180,190,200,,200,,,,,,200,1,FI
Klaus Renfors,B,Raw,44,M,M-M1,89.6,90,,,,,,135,142.5,145,,145,,,,,,145,1,FI
Florindo Figueiredo Pinheiro,B,Raw,43,M,M-M1,97.1,100,,,,,,235,240,-250.5,,240,,,,,,240,1,PT
Rami Haaparanta,B,Raw,41,M,M-M1,99.7,100,,,,,,190,200,207.5,,207.5,,,,,,207.5,2,FI
Jorma Mäkeläinen,B,Raw,41,M,M-M1,97.9,100,,,,,,150,157.5,-160,,157.5,,,,,,157.5,3,FI
Petri Salonen,B,Raw,41,M,M-M1,107.8,110,,,,,,180,190,-200,,190,,,,,,190,1,FI
Paul Morgan,B,Raw,44,M,M-M1,100.6,110,,,,,,150,,,,150,,,,,,150,2,GB
Mihail Rapoport,B,Raw,18,M,M-T3,74.6,75,,,,,,130,135,137.5,,137.5,,,,,,137.5,1,LV
Zurfluh Cédric,B,Raw,18,M,M-T3,79.9,82.5,,,,,,120,125,-130,,125,,,,,,125,1,CH
Valtteri Salmi,B,Raw,19,M,M-T3,149,140+,,,,,,-200,-210,-220,,,,,,,,,DQ,FI
Denis Borcha,B,Raw,17,M,M-T2,142.4,140+,,,,,,-150,150,-155,,150,,,,,,150,1,SK
Thomas Mouroux,B,Raw,20,M,M-J,66.9,67.5,,,,,,115,120,125,,125,,,,,,125,1,FR
Maks Larionov,B,Raw,21,M,M-J,81.3,82.5,,,,,,130,140,145,,145,,,,,,145,1,FI
Valentin Rohm,B,Raw,22,M,M-J,82.7,90,,,,,,140,152.5,-157.5,,152.5,,,,,,152.5,1,DE
Jani Virtanen,B,Raw,22,M,M-J,97.6,100,,,,,,180,187.5,-192.5,,187.5,,,,,,187.5,1,FI
Miiko Kyöttinen,B,Raw,20,M,M-J,92.6,100,,,,,,165,,,,165,,,,,,165,2,FI
Hawar Abas,B,Raw,23,M,M-J,109,110,,,,,,170,185,-200,,185,,,,,,185,1,SE
Jordi Hérnandez,B,Raw,23,M,M-J,106.6,110,,,,,,142.5,152.5,157.5,,157.5,,,,,,157.5,2,ES
Eduino Domingos,B,Raw,34,M,M-O,74.9,75,,,,,,150,160,170,,170,,,,,,170,1,PT
Niko Kaipainen,B,Raw,28,M,M-O,74.9,75,,,,,,155,160,167.5,,167.5,,,,,,167.5,2,FI
Henri Vauto,B,Raw,30,M,M-O,74,75,,,,,,125,135,-142.5,,135,,,,,,135,3,FI
Boris Laishin,B,Raw,66,M,M-O,69.5,75,,,,,,107.5,110,-112.5,,110,,,,,,110,4,IL
Gembiczki Attila,B,Raw,30,M,M-O,80.5,82.5,,,,,,180,185,190,,190,,,,,,190,1,HU
Juuso Mela,B,Raw,29,M,M-O,80.8,82.5,,,,,,175,-185,-185,,175,,,,,,175,2,FI
Luis Simöes,B,Raw,35,M,M-O,88,90,,,,,,190,195,200,,200,,,,,,200,1,PT
Mitchell Revenscroft,B,Raw,28,M,M-O,88.2,90,,,,,,185,-195,-200,,185,,,,,,185,2,GB
Florindo Figueiredo Pinheiro,B,Raw,43,M,M-O,97.1,100,,,,,,235,240,-250.5,,240,,,,,,240,1,PT
Juha Tuomainen,B,Raw,34,M,M-O,99.9,100,,,,,,220,227.5,-232.5,,227.5,,,,,,227.5,2,FI
Jani Turtiainen,B,Raw,36,M,M-O,99.6,100,,,,,,205,215,222.5,,222.5,,,,,,222.5,3,FI
Dmtrii Iankov,B,Raw,24,M,M-O,98.2,100,,,,,,175,-180,180,,180,,,,,,180,4,RU
Aaron Fillery,B,Raw,29,M,M-O,93.6,100,,,,,,155,160,-162.5,,160,,,,,,160,5,GB
Veli-Matti Salmi,B,Raw,36,M,M-O,106.9,110,,,,,,190,200,-210,,200,,,,,,200,1,FI
Petri Salonen,B,Raw,41,M,M-O,107.8,110,,,,,,180,190,-200,,190,,,,,,190,2,FI
Hannu Koskinen,B,Raw,35,M,M-O,116.2,125,,,,,,225,232.5,-242.5,,232.5,,,,,,232.5,1,FI
Aleksandr Vovenko,B,Raw,36,M,M-O,119.7,125,,,,,,200,212.5,-217.5,,212.5,,,,,,212.5,2,RU
Chris Kalsuk,B,Raw,24,M,M-O,120.9,125,,,,,,175,180,-192.5,,180,,,,,,180,3,DE
Tero Vuorio,B,Raw,37,M,M-O,124.2,125,,,,,,160,-170,-170,,160,,,,,,160,4,FI
Mikhail Shumikhin,B,Raw,48,M,M-O,121.7,125,,,,,,-215,,,,,,,,,,,DQ,RU
Dimitrii Rezaikin,B,Raw,33,M,M-O,129.7,140,,,,,,230,237.5,-245,,237.5,,,,,,237.5,1,RU
Erik Susztay,B,Raw,45,M,M-O,128.8,140,,,,,,210,220,-227.5,,220,,,,,,220,2,SK
Tero Ylivinkka,B,Raw,51,M,M-O,132.5,140,,,,,,190,-195,,,190,,,,,,190,3,FI
Lauri Härkä,B,Raw,33,M,M-O,149.8,140+,,,,,,220,-230,,,220,,,,,,220,1,FI
Josh Brown,B,Raw,26,M,M-O,155.3,140+,,,,,,210,220,-232.5,,220,,,,,,220,2,GB
Jussi Kananen,B,Raw,32,M,M-O,153.2,140+,,,,,,-195,195,-200,,195,,,,,,195,3,FI
Valtteri Salmi,B,Raw,19,M,M-O,149,140+,,,,,,-200,-210,-220,,,,,,,,,DQ,FI
Maiju Hilander,D,Raw,59,F,F-M4,72.4,75,,,,,,,,,,,155,165,170,,170,170,1,FI
Minna Paler,D,Raw,49,F,F-M2,58.5,60,,,,,,,,,,,115,125,135,-137.5,135,135,1,FI
Mira Mustonen,D,Raw,47,F,F-M2,67.5,67.5,,,,,,,,,,,180,190,-195,,190,190,1,FI
Virpi Knuutila,D,Raw,49,F,F-M2,81.2,82.5,,,,,,,,,,,210,-222.5,,,210,210,1,FI
Tomilov Elizabet,D,Raw,13,F,F-T1,54.1,56,,,,,,,,,,,72.5,80,82.5,,82.5,82.5,1,IL
Aurore Obry,D,Raw,23,F,F-J,59.2,60,,,,,,,,,,,110,122.5,-135,,122.5,122.5,1,FR
Tatiana Conde,D,Raw,22,F,F-J,72.9,75,,,,,,,,,,,160,172.5,-176,,172.5,172.5,1,ES
Natalia Gadolin,D,Raw,23,F,F-J,89.2,90,,,,,,,,,,,155,182.5,-190,,182.5,182.5,1,FI
Nea Hakonen,D,Raw,22,F,F-J,101.5,90+,,,,,,,,,,,190,200,-220,,200,200,1,FI
Olga Iarmoliuk,D,Raw,28,F,F-O,51.7,52,,,,,,,,,,,147.5,157.5,163,,163,163,1,UA
Natalia Hípola,D,Raw,35,F,F-O,59.8,60,,,,,,,,,,,145,160,-162.5,,160,160,1,ES
Sanna Purhonen,D,Raw,31,F,F-O,66.5,67.5,,,,,,,,,,,160,172.5,-182.5,,172.5,172.5,1,FI
Etelvina Neves,D,Raw,31,F,F-O,74.6,75,,,,,,,,,,,190,200,205,,205,205,1,PT
Maiju Hilander,D,Raw,59,F,F-O,72.4,75,,,,,,,,,,,155,165,170,,170,170,2,FI
Virpi Knuutila,D,Raw,49,F,F-O,81.2,82.5,,,,,,,,,,,210,-222.5,,,210,210,1,FI
Laura Mastroberti,D,Raw,32,F,F-O,76.1,82.5,,,,,,,,,,,170,-185,-185,,170,170,2,IT
Kauko Viitala,D,Raw,78,M,M-M8,81.2,82.5,,,,,,,,,,,140,150,-157.5,,150,150,1,FI
Rane Ovaska,D,Raw,57,M,M-M4,80.6,82.5,,,,,,,,,,,210,-225,-225,,210,210,1,FI
Achille Marrone,D,Raw,55,M,M-M4,94.6,100,,,,,,,,,,,260,-275.5,,,260,260,1,IT
Jere Marttila,D,Raw,55,M,M-M4,99.2,100,,,,,,,,,,,190,205,-217.5,,205,205,2,FI
Georgi Manavski,D,Raw,55,M,M-M4,114,125,,,,,,,,,,,180,200,210,,210,210,1,BG
Andrey Dobrenko,D,Raw,53,M,M-M3,81.3,82.5,,,,,,,,,,,200,220,-235,,220,220,1,RU
Petri Mäkinen,D,Raw,53,M,M-M3,89.6,90,,,,,,,,,,,155,165,172.5,,172.5,172.5,1,FI
Ahti Korkea,D,Raw,48,M,M-M2,101.8,110,,,,,,,,,,,200,230,-275,,230,230,1,FI
Ahmadreza Nasiriavanaki,D,Raw,44,M,M-M1,96.2,100,,,,,,,,,,,170,205,-220,,205,205,1,IR
Daniel Martinez,D,Raw,42,M,M-M1,102,110,,,,,,,,,,,300,320,-330,,320,320,1,ES
Petri Salonen,D,Raw,41,M,M-M1,107.8,110,,,,,,,,,,,250,260,270,,270,270,2,FI
Gregory Morel,D,Raw,19,M,M-T3,92.4,100,,,,,,,,,,,240,260,-280,,260,260,1,FR
Souleiman Turki,D,Raw,17,M,M-T2,67.2,67.5,,,,,,,,,,,205,215.5,220,-222.5,220,220,1,FR
Armin Jafari,D,Raw,22,M,M-J,80.2,82.5,,,,,,,,,,,120,140,-150,,140,140,1,IR
Miiko Kyöttinen,D,Raw,20,M,M-J,92.6,100,,,,,,,,,,,-245,-245,,,,,DQ,FI
Hawar Abas,D,Raw,23,M,M-J,109,110,,,,,,,,,,,280,300,,,300,300,1,SE
Jordi Hérnandez,D,Raw,23,M,M-J,101.6,110,,,,,,,,,,,220,250,272.5,,272.5,272.5,2,ES
Kalle Ryhtä,D,Raw,39,M,M-O,49.8,52,,,,,,,,,,,105,115,120,,120,120,1,FI
Henri Vauto,D,Raw,30,M,M-O,74,75,,,,,,,,,,,215,240,-255,,240,240,1,FI
Konstantin Ershov,D,Raw,27,M,M-O,74.4,75,,,,,,,,,,,160,180,-200,,180,180,2,RU
Juuso Mela,D,Raw,29,M,M-O,80.8,82.5,,,,,,,,,,,240,-257.5,257.5,,257.5,257.5,1,FI
Janne Rissanen,D,Raw,31,M,M-O,90,90,,,,,,,,,,,302.5,312.5,320,,320,320,1,FI
Vladimir Hristov,D,Raw,33,M,M-O,90,90,,,,,,,,,,,220,260,270,,270,270,2,BG
Ilkka Mäkelä,D,Raw,34,M,M-O,89,90,,,,,,,,,,,250,-265,-265,,250,250,3,FI
Grégoire Ho Bing Huang,D,Raw,34,M,M-O,98.8,100,,,,,,,,,,,300,320,322.5,,322.5,322.5,1,FR
Oskari Lehtinen,D,Raw,28,M,M-O,99.6,100,,,,,,,,,,,300,317.5,322.5,,322.5,322.5,2,FI
Niko Andersson,D,Raw,29,M,M-O,98.8,100,,,,,,,,,,,250,-280,295,,295,295,3,FI
Vesa Taavitsainen,D,Raw,32,M,M-O,93.5,100,,,,,,,,,,,260,280,-290,,280,280,4,FI
Aaron Fillery,D,Raw,29,M,M-O,93.6,100,,,,,,,,,,,270,275,280,,280,280,5,GB
Daniel Martinez,D,Raw,42,M,M-O,102,110,,,,,,,,,,,300,320,-330,,320,320,1,ES
Naël Cetout,D,Raw,27,M,M-O,103.8,110,,,,,,,,,,,310,-315,-315,,310,310,2,FR
Sergey Daragan,D,Raw,39,M,M-O,123.2,125,,,,,,,,,,,370,385,400,,400,400,1,RU
Aleksandr Vovenko,D,Raw,36,M,M-O,119.7,125,,,,,,,,,,,300,315,325,,325,325,2,RU
Tero Vuorio,D,Raw,37,M,M-O,124.2,125,,,,,,,,,,,220,240,-245,,240,240,3,FI
Evgeny Yushchenko,D,Raw,31,M,M-O,116.4,125,,,,,,,,,,,225,-240,-240,,225,225,4,RU
Hristo Muskov,D,Raw,31,M,M-O,125.2,140,,,,,,,,,,,330,345,-355,,345,345,1,BG
Alla Pugovkina,B,Single-ply,41,F,F-O-SP,88.8,90,,,,,,152.5,160,165,,165,,,,,,165,1,RU
Dagmar Liptáková,B,Multi-ply,41,F,F-M1,63.2,67.5,,,,,,120,130,-135,,130,,,,,,130,1,SK
Júlia Kostúrová,B,Multi-ply,27,F,F-O,71.4,75,,,,,,172.5,182.5,192.5,,192.5,,,,,,192.5,1,SK
Aleksandr Tkachuk,B,Single-ply,77,M,M-M8-SP,77.6,82.5,,,,,,95,100,105,,105,,,,,,105,1,RU
Sergei Nikiforov,B,Single-ply,69,M,M-M6-SP,74.6,75,,,,,,135,-145,-145,,135,,,,,,135,1,RU
Esmaeil Fotovat,B,Single-ply,62,M,M-M5-SP,90.1,100,,,,,,170,186,187.5,,187.5,,,,,,187.5,1,IR
Paul Morgan,B,Single-ply,44,M,M-M1-SP,99.8,100,,,,,,220,235,-250,,235,,,,,,235,1,GB
Jarno Rajala,B,Single-ply,43,M,M-M1-SP,132.3,140,,,,,,270,280,290,,290,,,,,,290,1,FI
Lewis King,B,Single-ply,22,M,M-J-SP,120.5,125,,,,,,-185,185,-195,,185,,,,,,185,1,GB
Ayrat Sufiyanov,B,Single-ply,33,M,M-O-SP,66.2,67.5,,,,,,-190,190,197.5,,197.5,,,,,,197.5,1,RU
Vincent Eldin,B,Single-ply,45,M,M-O-SP,74.4,75,,,,,,-172.5,-185,185,,185,,,,,,185,1,FR
Arttu Wahlström,B,Single-ply,30,M,M-O-SP,82.3,82.5,,,,,,220,-230,-230,,220,,,,,,220,1,FI
Sergey Tesaruk,B,Single-ply,33,M,M-O-SP,99.4,100,,,,,,240,-252.5,252.5,,252.5,,,,,,252.5,1,RU
Nikolay Alyshev,B,Single-ply,31,M,M-O-SP,109.1,110,,,,,,302.5,312.5,-323,,312.5,,,,,,312.5,1,RU
Darius Janutis,B,Single-ply,31,M,M-O-SP,109,110,,,,,,160,170,-200,,170,,,,,,170,2,LT
Kalle Ylitalo-James,B,Single-ply,34,M,M-O-SP,124.9,125,,,,,,300,-325,-325,,300,,,,,,300,1,FI
Lukasz Toczylowski,B,Single-ply,32,M,M-O-SP,136.3,140,,,,,,-290,-300,300,,300,,,,,,300,1,IT
Tapio Laine,B,Multi-ply,65,M,M-M6,127.8,140,,,,,,240,250,260,,260,,,,,,260,1,FI
Didier Theux,B,Multi-ply,59,M,M-M4,82.3,82.5,,,,,,200,212.5,-222.5,,212.5,,,,,,212.5,1,FR
Reijo Marin,B,Multi-ply,57,M,M-M4,112.3,125,,,,,,210,225,-232.5,,225,,,,,,225,1,FI
Marcus Young,B,Multi-ply,52,M,M-M3,87.7,90,,,,,,165,170,-180,,170,,,,,,170,1,FI
Tomilov Valery,B,Multi-ply,53,M,M-M3,99.1,100,,,,,,230,-250,,,230,,,,,,230,1,IL
Vesa Nissilä,B,Multi-ply,54,M,M-M3,110.1,125,,,,,,175,182.5,190,,190,,,,,,190,1,FI
Juha Kokkonen,B,Multi-ply,51,M,M-M3,130.3,140,,,,,,,,,,,,,,,,,DQ,FI
Eric Platel,B,Multi-ply,45,M,M-M2,110,110,,,,,,240,255,-270,,255,,,,,,255,1,FR
Sean Blackburn,B,Multi-ply,49,M,M-M2,118.2,125,,,,,,220,-240,255,,255,,,,,,255,1,GB
Denis Borcha,B,Multi-ply,17,M,M-T2,142,140+,,,,,,140,,,,140,,,,,,140,1,SK
Marek Herák,B,Multi-ply,21,M,M-J,65.5,67.5,,,,,,180,190,200,-211,200,,,,,,200,1,SK
Marek Herák,B,Multi-ply,21,M,M-O,65.5,67.5,,,,,,180,190,200,-211,200,,,,,,200,1,SK
Jonne Fräntilä,B,Multi-ply,29,M,M-O,66.6,67.5,,,,,,165,-182.5,182.5,,182.5,,,,,,182.5,2,FI
Roman Pelykh,B,Multi-ply,31,M,M-O,73.4,75,,,,,,210,220,230,,230,,,,,,230,1,UA
Didier Theux,B,Multi-ply,59,M,M-O,82.3,82.5,,,,,,200,212.5,-222.5,,212.5,,,,,,212.5,1,FR
Vesa Partala,B,Multi-ply,37,M,M-O,80.7,82.5,,,,,,-260,-260,-260,,,,,,,,,DQ,FI
Janne Nissilä,B,Multi-ply,25,M,M-O,90,90,,,,,,180,-200,-205,,180,,,,,,180,1,FI
Valentin Cacici,B,Multi-ply,27,M,M-O,88.3,90,,,,,,-275,-285,-295,,,,,,,,,DQ,FR
Steeve Barros Gameiro,B,Multi-ply,38,M,M-O,99.3,100,,,,,,290,-310,310,,310,,,,,,310,1,FR
Rami Haaparanta,B,Multi-ply,41,M,M-O,99.7,100,,,,,,-320,-330,-340,,,,,,,,,DQ,FI
Petteri Hosio Henrik,B,Multi-ply,38,M,M-O,116.6,125,,,,,,370,-390,-400,,370,,,,,,370,1,FI
Aaron Hosking,B,Multi-ply,33,M,M-O,133.8,140,,,,,,275,287.5,-300,,287.5,,,,,,287.5,1,GB
Kari Kalliola,B,Multi-ply,54,M,M-O,162.7,140+,,,,,,300,320,,,320,,,,,,320,1,FI
Antonin Adamov,D,Single-ply,59,M,M-M4-SP,99,100,,,,,,,,,,,230,260,-275,,260,260,1,RU
Seppo Laukkanen,D,Single-ply,55,M,M-M4-SP,103.7,110,,,,,,,,,,,270,285,-300,,285,285,1,FI
Georgi Manavski,D,Single-ply,55,M,M-M4-SP,112.7,125,,,,,,,,,,,210,235,260,,260,260,1,BG
Tomilov Valery,D,Single-ply,52,M,M-M3-SP,99.1,100,,,,,,,,,,,230,252.5,,,252.5,252.5,1,IL
Niclas Friberg,D,Single-ply,43,M,M-M1-SP,89.4,90,,,,,,,,,,,250,,,,250,250,1,SE
Zydrunas Koseliovas,D,Single-ply,25,M,M-O-SP,80.6,82.5,,,,,,,,,,,210,230,-250,,230,230,1,LT
Jérémy Babin,D,Single-ply,27,M,M-O-SP,86.3,90,,,,,,,,,,,250,-275,275,,275,275,1,FR
Austin Hickey,D,Single-ply,37,M,M-O-SP,99.8,100,,,,,,,,,,,260,275,-290,,275,275,1,IE
Hristo Muskov,D,Single-ply,31,M,M-O-SP,122.3,125,,,,,,,,,,,315,325,335,,335,335,1,BG
Peter Hallberg,D,Single-ply,29,M,M-O-SP,127.9,140,,,,,,,,,,,250,-280,290,-300,290,290,1,SE
Didier Theux,D,Multi-ply,59,M,M-M4,82.3,82.5,,,,,,,,,,,240,-252.5,-252.5,,240,240,1,FR
Pasi Koukkula,D,Multi-ply,46,M,M-M2,89.5,90,,,,,,,,,,,270.5,285,-300,,285,285,1,FI
Antti Kousa,D,Multi-ply,43,M,M-M1,108.1,110,,,,,,,,,,,255,280,-300,,280,280,1,FI
Janne Nissilä,D,Multi-ply,25,M,M-O,90,90,,,,,,,,,,,220,-235,-235,,220,220,1,FI
