Place,Sex,Name,Event,Division,WeightClassKg,Equipment,Team,BodyweightKg,Squat1Kg,Squat2Kg,Squat3Kg,Best3SquatKg,Bench1Kg,Bench2Kg,Bench3Kg,Best3BenchKg,Deadlift1Kg,Deadlift2Kg,Deadlift3Kg,Best3DeadliftKg,TotalKg,BirthYear
1,M,Matthew Devine,SBD,HSJV,53,Single-ply,ABH,51.6,130,140,142.5,142.5,87.5,-95,95,95,145,157.5,162.5,162.5,400,1997
2,M,Tanner Underberg,SBD,HSJV,53,Single-ply,HOL,48.5,122.5,-132.5,-132.5,122.5,57.5,67.5,-72.5,67.5,137.5,-147.5,,137.5,327.5,1999
3,M,Jair Sanchez,SBD,HSJV,53,Single-ply,WOOD,50.9,97.5,112.5,117.5,117.5,57.5,65,-70,65,-122.5,122.5,-150,122.5,305,2001
4,M,Cole Kaiser,SBD,HSJV,53,Single-ply,RVRF,51.9,-112.5,112.5,,112.5,55,60,-62.5,60,97.5,,,97.5,270,1998
1,M,Nicholas Piparo,SBD,HSJV,59,Single-ply,CDY,55.2,-137.5,137.5,-142.5,137.5,70,-72.5,-72.5,70,155,165,170,170,377.5,1998
2,M,Jake Simuncak,SBD,HSJV,59,Single-ply,SMI,56,142.5,147.5,152.5,152.5,72.5,77.5,82.5,82.5,130,137.5,142.5,142.5,377.5,1999
3,M,Trevor Wolf,SBD,HSJV,59,Single-ply,NEE,58,125,-135,137.5,137.5,60,-65,-65,60,165,172.5,-177.5,172.5,370,1999
4,M,Alexander Ottinger,SBD,HSJV,59,Single-ply,NORT,58.2,-125,137.5,145,145,70,75,-80,75,135,147.5,-160,147.5,367.5,1999
5,M,Daniel McDonald,SBD,HSJV,59,Single-ply,WOOD,55.5,110,122.5,132.5,132.5,65,72.5,-77.5,72.5,127.5,140,150,150,355,1989
6,M,Davion Madlock,SBD,HSJV,59,Single-ply,WOOD,55.6,-127.5,127.5,142.5,142.5,-67.5,67.5,-80,67.5,-137.5,137.5,-170,137.5,347.5,1999
7,M,Gavin Jassoy,SBD,HSJV,59,Single-ply,HRLK,54.9,112.5,-117.5,-117.5,112.5,60,-65,65,65,125,132.5,137.5,137.5,315,1999
1,M,Brian Miller,SBD,HSJV,66,Single-ply,RVRF,59.4,155,-162.5,-162.5,155,72.5,77.5,-80,77.5,162.5,175,177.5,177.5,410,1998
2,M,Austin Owens,SBD,HSJV,66,Single-ply,ELK,65.6,150,-157.5,-157.5,150,82.5,-87.5,87.5,87.5,155,160,165,165,402.5,1998
3,M,Iman Legesse,SBD,HSJV,66,Single-ply,O'GM,59.4,-130,-130,130,130,92.5,-102.5,-102.5,92.5,-150,167.5,-190,167.5,390,2000
4,M,Nathan Berg,SBD,HSJV,66,Single-ply,STMC,65.2,125,135,-145,135,62.5,70,-75,70,162.5,175,-192.5,175,380,1999
5,M,Dewon Campbell,SBD,HSJV,66,Single-ply,WOOD,59.7,122.5,-135,-135,122.5,75,-85,-85,75,152.5,167.5,175,175,372.5,1998
1,M,Zaven Ouzounian,SBD,HSJV,74,Single-ply,HRLK,72.6,187.5,200,207.5,207.5,102.5,107.5,112.5,112.5,187.5,200,-207.5,200,520,1999
2,M,Xeavier Franklin,SBD,HSJV,74,Single-ply,WOOD,71.9,170,190,-202.5,190,97.5,110,117.5,117.5,177.5,195,200,200,507.5,1998
3,M,Tanner Hutchins,SBD,HSJV,74,Single-ply,NEC,73.9,172.5,-185,187.5,187.5,82.5,92.5,102.5,102.5,180,197.5,202.5,202.5,492.5,1999
4,M,Ross Kolodzik,SBD,HSJV,74,Single-ply,OMR,73.8,175,-180,-180,175,102.5,105,-107.5,105,197.5,210,-222.5,210,490,1998
5,M,Luis Perales,SBD,HSJV,74,Single-ply,CZO,71.1,177.5,-187.5,-187.5,177.5,100,107.5,-112.5,107.5,-197.5,197.5,200,200,485,1999
6,M,Noah Johnson,SBD,HSJV,74,Single-ply,HRLK,70.7,160,167.5,175,175,82.5,87.5,95,95,165,175,185,185,455,2000
7,M,Dakota Olson,SBD,HSJV,74,Single-ply,PHI,70.5,-162.5,162.5,-172.5,162.5,95,100,102.5,102.5,162.5,175,187.5,187.5,452.5,1998
8,M,Brandon Johnson,SBD,HSJV,74,Single-ply,AF,69,167.5,-175,-182.5,167.5,82.5,90,-97.5,90,175,187.5,-200,187.5,445,1997
9,M,Brady Burckhardt,SBD,HSJV,74,Single-ply,WIT,67.1,162.5,-172.5,-177.5,162.5,62.5,67.5,72.5,72.5,180,190,192.5,192.5,427.5,1999
10,M,Anthony Melby,SBD,HSJV,74,Single-ply,ECN,68.8,142.5,152.5,157.5,157.5,82.5,-87.5,87.5,87.5,165,177.5,182.5,182.5,427.5,1998
11,M,Anthony Anhalt,SBD,HSJV,74,Single-ply,WIT,72.5,150,160,-165,160,82.5,87.5,92.5,92.5,155,165,170,170,422.5,1998
12,M,Jacob Czaplewski,SBD,HSJV,74,Single-ply,WATU,73.9,-145,145,-160,145,95,107.5,-115,107.5,170,-187.5,-190,170,422.5,1999
13,M,Ian West,SBD,HSJV,74,Single-ply,HSHY,66.2,150,162.5,167.5,167.5,82.5,-90,-90,82.5,150,165,170,170,420,1999
14,M,Shayde Ferrick,SBD,HSJV,74,Single-ply,NEWR,73.6,142.5,150,-157.5,150,85,87.5,-95,87.5,152.5,160,167.5,167.5,405,1999
15,M,Jacob Klatkiewicz,SBD,HSJV,74,Single-ply,WIT,66.6,140,-150,-155,140,77.5,82.5,85,85,147.5,-157.5,177.5,177.5,402.5,2000
16,M,Dominic Taschler,SBD,HSJV,74,Single-ply,WOOS,66.8,122.5,-137.5,142.5,142.5,85,92.5,97.5,97.5,150,160,-167.5,160,400,1999
17,M,Darren Svihovec,SBD,HSJV,74,Single-ply,ELK,66.8,147.5,-152.5,-152.5,147.5,85,92.5,-95,92.5,147.5,157.5,-162.5,157.5,397.5,1998
1,M,Isaac Jerde,SBD,HSJV,83,Single-ply,APN,80.3,205,212.5,-217.5,212.5,102.5,110,122.5,122.5,205,-215,-215,205,540,1998
2,M,Jiar Santiago,SBD,HSJV,83,Single-ply,MAR,74.8,202.5,215,-225,215,92.5,100,-105,100,190,-205,215,215,530,
3,M,Ryan Sanders,SBD,HSJV,83,Single-ply,BDM,74.3,-187.5,-197.5,197.5,197.5,105,-110,-115,105,202.5,212.5,220,220,522.5,1999
4,M,Cameron Severin,SBD,HSJV,83,Single-ply,ECN,76.7,160,165,170,170,95,-100,-100,95,180,190,205,205,470,1999
5,M,Dalton Staller,SBD,HSJV,83,Single-ply,NEC,81.8,172.5,177.5,-180,177.5,97.5,105,110,110,182.5,-190,-190,182.5,470,1998
6,M,Brandon Haag,SBD,HSJV,83,Single-ply,NEWR,76.2,135,137.5,162.5,162.5,77.5,82.5,-85,82.5,187.5,200,210,210,455,2000
7,M,Taylor Jurgens,SBD,HSJV,83,Single-ply,WATU,81.3,142.5,145,-150,145,102.5,110,112.5,112.5,185,197.5,-205,197.5,455,1999
8,M,Reese Jensen,SBD,HSJV,83,Single-ply,NEE,74.4,145,152.5,-157.5,152.5,62.5,70,77.5,77.5,165,177.5,-182.5,177.5,407.5,1998
9,M,Riley Bangiorno,SBD,HSJV,83,Single-ply,IND,80.1,142.5,150,-160,150,87.5,92.5,97.5,97.5,142.5,150,160,160,407.5,2000
10,M,Corey Prom,SBD,HSJV,83,Single-ply,WIT,74.6,142.5,152.5,160,160,70,75,-77.5,75,167.5,170,-182.5,170,405,2000
DQ,M,Collin Mahn,SBD,HSJV,83,Single-ply,SMI,74.8,167.5,175,-177.5,175,-82.5,-87.5,-87.5,,170,177.5,182.5,182.5,,1999
DQ,M,Samuel Burnison,SBD,HSJV,83,Single-ply,O'GM,79.3,175,182.5,-190,182.5,-92.5,-92.5,-102.5,,192.5,-205,-205,192.5,,
1,M,Cooper Riehl,SBD,HSJV,93,Single-ply,STMC,83.6,187.5,200,210,210,100,105,110,110,210,222.5,235,235,555,1999
2,M,Hector Espinoza,SBD,HSJV,93,Single-ply,WOOD,84.9,185,207.5,217.5,217.5,110,117.5,122.5,122.5,185,205,215,215,555,1998
3,M,Nicholas Dulaney,SBD,HSJV,93,Single-ply,OCR,91.8,-192.5,192.5,-200,192.5,107.5,-112.5,-112.5,107.5,207.5,212.5,-220,212.5,512.5,
4,M,Russell Murphy,SBD,HSJV,93,Single-ply,CDY,86.9,185,190,197.5,197.5,92.5,-97.5,97.5,97.5,187.5,197.5,210,210,505,1998
5,M,Hunter Brandt,SBD,HSJV,93,Single-ply,MRHD,91.9,-175,180,185,185,110,-117.5,117.5,117.5,175,182.5,195,195,497.5,1999
6,M,Hunter Burlingame,SBD,HSJV,93,Single-ply,ELK,88.6,180,200,-205,200,85,90,-92.5,90,192.5,202.5,-215,202.5,492.5,2000
7,M,Joe Brittain,SBD,HSJV,93,Single-ply,HSHY,83.9,-177.5,187.5,-200,187.5,90,100,102.5,102.5,180,200,-212.5,200,490,1998
8,M,Andrew Benson,SBD,HSJV,93,Single-ply,ELK,85.6,170,180,185,185,80,85,-92.5,85,185,197.5,207.5,207.5,477.5,2000
DQ,M,Drake Schafer,SBD,HSJV,93,Single-ply,O'GM,87.7,-175,-175,-175,,90,95,-102.5,95,-180,180,-205,180,,1999
1,M,Andre Dusek,SBD,HSJV,105,Single-ply,RVRF,98.7,220,250,262.5,262.5,102.5,125,-130,125,-185,185,200,200,587.5,1998
2,M,Cade Quillin,SBD,HSJV,105,Single-ply,OCR,94.9,-212.5,212.5,-220,212.5,122.5,-127.5,-127.5,122.5,207.5,-215,-215,207.5,542.5,1998
3,M,Shan Bloomer Jr,SBD,HSJV,105,Single-ply,NEC,96.9,197.5,210,220,220,90,100,-110,100,-182.5,182.5,-202.5,182.5,502.5,
4,M,Eli Froemming,SBD,HSJV,105,Single-ply,RVRF,94.3,-175,175,-200,175,92.5,-102.5,102.5,102.5,172.5,190,205,205,482.5,2000
5,M,Brenden Segreto,SBD,HSJV,105,Single-ply,HOL,95,177.5,187.5,-195,187.5,92.5,97.5,102.5,102.5,165,175,182.5,182.5,472.5,1998
6,M,Dustin Knopps,SBD,HSJV,105,Single-ply,IND,96.3,165,172.5,182.5,182.5,100,105,107.5,107.5,167.5,175,182.5,182.5,472.5,2000
7,M,Olinh Craig,SBD,HSJV,105,Single-ply,BIG,96.2,172.5,182.5,-192.5,182.5,97.5,-102.5,-102.5,97.5,165,175,-190,175,455,1999
8,M,Joshua Mauel,SBD,HSJV,105,Single-ply,KAU,98.4,147.5,155,160,160,102.5,115,-125,115,165,175,-185,175,450,1999
9,M,Austin Januchowski,SBD,HSJV,105,Single-ply,SMI,98.4,-167.5,-167.5,167.5,167.5,95,100,-105,100,175,180,-182.5,180,447.5,1999
DQ,M,Aaron Carpenter,SBD,HSJV,105,Single-ply,BIG,98.4,-160,-160,-160,,97.5,-105,-105,97.5,165,175,-185,175,,1999
1,M,Walker Julious,SBD,HSJV,120,Single-ply,WOOD,105.3,242.5,267.5,282.5,282.5,125,140,147.5,147.5,230,250,260,260,690,1999
2,M,Nicholas Cataldi,SBD,HSJV,120,Single-ply,PENN,105.5,225,-242.5,242.5,242.5,125,135,-142.5,135,225,242.5,-252.5,242.5,620,1998
3,M,Edward Uden,SBD,HSJV,120,Single-ply,BIG,107.8,245,-255,-255,245,120,127.5,-132.5,127.5,230,-240,242.5,242.5,615,
4,M,Matt Stauch,SBD,HSJV,120,Single-ply,HSHY,108.6,215,235,-242.5,235,135,-142.5,142.5,142.5,187.5,210,-212.5,210,587.5,1999
5,M,Owen Rozumalski,SBD,HSJV,120,Single-ply,OCR,106.6,-192.5,192.5,200,200,107.5,-110,-110,107.5,187.5,-192.5,-192.5,187.5,495,2000
6,M,Danny Carpenter,SBD,HSJV,120,Single-ply,BIG,118.3,195,-205,-205,195,-107.5,107.5,110,110,175,-182.5,-190,175,480,
1,M,David Still,SBD,HSJV,120+,Single-ply,HSHY,121.9,185,200,217.5,217.5,95,105,110,110,165,177.5,185,185,512.5,1999
2,M,Christian Negrete,SBD,HSJV,120+,Single-ply,WOOD,126.7,182.5,197.5,-210,197.5,105,115,122.5,122.5,175,190,-200,190,510,1998
1,M,Kenneth Johnson,SBD,Y,53,Single-ply,HRLK,51.4,155,165,177.5,177.5,62.5,75,82.5,82.5,180,192.5,197.5,197.5,457.5,1997
2,M,Trai Chatman,SBD,Y,53,Single-ply,COV,50.9,135,-147.5,-150,135,82.5,92.5,100,100,135,147.5,155,155,390,1998
3,M,Brandon Schaenzer,SBD,Y,53,Single-ply,APN,51.5,132.5,142.5,-147.5,142.5,60,62.5,65,65,160,-165,165,165,372.5,1997
4,M,Trace Lawson,SBD,Y,53,Single-ply,ASH,51.1,140,-152.5,-152.5,140,-75,75,77.5,77.5,152.5,-165,-172.5,152.5,370,1998
5,M,Bryce Londerville,SBD,Y,53,Single-ply,NEE,51.6,125,130,-137.5,130,60,67.5,75,75,140,147.5,-157.5,147.5,352.5,1998
6,M,Joshua Mitchell,SBD,Y,53,Single-ply,GMILL,49.7,-95,95,-110,95,50,-55,55,55,107.5,120,-130,120,270,1997
1,M,Terrance Phillips,SBD,Y,59,Single-ply,ASH,55.4,180,-195,195,195,90,95,97.5,97.5,-180,180,-190,180,472.5,1999
2,M,Rodney Garcia,SBD,Y,59,Single-ply,CZO,58.6,170,-175,175,175,92.5,-97.5,-97.5,92.5,177.5,-182.5,-185,177.5,445,1997
3,M,Jamie Gunderson,SBD,Y,59,Single-ply,ALT,58.6,152.5,162.5,170,170,87.5,92.5,-100,92.5,162.5,172.5,182.5,182.5,445,1998
4,M,Ellizer Clune-Cabigting,SBD,Y,59,Single-ply,OSHN,55.4,160,-170,-170,160,82.5,92.5,-105,92.5,157.5,177.5,187.5,187.5,440,1999
5,M,Steve Nguyen,SBD,Y,59,Single-ply,NEE,53.9,-130,135,145,145,75,82.5,90,90,130,140,147.5,147.5,382.5,1992
6,M,Nijere James,SBD,Y,59,Single-ply,GMILL,55.5,107.5,-120,120,120,55,62.5,-67.5,62.5,160,172.5,180,180,362.5,1998
7,M,Thomas Jones,SBD,Y,59,Single-ply,GMILL,57,117.5,-127.5,127.5,127.5,72.5,77.5,-85,77.5,147.5,157.5,-165,157.5,362.5,1997
8,M,Tanner Lamarche,SBD,Y,59,Single-ply,ASH,55,125,-135,135,135,80,85,-92.5,85,140,-152.5,-155,140,360,1997
9,M,Michael Miles,SBD,Y,59,Single-ply,WHI,55.5,-125,125,135,135,70,77.5,82.5,82.5,137.5,-160,-160,137.5,355,1998
10,M,Justin Hurajt,SBD,Y,59,Single-ply,RVRF,55.5,-120,120,130,130,65,70,72.5,72.5,137.5,-145,-145,137.5,340,1997
11,M,Stefan Butterbrodt,SBD,Y,59,Single-ply,STO,55.5,127.5,-137.5,-137.5,127.5,65,-67.5,67.5,67.5,142.5,-152.5,-152.5,142.5,337.5,1998
DQ,M,Dylan Lanke,SBD,Y,59,Single-ply,AF,55.3,-155,-155,-155,,75,80,-82.5,80,147.5,-152.5,152.5,152.5,,1997
1,M,Voelkel Michael,SBD,Y,66,Single-ply,WIT,64.9,215,227.5,-232.5,227.5,115,122.5,130,130,215,-230,-230,215,572.5,1998
2,M,Haubert Sawyer,SBD,Y,66,Single-ply,PHI,65.8,185,-195,-195,185,152.5,-160,-160,152.5,205,-217.5,-217.5,205,542.5,1997
3,M,Spencer Perry,SBD,Y,66,Single-ply,ASH,59.9,170,182.5,-195,182.5,90,97.5,102.5,102.5,195,207.5,-215,207.5,492.5,1998
4,M,Colin Zimprich,SBD,Y,66,Single-ply,O'GM,65.8,150,-165,167.5,167.5,115,120,-125,120,-182.5,192.5,200,200,487.5,1997
5,M,Nicholas Jones,SBD,Y,66,Single-ply,POY,65.1,157.5,-167.5,-167.5,157.5,112.5,-122.5,-122.5,112.5,190,210,-217.5,210,480,1997
6,M,Hunter Hicks,SBD,Y,66,Single-ply,ASH,59.3,170,182.5,-195,182.5,97.5,102.5,-107.5,102.5,-180,180,-195,180,465,1999
7,M,Matthew Kuss,SBD,Y,66,Single-ply,COV,59.1,170,180,-187.5,180,82.5,92.5,-95,92.5,170,182.5,-192.5,182.5,455,1997
8,M,Mark Miller,SBD,Y,66,Single-ply,RVRF,59.1,170,185,192.5,192.5,70,-77.5,-77.5,70,-175,187.5,-195,187.5,450,1996
9,M,Joseph Mui,SBD,Y,66,Single-ply,NEE,59.3,-165,165,175,175,80,87.5,-90,87.5,170,180,187.5,187.5,450,1998
10,M,Dylan Seuell,SBD,Y,66,Single-ply,GMILL,59.8,155,-167.5,167.5,167.5,95,-107.5,-107.5,95,167.5,-177.5,-190,167.5,430,1997
11,M,Bryce Johnson #2,SBD,Y,66,Single-ply,HRLK,59.7,150,162.5,-167.5,162.5,-80,80,87.5,87.5,150,160,-167.5,160,410,1998
12,M,Noah Anderson,SBD,Y,66,Single-ply,O'GM,59.5,145,-160,-160,145,80,-90,-90,80,167.5,-175,-175,167.5,392.5,2003
13,M,Alexander Roeun,SBD,Y,66,Single-ply,GMILL,59.1,107.5,-122.5,122.5,122.5,70,75,-82.5,75,150,-162.5,-162.5,150,347.5,1997
DQ,M,Dan Poole,SBD,Y,66,Single-ply,RCEN,65.3,150,-165,-165,150,-127.5,-127.5,-127.5,,192.5,-205,205,205,,
1,M,Romellow Dawson,SBD,Y,74,Single-ply,AF,67.1,230,237.5,245,245,-125,125,130,130,250,265,275,275,650,1996
2,M,Teddy Gildersleeve,SBD,Y,74,Single-ply,OSC,71.5,227.5,242.5,245,245,112.5,120,125,125,272.5,-292.5,-292.5,272.5,642.5,1997
3,M,Jacob Cooper,SBD,Y,74,Single-ply,ASH,66.3,-240,240,-265,240,112.5,115,120,120,225,-240,240,240,600,1996
4,M,Shawn Warren,SBD,Y,74,Single-ply,COV,66.6,-215,-215,215,215,122.5,132.5,137.5,137.5,-220,220,235,235,587.5,1997
5,M,William Lewis,SBD,Y,74,Single-ply,ASH,73.8,225,237.5,-245,237.5,100,105,-110,105,222.5,235,240,240,582.5,1998
6,M,Sam Janssen,SBD,Y,74,Single-ply,LCH,73.4,205,217.5,225,225,115,125,130,130,207.5,225,-232.5,225,580,1997
7,M,Riley Porath,SBD,Y,74,Single-ply,NEE,74,-220,220,227.5,227.5,115,125,135,135,210,217.5,-227.5,217.5,580,1997
8,M,Steven Bonin,SBD,Y,74,Single-ply,WIT,73,210,222.5,232.5,232.5,-115,120,127.5,127.5,187.5,197.5,202.5,202.5,562.5,1996
9,M,William Young,SBD,Y,74,Single-ply,GMILL,73,167.5,182.5,197.5,197.5,107.5,122.5,130,130,167.5,195,202.5,202.5,530,1997
10,M,Ethan Jensen,SBD,Y,74,Single-ply,HRLK,73.7,177.5,187.5,-202.5,187.5,110,117.5,125,125,202.5,215,-220,215,527.5,1997
11,M,Travis Schmitt,SBD,Y,74,Single-ply,WSTBY,73.3,165,175,185,185,125,130,132.5,132.5,185,192.5,200,200,517.5,1997
12,M,Nickolai Schneckloth,SBD,Y,74,Single-ply,KMAN,73.7,180,192.5,-195,192.5,97.5,110,-115,110,192.5,212.5,-220,212.5,515,1997
13,M,Humberto Hernandez,SBD,Y,74,Single-ply,OCR,67.1,187.5,192.5,-200,192.5,90,95,-97.5,95,197.5,205,207.5,207.5,495,1997
14,M,Lavon Schwartz,SBD,Y,74,Single-ply,WHI,67.4,160,-180,180,180,95,102.5,107.5,107.5,182.5,190,-200,190,477.5,1996
15,M,Darryl Mehn,SBD,Y,74,Single-ply,GMILL,67,152.5,165,175,175,95,102.5,-105,102.5,155,172.5,190,190,467.5,1999
DQ,M,James Christiansen,SBD,Y,74,Single-ply,WSAL,67.3,-165,-165,-165,,-97.5,97.5,-100,97.5,192.5,205,-210,205,,1997
1,M,Tyran Garrett,SBD,Y,83,Single-ply,COV,81.9,260,277.5,290,290,155,167.5,172.5,172.5,260,270,-282.5,270,732.5,1997
2,M,Easton Schuster,SBD,Y,83,Single-ply,O'GM,80.9,247.5,262.5,-275,262.5,185,195,-205,195,230,240,250,250,707.5,1996
3,M,Jason Hanson,SBD,Y,83,Single-ply,GET,78.6,235,237.5,242.5,242.5,140,-155,155,155,237.5,245,250,250,647.5,1997
4,M,Brahlaun Thompson,SBD,Y,83,Single-ply,ASH,79.4,222.5,-235,-245,222.5,117.5,122.5,130,130,210,222.5,232.5,232.5,585,1997
5,M,Evan Koehnke,SBD,Y,83,Single-ply,NEE,79.9,215,225,232.5,232.5,102.5,110,-117.5,110,217.5,227.5,-245,227.5,570,1997
6,M,Grant Dole,SBD,Y,83,Single-ply,ASH,80.6,195,212.5,-220,212.5,-132.5,137.5,-147.5,137.5,195,-207.5,-207.5,195,545,1997
7,M,Nicholas Walker,SBD,Y,83,Single-ply,O'GM,80.7,187.5,197.5,-205,197.5,110,-120,120,120,227.5,-245,-252.5,227.5,545,1997
8,M,Kevin Williams,SBD,Y,83,Single-ply,GMILL,81.3,175,192.5,-205,192.5,102.5,112.5,-117.5,112.5,197.5,222.5,-242.5,222.5,527.5,1990
9,M,Sheldon Fadness,SBD,Y,83,Single-ply,HWD,81.1,-175,175,-192.5,175,142.5,150,-180,150,182.5,192.5,200,200,525,1997
10,M,Emire Hill,SBD,Y,83,Single-ply,GMILL,81.8,167.5,197.5,-210,197.5,-107.5,115,-122.5,115,167.5,195,-215,195,507.5,1998
11,M,Patrick Bolton,SBD,Y,83,Single-ply,COV,74.5,190,-200,-200,190,112.5,-122.5,-122.5,112.5,-185,185,195,195,497.5,1996
DQ,M,Draven Collins,SBD,Y,83,Single-ply,COV,74.3,-237.5,-237.5,-237.5,,,,,,,,,,,1997
1,M,Joshua Bickham,SBD,Y,93,Single-ply,COV,90.1,272.5,285,300,300,190,207.5,220,220,300,325,-342.5,325,845,1996
2,M,Keaton Rodriguez,SBD,Y,93,Single-ply,NSHR,88.6,252.5,267.5,-285,267.5,-145,-147.5,147.5,147.5,252.5,272.5,290,290,705,1995
3,M,Christian Grow,SBD,Y,93,Single-ply,COV,88.7,235,247.5,257.5,257.5,152.5,162.5,167.5,167.5,235,245,252.5,252.5,677.5,1997
4,M,Deray Darensburg,SBD,Y,93,Single-ply,COV,90.1,225,237.5,-250,237.5,137.5,150,160,160,240,255,272.5,272.5,670,1997
5,M,James Goebel,SBD,Y,93,Single-ply,WIT,89.4,235,245,252.5,252.5,147.5,155,160,160,237.5,250,-267.5,250,662.5,1997
6,M,Logan Rogers,SBD,Y,93,Single-ply,COV,88.1,215,227.5,237.5,237.5,135,142.5,150,150,227.5,242.5,247.5,247.5,635,1998
7,M,Seth Calaway,SBD,Y,93,Single-ply,MAU,88,227.5,242.5,250,250,125,132.5,137.5,137.5,-227.5,242.5,-245,242.5,630,1996
8,M,Ryan Spahn,SBD,Y,93,Single-ply,ASH,88.6,210,-222.5,222.5,222.5,130,140,-150,140,215,235,-245,235,597.5,1996
9,M,Dakota Ross,SBD,Y,93,Single-ply,BER,83.8,-205,205,220,220,117.5,125,-135,125,-237.5,240,-257.5,240,585,1996
10,M,Sam Dantinne,SBD,Y,93,Single-ply,WIT,83.7,220,232.5,242.5,242.5,90,95,102.5,102.5,225,235,-240,235,580,1997
11,M,Gunnar Sommervold,SBD,Y,93,Single-ply,O'GM,86.5,210,-227.5,227.5,227.5,125,-132.5,-132.5,125,227.5,-245,-250,227.5,580,1998
12,M,Michael Nance,SBD,Y,93,Single-ply,TOM,88.9,-220,220,-235,220,115,120,-127.5,120,215,230,-242.5,230,570,1997
13,M,Samuel Bartlett,SBD,Y,93,Single-ply,HRLK,85.1,-210,210,-220,210,135,-140,-140,135,217.5,222.5,-227.5,222.5,567.5,1998
1,M,Tyler Kinder,SBD,Y,105,Single-ply,ASH,99.5,-272.5,272.5,-305,272.5,180,-202.5,207.5,207.5,-250,250,285,285,765,1998
2,M,Kyle Pulvermacher,SBD,Y,105,Single-ply,BEN,96.7,230,-240,250,250,147.5,170,-182.5,170,215,222.5,-230,222.5,642.5,1997
3,M,Erik Eaton,SBD,Y,105,Single-ply,RVRF,94.3,225,242.5,252.5,252.5,132.5,137.5,-142.5,137.5,225,240,245,245,635,1998
4,M,Spencer Marusic,SBD,Y,105,Single-ply,HRLK,97.1,212.5,-222.5,225,225,132.5,140,147.5,147.5,237.5,250,-265,250,622.5,1997
5,M,Austen Dimick,SBD,Y,105,Single-ply,NEWR,99.2,240,-260,-260,240,102.5,112.5,-117.5,112.5,222.5,237.5,245,245,597.5,1996
6,M,John Petty,SBD,Y,105,Single-ply,GMILL,99.2,190,215,-227.5,215,115,-130,-130,115,197.5,222.5,-262.5,222.5,552.5,1998
7,M,Taivian Hooper,SBD,Y,105,Single-ply,GMILL,99.2,-182.5,-192.5,192.5,192.5,100,115,125,125,182.5,200,-217.5,200,517.5,1998
DQ,M,Kenny Thums,SBD,Y,105,Single-ply,OMR,95.5,-240,-240,-240,,120,127.5,137.5,137.5,222.5,-232.5,-232.5,222.5,,1997
DQ,M,Adam Bendel,SBD,Y,105,Single-ply,LACC,104.4,-227.5,-227.5,-227.5,,120,125,127.5,127.5,-215,-215,215,215,,1997
1,M,Caleb Alsteen,SBD,Y,120,Single-ply,OSHN,116.1,-292.5,295,310,310,162.5,170,175,175,255,272.5,290,290,775,1996
2,M,Alex Stoll,SBD,Y,120,Single-ply,OSC,109.2,-307.5,-307.5,307.5,307.5,162.5,170,175,175,267.5,287.5,-300,287.5,770,1997
3,M,Andrew Montoya,SBD,Y,120,Single-ply,STMR,107.2,265,287.5,-292.5,287.5,160,167.5,172.5,172.5,-265,265,-285,265,725,1996
4,M,Mitchell Cowman,SBD,Y,120,Single-ply,WIT,105.6,250,-265,265,265,187.5,-197.5,-205,187.5,240,252.5,-272.5,252.5,705,1997
5,M,Logan Kobernusz,SBD,Y,120,Single-ply,O'GM,107.8,240,-265,265,265,-135,135,-142.5,135,-262.5,262.5,-277.5,262.5,662.5,1998
6,M,Tyler Krajewski,SBD,Y,120,Single-ply,CDY,116.8,245,-255,255,255,-137.5,137.5,140,140,-220,222.5,230,230,625,1997
7,M,Jordan Zentzis,SBD,Y,120,Single-ply,OSC,109,215,232.5,-240,232.5,130,137.5,-140,137.5,220,227.5,-235,227.5,597.5,1996
8,M,Daniel Gibson,SBD,Y,120,Single-ply,GMILL,110.5,235,242.5,-252.5,242.5,132.5,142.5,152.5,152.5,-200,200,-207.5,200,595,1997
9,M,Brady Chance,SBD,Y,120,Single-ply,BLM,118.8,215,227.5,-242.5,227.5,120,125,-137.5,125,182.5,205,-227.5,205,557.5,1996
1,M,David Verzwyvelt,SBD,Y,120+,Single-ply,ASH,127.2,272.5,-305,305,305,-170,175,-190,175,240,265,272.5,272.5,752.5,1996
2,M,Declan Dilley,SBD,Y,120+,Single-ply,HRLK,124.6,252.5,265,272.5,272.5,165,172.5,182.5,182.5,237.5,250,262.5,262.5,717.5,1998
3,M,Milton Jones,SBD,Y,120+,Single-ply,GMILL,162,242.5,-257.5,257.5,257.5,160,175,185,185,250,-272.5,-310,250,692.5,1997
4,M,Peterson Eli,SBD,Y,120+,Single-ply,AF,141.3,245,-262.5,262.5,262.5,115,127.5,132.5,132.5,-240,-250,250,250,645,1997
5,M,Mario Chavez,SBD,Y,120+,Single-ply,CZO,186,-222.5,222.5,230,230,-172.5,-172.5,172.5,172.5,227.5,232.5,-240,232.5,635,1997
6,M,Ryan Ratcliff,SBD,Y,120+,Single-ply,BLM,125.1,240,252.5,-260,252.5,115,-125,-125,115,250,265,-277.5,265,632.5,1998
7,M,Elijah Anderson,SBD,Y,120+,Single-ply,WHI,127.5,240,255,272.5,272.5,137.5,-147.5,-147.5,137.5,205,-217.5,-225,205,615,1997
8,M,Naje Lathon,SBD,Y,120+,Single-ply,GMILL,125.3,235,-242.5,-242.5,235,132.5,142.5,-152.5,142.5,227.5,-250,-262.5,227.5,605,
1,F,Mikaela Leibfried,SBD,HSJV,47,Single-ply,COL,46.5,125,,,125,45,,,45,125,,,125,295,1999
2,F,Mikaela Leibfried,SBD,HSJV,47,Single-ply,COL,46.7,77.5,82.5,87.5,87.5,45,50,52.5,52.5,-85,85,90,90,230,1999
3,F,Lauren Kunkel,SBD,HSJV,47,Single-ply,WIT,43.1,82.5,-90,90,90,42.5,-47.5,-50,42.5,77.5,85,-87.5,85,217.5,1999
4,F,Luanne Schwartz,SBD,HSJV,47,Single-ply,WHI,46.1,55,62.5,70,70,30,-35,-35,30,60,70,77.5,77.5,177.5,1999
1,F,Karina Garay,SBD,HSJV,52,Single-ply,CZO,49,105,-112.5,-112.5,105,60,-62.5,62.5,62.5,107.5,110,115,115,282.5,1999
2,F,Deidra Schanz,SBD,HSJV,52,Single-ply,MRHD,51.2,-102.5,-102.5,102.5,102.5,-52.5,52.5,55,55,87.5,90,107.5,107.5,265,1999
3,F,Kayleigh Tokash,SBD,HSJV,52,Single-ply,ABH,51.9,95,-100,-105,95,40,45,47.5,47.5,97.5,107.5,112.5,112.5,255,1998
4,F,Morgan Tinnen,SBD,HSJV,52,Single-ply,PHI,51.3,87.5,92.5,97.5,97.5,37.5,-42.5,42.5,42.5,-100,105,-115,105,245,1999
5,F,Emily Salm,SBD,HSJV,52,Single-ply,NEE,47.2,-70,70,-77.5,70,40,42.5,47.5,47.5,87.5,95,-100,95,212.5,1999
6,F,Tahismari Santiago,SBD,HSJV,52,Single-ply,CDY,49.2,65,-70,-75,65,25,27.5,-30,27.5,80,82.5,85,85,177.5,1999
DQ,F,Hannah Hanson,SBD,HSJV,52,Single-ply,RIVD,49.9,-90,-90,-90,,-37.5,,,,,,,,,1999
1,F,Jordan Lewandowski,SBD,HSJV,57,Single-ply,CDY,55.1,125,132.5,-137.5,132.5,50,52.5,55,55,125,132.5,137.5,137.5,325,1998
2,F,Miranda Chambers,SBD,HSJV,57,Single-ply,PENN,55.1,107.5,-112.5,-112.5,107.5,70,-75,-75,70,122.5,132.5,-137.5,132.5,310,2000
3,F,Gabrielle Slater,SBD,HSJV,57,Single-ply,HRLK,54.7,110,117.5,-122.5,117.5,-47.5,47.5,50,50,-120,120,127.5,127.5,295,1998
4,F,Elisabeth Oberlin,SBD,HSJV,57,Single-ply,RVRF,54.3,110,117.5,-125,117.5,42.5,45,-47.5,45,110,120,127.5,127.5,290,2000
5,F,Kenzie Svoboda,SBD,HSJV,57,Single-ply,PHI,55.1,97.5,105,-110,105,52.5,-57.5,57.5,57.5,112.5,120,-122.5,120,282.5,2000
6,F,Naomi Angelo,SBD,HSJV,57,Single-ply,PHI,55.4,85,90,95,95,57.5,-62.5,-62.5,57.5,105,112.5,-115,112.5,265,2000
7,F,Alexys Daniels,SBD,HSJV,57,Single-ply,NEC,55.5,92.5,100,107.5,107.5,-50,50,55,55,92.5,102.5,-107.5,102.5,265,2000
8,F,Kendra Bartels,SBD,HSJV,57,Single-ply,NEC,54.6,95,102.5,107.5,107.5,40,42.5,45,45,97.5,102.5,107.5,107.5,260,1999
9,F,Madison Erwin,SBD,HSJV,57,Single-ply,JEN,54.7,80,-87.5,-87.5,80,37.5,42.5,-45,42.5,100,110,115,115,237.5,2000
10,F,Haley Chojnacki,SBD,HSJV,57,Single-ply,FRK-WI,56.8,87.5,92.5,100,100,30,32.5,37.5,37.5,87.5,92.5,100,100,237.5,1999
11,F,Emily Tcheordikian,SBD,HSJV,57,Single-ply,HRLK,56.4,82.5,92.5,-100,92.5,35,40,42.5,42.5,87.5,92.5,100,100,235,1998
12,F,Kelly Huerta,SBD,HSJV,57,Single-ply,CZO,55.9,77.5,85,90,90,35,42.5,-47.5,42.5,82.5,92.5,-105,92.5,225,1999
13,F,Emily Smith,SBD,HSJV,57,Single-ply,CDY,54.7,85,-90,-90,85,35,37.5,40,40,87.5,92.5,95,95,220,1999
14,F,Isabella Johannsen,SBD,HSJV,57,Single-ply,CDY,55.6,87.5,95,-97.5,95,30,32.5,35,35,85,90,-105,90,220,2000
15,F,Sydney Landgraf,SBD,HSJV,57,Single-ply,RVRF,56.7,-85,85,-92.5,85,30,-32.5,-32.5,30,77.5,85,90,90,205,2000
16,F,Hannah Manche,SBD,HSJV,57,Single-ply,RVRF,55.6,65,-70,70,70,27.5,30,32.5,32.5,72.5,82.5,85,85,187.5,1999
DQ,F,Ashlynn Kowalczyk,SBD,HSJV,57,Single-ply,O'GM,52.4,-97.5,-97.5,-97.5,,37.5,-45,45,45,102.5,112.5,135,135,,1999
DQ,F,Jenna Tekolste,SBD,HSJV,57,Single-ply,O'GM,54,-97.5,-97.5,-97.5,,37.5,-40,-40,37.5,105,122.5,-135,122.5,,1998
1,F,Alyssa Kuss,SBD,HSJV,63,Single-ply,AF,63,152.5,160,-165.5,160,55,60,65,65,-160,-160,160,160,385,1999
2,F,Jessica Larson,SBD,HSJV,63,Single-ply,ECN,58,125,135,-137.5,135,-62.5,62.5,-67.5,62.5,130,137.5,142.5,142.5,340,1998
3,F,Emma Ramsey,SBD,HSJV,63,Single-ply,HRLK,59,127.5,137.5,-145,137.5,-57.5,57.5,62.5,62.5,127.5,135,140,140,340,1998
4,F,Haley Lang,SBD,HSJV,63,Single-ply,HRLK,59.2,115,122.5,127.5,127.5,57.5,-62.5,62.5,62.5,130,135,140,140,330,1998
5,F,Jennica Baldridge,SBD,HSJV,63,Single-ply,FRK-IN,58.6,110,117.5,122.5,122.5,65,-70,-70,65,122.5,-135,137.5,137.5,325,1998
6,F,Remington Trewyn,SBD,HSJV,63,Single-ply,NEC,59.2,110,120,127.5,127.5,50,55,-57.5,55,117.5,122.5,130,130,312.5,2000
7,F,Leah Mickelson,SBD,HSJV,63,Single-ply,ECN,58.4,110,117.5,122.5,122.5,-62.5,62.5,-67.5,62.5,105,115,122.5,122.5,307.5,1999
8,F,Abigail Saunders,SBD,HSJV,63,Single-ply,NEC,58.9,105,112.5,117.5,117.5,37.5,42.5,-45,42.5,132.5,-140,-140,132.5,292.5,2000
9,F,Melaine Hess,SBD,HSJV,63,Single-ply,NEC,62.1,102.5,-115,117.5,117.5,37.5,42.5,45,45,102.5,110,117.5,117.5,280,
10,F,Lydia Zentzis,SBD,HSJV,63,Single-ply,OSC,62.4,87.5,92.5,-100,92.5,45,50,-52.5,50,117.5,125,135,135,277.5,1999
11,F,Morgan Marquardt,SBD,HSJV,63,Single-ply,NEE,58.9,-102.5,-102.5,107.5,107.5,45,50,55,55,107.5,112.5,-122.5,112.5,275,1998
12,F,Rachael Turgeson,SBD,HSJV,63,Single-ply,NEWR,62.5,-110,110,-115,110,45,50,-52.5,50,-115,115,-117.5,115,275,1998
13,F,Lexie Reyes,SBD,HSJV,63,Single-ply,CZO,62,85,95,-102.5,95,57.5,-65,-65,57.5,100,105,-112.5,105,257.5,1998
14,F,Makenna Vetsch,SBD,HSJV,63,Single-ply,GET,59.2,82.5,95,97.5,97.5,37.5,42.5,47.5,47.5,90,97.5,105,105,250,2000
15,F,Kaitlyn Ninmann,SBD,HSJV,63,Single-ply,BDM,62,80,87.5,-95,87.5,37.5,-40,-40,37.5,97.5,105,110,110,235,2000
DQ,F,Aaliyah Hammond,SBD,HSJV,63,Single-ply,OCR,59.8,-95,-95,95,95,-52.5,-52.5,-52.5,,-112.5,,,,,1999
1,F,Olyvia Stromberg,SBD,HSJV,72,Single-ply,HOL,65.6,-137.5,137.5,-142.5,137.5,62.5,65,-72.5,65,145,-155,155,155,357.5,1999
2,F,Shelby Vacula,SBD,HSJV,72,Single-ply,WIT,69.4,145,155,-160,155,-60,-60,60,60,130,-140,-145,130,345,1999
3,F,Kelly Mahsem,SBD,HSJV,72,Single-ply,SMI,71,125,132.5,-140,132.5,50,55,57.5,57.5,140,-145,-145,140,330,1999
4,F,Lexxie Roesler,SBD,HSJV,72,Single-ply,MAU,66.2,125,135,140,140,45,-50,-50,45,125,132.5,-137.5,132.5,317.5,1999
5,F,Ashley Ristic,SBD,HSJV,72,Single-ply,OCR,71.5,112.5,-122.5,122.5,122.5,52.5,57.5,-60,57.5,115,125,130,130,310,2000
6,F,Sophie Swanson,SBD,HSJV,72,Single-ply,SMI,64,115,120,125,125,50,55,-60,55,115,120,-127.5,120,300,2000
7,F,Natalie Montoya,SBD,HSJV,72,Single-ply,STMR,67,115,-120,-125,115,70,-75,-75,70,102.5,107.5,-110,107.5,292.5,1999
8,F,Allison Carey,SBD,HSJV,72,Single-ply,ECN,69.6,-95,95,105,105,52.5,57.5,-60,57.5,95,105,110,110,272.5,1999
9,F,Elizabeth Alejandro,SBD,HSJV,72,Single-ply,CZO,66.2,100,105,-110,105,-47.5,47.5,-52.5,47.5,107.5,112.5,115,115,267.5,1999
10,F,Samantha Kristian,SBD,HSJV,72,Single-ply,NEC,64.2,97.5,102.5,-107.5,102.5,42.5,-47.5,-47.5,42.5,100,107.5,115,115,260,2000
11,F,Julia Glaser,SBD,HSJV,72,Single-ply,SMI,64.9,85,92.5,97.5,97.5,42.5,47.5,50,50,100,105,-110,105,252.5,1999
12,F,Camryn Ochs,SBD,HSJV,72,Single-ply,WATU,64.2,85,97.5,-105,97.5,45,-47.5,-47.5,45,95,102.5,107.5,107.5,250,1999
13,F,Susan Luthi,SBD,HSJV,72,Single-ply,WIT,63.4,100,107.5,-112.5,107.5,37.5,42.5,-45,42.5,90,97.5,-105,97.5,247.5,1999
14,F,Katie Patee,SBD,HSJV,72,Single-ply,NEWR,71.1,-90,-90,90,90,37.5,42.5,-47.5,42.5,102.5,107.5,112.5,112.5,245,1999
15,F,Michalea Schulte,SBD,HSJV,72,Single-ply,KWSH,65.5,92.5,97.5,-105,97.5,42.5,47.5,-52.5,47.5,92.5,-97.5,97.5,97.5,242.5,
16,F,Amberly Cantu,SBD,HSJV,72,Single-ply,CZO,64,-82.5,-82.5,82.5,82.5,37.5,-42.5,-42.5,37.5,90,95,102.5,102.5,222.5,1998
DQ,F,Aubrey Avila,SBD,HSJV,72,Single-ply,CZO,65,-115,-115,-115,,,,,,,,,,,1999
DQ,F,Rosemary Chitko,SBD,HSJV,72,Single-ply,OCR,70.2,80,87.5,95,95,-45,-45,-45,,,,,,,2000
1,F,Rhonda Peronto,SBD,HSJV,84,Single-ply,CDY,74.1,145,150,-160,150,65,70,-75,70,127.5,137.5,140,140,360,1999
2,F,Abbi Stafslien-Dumale,SBD,HSJV,84,Single-ply,CEN,76,137.5,145,150,150,50,52.5,-55,52.5,140,150,157.5,157.5,360,2000
3,F,Tessa Wertjes,SBD,HSJV,84,Single-ply,NEC,77.9,135,-147.5,152.5,152.5,45,52.5,-60,52.5,132.5,142.5,150,150,355,1999
4,F,Emma Wothe,SBD,HSJV,84,Single-ply,NEWR,80.6,132.5,137.5,147.5,147.5,47.5,52.5,60,60,127.5,140,145,145,352.5,1999
5,F,Sophia Dionne,SBD,HSJV,84,Single-ply,STMC,79.1,130,-140,-145,130,60,67.5,-75,67.5,122.5,132.5,150,150,347.5,1998
6,F,Sierra Keyes,SBD,HSJV,84,Single-ply,NEWR,83.9,117.5,122.5,127.5,127.5,62.5,65,-67.5,65,120,130,135,135,327.5,1999
7,F,Thea Kjos,SBD,HSJV,84,Single-ply,CEN,79.9,-125,125,-137.5,125,50,55,-57.5,55,130,142.5,-147.5,142.5,322.5,2000
8,F,Kayla Ziegenhorn,SBD,HSJV,84,Single-ply,WIT,72.6,112.5,122.5,-130,122.5,42.5,47.5,50,50,120,130,140,140,312.5,1999
9,F,Madelyn Woychik,SBD,HSJV,84,Single-ply,IND,74.7,117.5,-125,-125,117.5,62.5,-65,65,65,117.5,125,-135,125,307.5,2000
10,F,Alexea Engel,SBD,HSJV,84,Single-ply,AF,74.9,112.5,122.5,-132.5,122.5,-35,40,45,45,110,117.5,130,130,297.5,1999
11,F,Miah Nielsen,SBD,HSJV,84,Single-ply,WATU,74.9,-102.5,107.5,110,110,-47.5,47.5,52.5,52.5,115,125,132.5,132.5,295,1999
12,F,Crystal Schnapp,SBD,HSJV,84,Single-ply,NEC,81.3,92.5,100,-105,100,47.5,52.5,57.5,57.5,122.5,127.5,132.5,132.5,290,1998
13,F,Kaitlyn Overby,SBD,HSJV,84,Single-ply,PHI,79.5,-110,110,-115,110,40,45,-47.5,45,122.5,132.5,-135,132.5,287.5,1999
14,F,Abby Mcnitt,SBD,HSJV,84,Single-ply,NEWR,73.1,102.5,110,120,120,37.5,40,45,45,102.5,-105,-107.5,102.5,267.5,1999
1,F,Carlie Walker,SBD,HSJV,84+,Single-ply,WIT,132.9,162.5,172.5,-177.5,172.5,65,70,72.5,72.5,160,,,160,405,1999
2,F,Dakota Irek,SBD,HSJV,84+,Single-ply,HRLK,89.4,130,137.5,-147.5,137.5,70,75,-82.5,75,140,145,150,150,362.5,1999
3,F,Miranda Rueter,SBD,HSJV,84+,Single-ply,BDM,109.9,130,-140,-140,130,65,67.5,-72.5,67.5,-145,145,-152.5,145,342.5,2000
4,F,Tara Hatfield,SBD,HSJV,84+,Single-ply,MAU,141.2,-112.5,-120,120,120,50,55,60,60,117.5,132.5,-145,132.5,312.5,1999
5,F,Amber Beardsley,SBD,HSJV,84+,Single-ply,HRLK,89.8,97.5,102.5,107.5,107.5,-55,57.5,60,60,102.5,107.5,-125,107.5,275,1999
DQ,F,Hailey Skroch,SBD,HSJV,84+,Single-ply,IND,92,-155,-155,-155,,,,,,,,,,,1999
DQ,F,Breann Borchardt,SBD,HSJV,84+,Single-ply,MRHD,118.7,-185,-185,-185,,-90,92.5,-97.5,92.5,-170,-175,-175,,,1999
1,F,Ashley Mitchell,SBD,Y,43,Single-ply,ASH,41.9,-105,-105,105,105,52.5,60,-67.5,60,120,-132.5,-137.5,120,285,1997
2,F,Zyana Price,SBD,Y,43,Single-ply,ASH,42,90,-97.5,-97.5,90,37.5,42.5,45,45,100,112.5,-125,112.5,247.5,2000
3,F,Delaney Ortiz,SBD,Y,43,Single-ply,NEE,43,87.5,92.5,-97.5,92.5,35,40,-45,40,92.5,100,105,105,237.5,2000
1,F,Stephanie Rattunde,SBD,Y,47,Single-ply,NEC,43.2,120,-127.5,-127.5,120,55,60,62.5,62.5,120,-130,-130,120,302.5,1997
2,F,Alena Trinidad,SBD,Y,47,Single-ply,NEC,46.5,110,117.5,122.5,122.5,45,47.5,50,50,110,120,127.5,127.5,300,1996
3,F,Stephanie Lavoy,SBD,Y,47,Single-ply,NEC,43.6,95,-102.5,107.5,107.5,37.5,42.5,-47.5,42.5,100,110,115,115,265,1999
4,F,Grace Albarez,SBD,Y,47,Single-ply,COV,43.5,67.5,82.5,92.5,92.5,32.5,40,42.5,42.5,72.5,-82.5,90,90,225,1999
5,F,Allyssa Weitkum,SBD,Y,47,Single-ply,MAU,46.5,87.5,-92.5,-92.5,87.5,30,32.5,-37.5,32.5,95,97.5,-102.5,97.5,217.5,1997
6,F,Katherine Rodriguez,SBD,Y,47,Single-ply,CZO,43.8,62.5,-65,65,65,27.5,-32.5,-32.5,27.5,95,-97.5,-97.5,95,187.5,1998
1,F,Tristyn Hutchins,SBD,Y,52,Single-ply,NEC,51.9,145,150,-165,150,77.5,87.5,92.5,92.5,145,155,165,165,407.5,1997
2,F,Taylor LaChapelle,SBD,Y,52,Single-ply,AF,47.1,147.5,157.5,160,160,72.5,77.5,-80,77.5,125,137.5,-142.5,137.5,375,1999
3,F,Butler Dontoria,SBD,Y,52,Single-ply,ASH,50.9,110,120,125,125,62.5,70,-72.5,70,135,150,-167.5,150,345,1998
4,F,Katelyn Svoboda,SBD,Y,52,Single-ply,PHI,51.7,107.5,115,-120,115,57.5,62.5,-65,62.5,110,117.5,120,120,297.5,1997
5,F,KC Ketzer,SBD,Y,52,Single-ply,HRLK,51.9,97.5,105,112.5,112.5,50,55,60,60,105,112.5,125,125,297.5,1997
6,F,Erika Peralta,SBD,Y,52,Single-ply,CZO,50.8,-110,110,-115,110,62.5,-67.5,67.5,67.5,-110,110,117.5,117.5,295,1996
7,F,Jamie Donner,SBD,Y,52,Single-ply,RIVD,49.8,90,100,-105,100,47.5,52.5,55,55,102.5,112.5,117.5,117.5,272.5,1997
8,F,Vickie Holbrook,SBD,Y,52,Single-ply,NEWR,50.8,-97.5,97.5,-100,97.5,47.5,-50,-52.5,47.5,110,117.5,127.5,127.5,272.5,1996
9,F,Kara Brightwell,SBD,Y,52,Single-ply,STMC,47.9,92.5,97.5,-105,97.5,42.5,47.5,52.5,52.5,105,115,117.5,117.5,267.5,1998
10,F,Gina Catalanotto,SBD,Y,52,Single-ply,COV,51.6,100,-112.5,-112.5,100,47.5,52.5,55,55,102.5,-112.5,112.5,112.5,267.5,1998
11,F,Makayla Miller,SBD,Y,52,Single-ply,ASH,47.4,87.5,-100,-100,87.5,42.5,50,55,55,102.5,112.5,-125,112.5,255,1997
12,F,Annika Angelo,SBD,Y,52,Single-ply,PHI,47.1,87.5,92.5,-97.5,92.5,47.5,50,52.5,52.5,97.5,105,-117.5,105,250,2000
13,F,Mary Rugg,SBD,Y,52,Single-ply,SPAR,51.1,92.5,102.5,-110,102.5,37.5,40,-42.5,40,90,97.5,-102.5,97.5,240,1997
1,F,Lauren Lent,SBD,Y,57,Single-ply,WIT,55.2,172.5,182.5,190,190,82.5,87.5,90,90,172.5,182.5,-185,182.5,462.5,1997
2,F,Taylor Klemmensen,SBD,Y,57,Single-ply,NEWR,55.4,145,-155,-155,145,67.5,72.5,77.5,77.5,152.5,160,-162.5,160,382.5,1997
3,F,Jordan Whipple,SBD,Y,57,Single-ply,WRDL,55,137.5,-150,160,160,50,57.5,-65,57.5,130,142.5,-150,142.5,360,1997
4,F,Megan Plantz,SBD,Y,57,Single-ply,NEC,55.6,122.5,-127.5,127.5,127.5,65,70,-77.5,70,130,137.5,145,145,342.5,1998
5,F,Benedetta Jones,SBD,Y,57,Single-ply,HRLK,54.6,122.5,130,137.5,137.5,65,67.5,72.5,72.5,115,122.5,-125,122.5,332.5,1997
6,F,Amanda Heredia,SBD,Y,57,Single-ply,HRLK,55.4,127.5,-135,-135,127.5,-72.5,72.5,-77.5,72.5,125,127.5,-135,127.5,327.5,1997
7,F,Rhiannon Mach,SBD,Y,57,Single-ply,NEC,55.7,125,130,132.5,132.5,50,55,60,60,110,120,127.5,127.5,320,1998
8,F,Kirsten Olson,SBD,Y,57,Single-ply,HOL,54.9,110,117.5,122.5,122.5,-50,-60,60,60,120,130,132.5,132.5,315,1997
9,F,Asia McGee,SBD,Y,57,Single-ply,ASH,55.1,110,120,-130,120,57.5,65,-70,65,112.5,-127.5,127.5,127.5,312.5,1999
10,F,Janessa Gumz,SBD,Y,57,Single-ply,PHI,55.6,115,122.5,-127.5,122.5,-57.5,57.5,-62.5,57.5,125,130,-140,130,310,1997
11,F,Jane Krueger,SBD,Y,57,Single-ply,WNC,54.5,-102.5,102.5,-117.5,102.5,40,-45,45,45,115,137.5,150,150,297.5,1999
12,F,Megan Hoppe,SBD,Y,57,Single-ply,GET,55.6,102.5,105,110,110,55,57.5,-60,57.5,117.5,125,127.5,127.5,295,1997
13,F,Michaela Goldammer,SBD,Y,57,Single-ply,O'GM,55.7,102.5,-112.5,-120,102.5,32.5,-42.5,-42.5,32.5,117.5,130,-137.5,130,265,1996
1,F,Sam Kroll,SBD,Y,63,Single-ply,ECN,58.2,150,-160,-160,150,90,92.5,95,95,135,145,-147.5,145,390,1997
2,F,Amanda Zielinski,SBD,Y,63,Single-ply,NEC,59.5,130,137.5,150,150,70,77.5,80,80,132.5,145,155,155,385,1997
3,F,Bryttanye Erwin,SBD,Y,63,Single-ply,JEN,58.5,127.5,-140,145,145,60,-70,70,70,137.5,160,-170,160,375,1996
4,F,Morgan DeGuire,SBD,Y,63,Single-ply,NEC,59,130,137.5,150,150,57.5,-62.5,-62.5,57.5,132.5,-147.5,150,150,357.5,1998
5,F,Acacia Angelo,SBD,Y,63,Single-ply,PHI,57.7,137.5,-142.5,-142.5,137.5,62.5,-67.5,-67.5,62.5,122.5,132.5,-140,132.5,332.5,1998
6,F,Kourtney Tarango,SBD,Y,63,Single-ply,SHOS,58.8,-120,130,-135,130,60,-65,-65,60,105,110,115,115,305,1998
7,F,Vidaenid Vetterkind,SBD,Y,63,Single-ply,SPAR,58.3,-122.5,122.5,127.5,127.5,57.5,-60,-60,57.5,112.5,-117.5,117.5,117.5,302.5,
8,F,Amanda Zimmerman,SBD,Y,63,Single-ply,WHI,58.9,100,-107.5,107.5,107.5,52.5,57.5,-60,57.5,135,-142.5,-142.5,135,300,1997
9,F,Emily Palomaki,SBD,Y,63,Single-ply,AF,58.7,107.5,115,-125,115,55,60,-62.5,60,95,115,-130,115,290,1996
10,F,Olivia Abifarin,SBD,Y,63,Single-ply,OCR,59.9,112.5,-120,-120,112.5,45,-50,-50,45,132.5,-140,-140,132.5,290,1997
DQ,F,Bailey Kratt,SBD,Y,63,Single-ply,CDY,57.9,-145,-145,-145,,57.5,60,-62.5,60,137.5,147.5,150,150,,1998
DQ,F,Esther Theisen,SBD,Y,63,Single-ply,REG,62.8,-140,-140,-152.5,,60,67.5,70,70,142.5,150,152.5,152.5,,1998
1,F,Amber Kierstyn,SBD,Y,72,Single-ply,AF,70.6,157.5,-167.5,167.5,167.5,82.5,92.5,-102.5,92.5,165,172.5,190,190,450,1998
2,F,Samantha Sherwood,SBD,Y,72,Single-ply,AF,66.5,155,162.5,170,170,57.5,65,-67.5,65,165,172.5,-180,172.5,407.5,1999
3,F,Shelby Miles,SBD,Y,72,Single-ply,FRK-IN,71.8,132.5,142.5,150,150,87.5,92.5,-97.5,92.5,145,155,-162.5,155,397.5,1998
4,F,Lekayshia Williams,SBD,Y,72,Single-ply,ASH,71.1,135,-147.5,147.5,147.5,67.5,77.5,80,80,-147.5,147.5,160,160,387.5,1997
5,F,Tamarah Clemmens,SBD,Y,72,Single-ply,NEWR,64,130,137.5,-140,137.5,60,65,-70,65,155,160,165,165,367.5,1998
6,F,Daveidra Fisher,SBD,Y,72,Single-ply,ASH,65.6,110,125,-132.5,125,60,67.5,77.5,77.5,135,147.5,162.5,162.5,365,1997
7,F,Brittany Rabe,SBD,Y,72,Single-ply,WATU,65.6,-142.5,-145,145,145,60,65,67.5,67.5,135,145,150,150,362.5,1998
8,F,Faith Cothran,SBD,Y,72,Single-ply,COV,65.5,125,132.5,-137.5,132.5,-67.5,75,-85,75,125,137.5,145,145,352.5,1998
9,F,Madison Ellenbecker,SBD,Y,72,Single-ply,SEY,65.3,120,127.5,-132.5,127.5,60,-67.5,67.5,67.5,142.5,152.5,-157.5,152.5,347.5,1997
10,F,Nina Duffeck,SBD,Y,72,Single-ply,NEE,65.9,112.5,122.5,-127.5,122.5,60,65,70,70,107.5,117.5,125,125,317.5,1999
11,F,Samantha Korn,SBD,Y,72,Single-ply,WSTBY,66,127.5,132.5,-137.5,132.5,52.5,55,-60,55,115,122.5,-130,122.5,310,1996
12,F,Sarah Chucka,SBD,Y,72,Single-ply,BRW,66.2,102.5,107.5,112.5,112.5,60,67.5,72.5,72.5,125,-137.5,-137.5,125,310,1996
13,F,Alyssa Carver,SBD,Y,72,Single-ply,NEWR,63.8,110,120,-130,120,-50,50,-57.5,50,122.5,130,135,135,305,1996
1,F,Carley Miller,SBD,Y,84,Single-ply,KMAN,72.1,187.5,197.5,207.5,207.5,85,-90,90,90,185,195,-200,195,492.5,1996
2,F,McKenzie Curtis,SBD,Y,84,Single-ply,RVRF,80.3,180,192.5,-200,192.5,82.5,87.5,,87.5,180,192.5,-197.5,192.5,472.5,1997
3,F,Kaija Newman,SBD,Y,84,Single-ply,OSC,78.2,175,185,192.5,192.5,75,82.5,-85,82.5,172.5,177.5,-202.5,177.5,452.5,1998
4,F,Tamera Lusk,SBD,Y,84,Single-ply,ASH,78.4,167.5,182.5,-197.5,182.5,75,85,87.5,87.5,162.5,177.5,-202.5,177.5,447.5,1997
5,F,Lacey Winters,SBD,Y,84,Single-ply,NEC,83.9,160,172.5,182.5,182.5,70,75,-85,75,175,190,-210,190,447.5,1997
6,F,Julie Lutzen,SBD,Y,84,Single-ply,WIT,72.2,-170,170,-180,170,70,75,-77.5,75,145,155,-162.5,155,400,1998
7,F,Danielle Kent,SBD,Y,84,Single-ply,CZO,76.1,155,-160,160,160,75,82.5,-85,82.5,152.5,157.5,-160,157.5,400,1996
8,F,Emily Kopecky,SBD,Y,84,Single-ply,PHI,73.4,142.5,-152.5,-155,142.5,62.5,-67.5,70,70,155,165,177.5,177.5,390,1996
9,F,Sabrina Stacken,SBD,Y,84,Single-ply,NEWR,78.8,145,150,157.5,157.5,67.5,72.5,77.5,77.5,137.5,145,150,150,385,1996
10,F,Brittany Williams,SBD,Y,84,Single-ply,ASH,83.1,135,147.5,-155,147.5,62.5,70,75,75,137.5,-150,152.5,152.5,375,1999
11,F,Anni Knapinski,SBD,Y,84,Single-ply,NEC,74.4,127.5,135,-140,135,55,60,67.5,67.5,137.5,145,162.5,162.5,365,1997
12,F,Hayley Crossland,SBD,Y,84,Single-ply,HOL,74.7,137.5,-142.5,142.5,142.5,50,72.5,75,75,132.5,140,147.5,147.5,365,1997
13,F,Hunter Gibson,SBD,Y,84,Single-ply,ASH,83.8,127.5,137.5,-147.5,137.5,52.5,60,65,65,142.5,160,162.5,162.5,365,1999
14,F,Richele Schulte,SBD,Y,84,Single-ply,KWSH,80.9,142.5,147.5,152.5,152.5,-82.5,82.5,-92.5,82.5,-122.5,-125,125,125,360,1997
15,F,Hailee Ruskowsky,SBD,Y,84,Single-ply,NEC,74.4,150,155,160,160,-45,45,50,50,127.5,132.5,137.5,137.5,347.5,1998
16,F,Jordan Barnes,SBD,Y,84,Single-ply,SMI,81.2,130,135,142.5,142.5,50,55,57.5,57.5,142.5,147.5,-152.5,147.5,347.5,1998
17,F,Alyssa McMinn,SBD,Y,84,Single-ply,ABH,78.2,120,127.5,-132.5,127.5,55,62.5,65,65,140,147.5,152.5,152.5,345,1996
18,F,Amanda Messina,SBD,Y,84,Single-ply,ASH,83.2,112.5,127.5,-135,127.5,60,72.5,-77.5,72.5,140,-162.5,-162.5,140,340,1998
19,F,Alexis Seubert,SBD,Y,84,Single-ply,WNC,73.3,125,-132.5,137.5,137.5,45,52.5,-57.5,52.5,137.5,145,-152.5,145,335,1996
DQ,F,Zena Esquivel,SBD,Y,84,Single-ply,CZO,73.7,-170,-170,-170,,,,,,,,,,,1997
DQ,F,Olivia Osunkwo,SBD,Y,84,Single-ply,SMI,80.6,-165,-165,-165,,47.5,52.5,-60,52.5,170,177.5,-182.5,177.5,,
DQ,F,Karley Wyngaard,SBD,Y,84,Single-ply,NEE,82.2,-170,-170,-175,,70,80,90,90,160,167.5,170,170,,1997
1,F,Heather Callejas,SBD,Y,84+,Single-ply,COV,97.9,175,187.5,-192.5,187.5,95,100,105,105,182.5,192.5,197.5,197.5,490,1997
2,F,Tiara Thomas,SBD,Y,84+,Single-ply,RIVD,122.4,177.5,192.5,-200,192.5,90,100,-105,100,172.5,182.5,190,190,482.5,1997
3,F,Cerrina Stokes,SBD,Y,84+,Single-ply,OMR,145.4,192.5,205,-227.5,205,77.5,85,92.5,92.5,172.5,-182.5,-192.5,172.5,470,1998
4,F,Lily Poisso,SBD,Y,84+,Single-ply,ASH,118.7,147.5,162.5,172.5,172.5,82.5,90,-97.5,90,155,170,-175,170,432.5,1998
5,F,Sophia Woychik,SBD,Y,84+,Single-ply,IND,105.8,157.5,165,170,170,62.5,70,77.5,77.5,147.5,160,165,165,412.5,1997
6,F,Melissa Reyes,SBD,Y,84+,Single-ply,CZO,85.4,160,167.5,172.5,172.5,70,72.5,-77.5,72.5,150,155,-160,155,400,1998
7,F,Kristen Opiela,SBD,Y,84+,Single-ply,NEE,93.4,-155,162.5,-177.5,162.5,65,-75,-75,65,150,160,167.5,167.5,395,2000
8,F,Mikayla Rotering,SBD,Y,84+,Single-ply,IND,101.6,-155,155,162.5,162.5,62.5,67.5,-72.5,67.5,147.5,157.5,165,165,395,1997
9,F,Sabrina Keyes,SBD,Y,84+,Single-ply,NEWR,88.5,142.5,147.5,155,155,60,65,70,70,135,147.5,152.5,152.5,377.5,1996
10,F,Autumn Jacobs,SBD,Y,84+,Single-ply,GET,100.9,137.5,-147.5,147.5,147.5,70,75,-80,75,137.5,145,150,150,372.5,1997
11,F,Lindsey Saacks,SBD,Y,84+,Single-ply,COV,86.3,130,140,-147.5,140,77.5,-82.5,82.5,82.5,125,140,-150,140,362.5,1998
12,F,Kaitlynn Hernandez,SBD,Y,84+,Single-ply,NEC,88.9,127.5,135,-145,135,70,77.5,85,85,132.5,142.5,-157.5,142.5,362.5,1997
13,F,Amanda Schenck,SBD,Y,84+,Single-ply,COV,141.5,132.5,-145,145,145,62.5,-75,-75,62.5,137.5,145,-155,145,352.5,1997
14,F,Micayla Terwee,SBD,Y,84+,Single-ply,WLYON,87.5,-122.5,122.5,-140,122.5,75,-82.5,-82.5,75,130,145,-155,145,342.5,
15,F,Makenzie Hagerty,SBD,Y,84+,Single-ply,O'GM,87,130,-137.5,-145,130,70,-75,-75,70,-130,130,-152.5,130,330,1996
16,F,Hannah Robinson,SBD,Y,84+,Single-ply,SMI,85.3,137.5,-142.5,-142.5,137.5,52.5,55,60,60,125,-132.5,-132.5,125,322.5,1998
DQ,F,Dominique Ortiz,SBD,Y,84+,Single-ply,CZO,84.2,-130,130,-135,130,60,62.5,-70,62.5,-125,-125,-125,,,1997
DQ,F,Jordan Ketchem,SBD,Y,84+,Single-ply,BDM,89.2,-120,-120,-120,,40,-45,,40,,,,,,1998
