Place,WeightClassKg,Name,Equipment,Team,BodyweightKg,Bench1Kg,Bench2Kg,Bench3Kg,Best3BenchKg,TotalKg,Division,Sex,Event
1,75,Lene Bay Sjøen,Raw,Bergen SK,71.50,30,-35,-35,30.0,30,Junior 19-23,F,B
1,44,Nikki Hellesø,Single-ply,Bergen SK,43.70,30,32.5,35,35.0,35,Master 40-49,F,B
1,67.5,Tony Steien Tilrem,Raw,Bergen SK,67.30,80,90,100,100.0,100,Junior 19-23,M,B
1,90,Daniel Løvheim,Single-ply,Bergen SK,85.00,-130,130,135,135.0,135,Junior 19-23,M,B
