Place,WeightClassKg,Name,Equipment,Team,BodyweightKg,Squat1Kg,Squat2Kg,Squat3Kg,Best3SquatKg,Bench1Kg,Bench2Kg,Bench3Kg,Best3BenchKg,Deadlift1Kg,Deadlift2Kg,Deadlift3Kg,Best3DeadliftKg,TotalKg,Division,Sex,Event
1,84,Gunn Aarmo,Raw,Melhus IL,81.85,135,145,-150,145.0,72.5,77.5,80,80.0,175,185,-187.5,185.0,410,Open,F,SBD
1,84+,Marit Gråbak,Raw,Melhus IL,92.00,120,125,-127.5,125.0,70,75,-77.5,75.0,140,150,-160,150.0,350,Open,F,SBD
1,84,Merethe Stenlund,Raw,Melhus IL,83.50,55,62.5,-70,62.5,47.5,-50,-52.5,47.5,115,-120,120,120.0,230,Master 50-59,F,SBD
1,93,Steinar Ekren,Raw,Melhus IL,92.90,170,182.5,190,190.0,105,-112.5,-117.5,105.0,210,-232.5,,210.0,505,Open,M,SBD
DQ,93,Aleksander Nordengen Enger,Raw,Melhus IL,92.10,190,-200,,190.0,130,140,-145,140.0,-200,,,,,Open,M,SBD
1,120+,Anders Aarmo,Raw,Melhus IL,144.80,,,,,125,132.5,135,135.0,,,,,135,Open,M,B
G,120,Kenneth Ross,Raw,Trøndertun SK,113.10,,,,,170,180,-190,180.0,,,,,180,Open,M,B
G,120+,Erlend Skorstad,Raw,Trøndertun SK,121.00,200,220,-225,220.0,135,145,155,155.0,200,220,-237.5,220.0,595,Open,M,SBD
