Event,Sex,Name,State,BodyweightKg,WeightClassKg,Division,Best3SquatKg,Best3BenchKg,Best3DeadliftKg,TotalKg,Equipment,Place
SBD,M,Kojo Gyennin,AB,73.8,75,Open,200.0,135.0,255.0,590.0,Single-ply,1
SBD,F,Preshani Maistry,AB,53.0,56,Open,110.0,55.0,105.0,270.0,Single-ply,2
SBD,F,Megan Bryanton,AB,55.3,56,Open,105.0,67.5,120.0,292.5,Single-ply,1
SBD,M,Alex Mardell,AB,126.4,125+,Open,335.0,292.5,290.0,917.5,Single-ply,1
SBD,M,Johnny Phung,AB,96.3,100,Open,240.0,185.0,230.0,655.0,Single-ply,1
SBD,M,Dominic Boire,AB,83.6,90,Junior,210.0,200.0,232.5,642.5,Single-ply,1
SBD,M,Brendan Whittleton,AB,130.8,125+,Junior,192.5,165.0,255.0,612.5,Single-ply,1
SBD,M,Jonathan Stewart #1,AB,92.3,100,Junior,272.5,150.0,277.5,700.0,Single-ply,1
B,M,Dennis Bergseth,AB,106.6,110,Master 1,,147.5,,147.5,Single-ply,1
