Place,WeightClassKg,Event,Equipment,Sex,Name,CyrillicName,BirthDate,Age,Division,BodyweightKg,Squat1Kg,Squat2Kg,Squat3Kg,Best3SquatKg,Squat4Kg,Bench1Kg,Bench2Kg,Bench3Kg,Best3BenchKg,Bench4Kg,Deadlift1Kg,Deadlift2Kg,Deadlift3Kg,Best3DeadliftKg,Deadlift4Kg,TotalKg,Tested
1,48,SBD,Wraps,F,Oksana Dorokhina,Оксана Дорохина,1983-08-22,,Open,47.1,-85,85,-92.5,85,,55,57.5,-60,57.5,,-85,85,-102.5,85,,227.5,Yes
1,52,SBD,Wraps,F,Madina Gubieva,Мадина Губиева,1998-08-17,,Teen 16-17,51.2,45,50,-60,50,,25,-30,-35,25,,70,-80,,70,,145,Yes
DQ,52,SBD,Wraps,F,Karina Nebyvaeva,Карина Небываева,1984-01-06,,Open,50.5,-90,90,-95,90,,42.5,45,-47.5,45,,-120,-127.5,-127.5,,,,Yes
1,56,SBD,Wraps,F,Angelina Yakovleva,Ангелина Яковлева,1999-01-21,,Teen 16-17,56,50,60,-70,60,,35,-40,-42.5,35,,80,90,-100,90,,185,Yes
1,56,SBD,Wraps,F,Anastasiya Zhdanova,Анастасия Жданова,1980-12-11,,Open,53.3,-80,-80,80,80,,40,-45,-45,40,,100,110,115,115,,235,Yes
2,56,SBD,Wraps,F,Tatyana Babina,Татьяна Бабина,1981-08-04,,Open,54.6,75,-80,-80,75,,45,-50,-50,45,,85,95,-107.5,95,,215,Yes
1,60,SBD,Wraps,F,Anastasiya Dudinova,Анастасия Дудинова,1998-03-26,,Teen 16-17,58.9,-70,70,90,90,,40,50,-55,50,,70,90,105,105,,245,Yes
2,60,SBD,Wraps,F,Diana Volkova,Диана Волкова,1998-02-04,,Teen 16-17,59.5,75,80,-82.5,80,,40,-45,-45,40,,105,-115,-115,105,,225,Yes
1,60,SBD,Wraps,F,Yuliya Cherkesova,Юлия Черкесова,1994-01-10,,Juniors 20-23,58.9,-70,70,75,75,,-50,50,55,55,,-105,-105,105,105,,235,Yes
1,60,SBD,Wraps,F,Elena Yakovleva,Елена Яковлева,1983-12-04,,Open,60,50,60,70,70,,35,-40,40,40,,70,80,90,90,-100,200,Yes
1,67.5,SBD,Wraps,F,Marina Vishnevskaya,Марина Вишневская,1985-10-26,,Open,66.3,110,120,-130,120,,70,75,,75,,140,150,160,160,,355,Yes
2,67.5,SBD,Wraps,F,Marina Morozova,Марина Морозова,1978-10-09,,Open,66.7,100,110,-115,110,,70,-75,75,75,,140,147.5,-150,147.5,,332.5,Yes
1,75,SBD,Wraps,F,Marina Grigoryan,Марина Григорян,1999-01-12,,Teen 16-17,71.4,95,-100,102.5,102.5,,40,47.5,-52.5,47.5,,95,100,105,105,,255,Yes
1,56,SBD,Wraps,M,Tamerlan Skhvitaridze,Тамерлан Схвитаридзе,2001-08-07,,Teen 13-15,55.9,70,80,-100,80,,60,67.5,-70,67.5,,110,-117.5,-117.5,110,,257.5,Yes
1,56,SBD,Wraps,M,Dmitriy Didechkin,Дмитрий Дидечкин,1996-09-15,,Teen 18-19,55.4,-100,100,107.5,107.5,,55,62.5,-65,62.5,,120,127.5,132.5,132.5,,302.5,Yes
1,60,SBD,Wraps,M,Samvel Gabrielyan,Самвел Габриелян,1989-05-04,,Open,58.8,120,-140,-140,120,,90,,,90,,-155,155,,155,,365,Yes
1,67.5,SBD,Wraps,M,Egor Goncharov,Егор Гончаров,1999-05-15,,Teen 13-15,67,140,150,-155,150,,75,85,90,90,,155,-170,-170,155,,395,Yes
1,67.5,SBD,Wraps,M,Vladislav Kofman,Владислав Кофман,1997-05-28,,Teen 16-17,66.4,140,-150,-150,140,,85,-90,-90,85,,170,180,190,190,,415,Yes
2,67.5,SBD,Wraps,M,Denis Vatulin,Денис Ватулин,1997-07-22,,Teen 16-17,65.6,-120,120,-130,120,,-70,70,80,80,,150,170,-175,170,,370,Yes
1,67.5,SBD,Wraps,M,Roman Lastovnik,Роман Ластовник,1997-01-16,,Teen 18-19,62,100,-110,112.5,112.5,,80,85,87.5,87.5,,135,145,150,150,,350,Yes
1,67.5,SBD,Wraps,M,Kazbek Gogaev,Казбек Гогаев,1993-08-13,,Juniors 20-23,66.6,140,150,160,160,,75,80,87.5,87.5,,190,-200,,190,,437.5,Yes
1,67.5,SBD,Wraps,M,Evgeniy Chaynikov,Евгений Чайников,1990-10-31,,Open,66,110,120,-130,120,,90,100,105,105,,160,170,180,180,,405,Yes
1,67.5,SBD,Wraps,M,Maksim Sukhobok,Максим Сухобок,1965-01-01,,Masters 50-54,63.2,160.5,165,170,170,,105,112.5,117.5,117.5,,200,212.5,-222.5,212.5,,500,Yes
1,75,SBD,Wraps,M,Daniil Petrishchev,Даниил Петрищев,2000-06-01,,Teen 13-15,71.6,120,130,135,135,,70,80,-85,80,,150,160,170,170,,385,Yes
1,75,SBD,Wraps,M,Aleksandr Bedikyan,Александр Бедикян,1998-02-01,,Teen 16-17,72.9,137.5,-147.5,-147.5,137.5,,90,97.5,105,105,,170,180,190,190,,432.5,Yes
2,75,SBD,Wraps,M,Igor Podkopaev,Игорь Подкопаев,1997-07-20,,Teen 16-17,73.2,125,135,140,140,,92.5,100,102.5,102.5,,160,177.5,185,185,,427.5,Yes
3,75,SBD,Wraps,M,Dmitriy Belyanskiy,Дмитрий Белянский,1999-03-25,,Teen 16-17,75,120,130,135,135,,70,80,85,85,,140,150,-155,150,,370,Yes
1,75,SBD,Wraps,M,Alim Bizhoev,Алим Бижоев,1993-12-27,,Teen 18-19,73,150,160,-170,160,,90,92.5,95,95,,190,195,202.5,202.5,,457.5,Yes
1,75,SBD,Wraps,M,Marat Kurdanov,Марат Курданов,1993-08-31,,Juniors 20-23,74.5,135,145,155,155,,95,105,107.5,107.5,,200,220,-225,220,,482.5,Yes
2,75,SBD,Wraps,M,Aleksandr Vasilev,Александр Васильев,1991-12-25,,Juniors 20-23,70.4,145,150,160,160,,110,-115,-115,110,,190,-200,-200,190,,460,Yes
1,75,SBD,Wraps,M,Valeriy Voronko,Валерий Воронко,1988-01-01,,Open,74.1,135,145,-150,145,,90,97.5,-102.5,97.5,,170,182.5,190,190,,432.5,Yes
1,82.5,SBD,Wraps,M,Vitaliy Komarov,Виталий Комаров,1999-10-25,,Teen 13-15,82.5,130,140,142.5,142.5,,80,90,97.5,97.5,,-175,175,-200,175,,415,Yes
1,82.5,SBD,Wraps,M,Vyacheslav Tolstoukhov,Вячеслав Толстоухов,1998-03-09,,Teen 16-17,79.2,160,-170,-170,160,,110,120,-125,120,,185,195,-210,195,,475,Yes
2,82.5,SBD,Wraps,M,Zakhar Shipulin,Захар Шипулин,1998-08-11,,Teen 16-17,81.9,-140,140,155,155,,100,110,117.5,117.5,,140,155,165,165,,437.5,Yes
1,82.5,SBD,Wraps,M,Gagik Arutyunyan,Гагик Арутюнян,1993-10-03,,Juniors 20-23,82.1,180,190,200,200,,140,150,-155,150,,210,230,-240,230,,580,Yes
DQ,82.5,SBD,Wraps,M,Yusup Barkhanoev,Юсуп Барханоев,1993-05-22,,Juniors 20-23,81.5,-160,-165,-165,,,,,,,,,,,,,,Yes
1,82.5,SBD,Wraps,M,Ivan Antonenko,Иван Антоненко,1987-04-11,,Open,79.8,-175,182.5,190,190,,150,155,157.5,157.5,,190,200,215,215,,562.5,Yes
2,82.5,SBD,Wraps,M,Sergey Laskatelev,Сергей Ласкателев,1988-09-22,,Open,82.1,162.5,-180,180,180,,-125,137.5,-145,137.5,,192.5,212.5,-217.5,212.5,,530,Yes
1,90,SBD,Wraps,M,Sergey Petrosyan,Сергей Петросян,1996-10-26,,Teen 18-19,87.9,-170,-175,175,175,,-122.5,127.5,-135,127.5,,190,205,212.5,212.5,,515,Yes
1,90,SBD,Wraps,M,Nail Devlicharov,Наиль Девличаров,1994-02-10,,Juniors 20-23,90,-185,185,200,200,,145,155,162.5,162.5,,210,217.5,225,225,,587.5,Yes
2,90,SBD,Wraps,M,Tamirlan Umekhov,Тамирлан Умехов,1992-05-01,,Juniors 20-23,89.2,170,185,-195,185,,-132.5,132.5,-140,132.5,,230,245,-255,245,,562.5,Yes
1,90,SBD,Wraps,M,Vladimir Rybalko,Владимир Рыбалко,1987-05-04,,Open,84,210,220,225,225,,160,167.5,-172.5,167.5,,220,235,250,250,,642.5,Yes
2,90,SBD,Wraps,M,Anatoliy Gudin,Анатолий Гудин,1990-08-25,,Open,87.2,185,197.5,-202.5,197.5,,160,167.5,170,170,,200,210,-230,210,,577.5,Yes
3,90,SBD,Wraps,M,Ivan Fedorov,Иван Федоров,1976-06-06,,Open,88.9,-180,180,190,190,,135,147.5,-150,147.5,,200,-220,220,220,,557.5,Yes
4,90,SBD,Wraps,M,Robert Akhmetshin,Роберт Ахметшин,1977-10-20,,Open,88.1,-160,172.5,182.5,182.5,,115,125,130,130,,200,220,225,225,,537.5,Yes
1,100,SBD,Wraps,M,Aleksandr Perov,Александр Перов,1984-11-14,,Open,99.7,-247.5,247.5,252.5,252.5,,147.5,152.5,157.5,157.5,,280,290,300,300,,710,Yes
2,100,SBD,Wraps,M,Roman Skakov,Роман Скаков,1986-06-08,,Open,98.1,-200,200,230,230,,170,-180,-180,170,,-250,250,-255,250,,650,Yes
3,100,SBD,Wraps,M,Evgeniy Kurnosov,Евгений Курносов,1991-03-28,,Open,96.3,200,210,220,220,,150,155,-160,155,,250,-260,-260,250,,625,Yes
4,100,SBD,Wraps,M,Nikolay Ipatov,Николай Ипатов,1971-07-06,,Open,97.7,180,192.5,200,200,,150,157.5,162.5,162.5,,205,215,222.5,222.5,,585,Yes
1,100,SBD,Wraps,M,Nikolay Ipatov,Николай Ипатов,1971-07-06,,Masters 40-44,97.7,180,192.5,200,200,,150,157.5,162.5,162.5,,205,215,222.5,222.5,,585,Yes
1,110,SBD,Wraps,M,Sergey Materinskiy,Сергей Материнский,1992-08-13,,Juniors 20-23,106.2,220,237.5,250,250,,142.5,152.5,160,160,,270,290,300,300,,710,Yes
1,110,SBD,Wraps,M,Sergey Sokolov,Сергей Соколов,1969-11-06,,Open,105.9,240,250,255,255,,175,185,-187.5,185,,240,255,260,260,,700,Yes
2,110,SBD,Wraps,M,Kirill Terekhov,Кирилл Терехов,1985-05-12,,Open,105.1,160,175,180,180,,130,-145,145,145,,190,200,210,210,,535,Yes
1,110,SBD,Wraps,M,Sergey Sokolov,Сергей Соколов,1969-11-06,,Masters 45-49,105.9,240,250,255,255,,175,185,-187.5,185,,240,255,260,260,,700,Yes
DQ,125,SBD,Wraps,M,Evgeniy Sidelnikov,Евгений Сидельников,1983-03-09,,Open,123.9,-190,-195,-195,,,,,,,,,,,,,,Yes
1,140,SBD,Wraps,M,Vladimir Chernyshev,Владимир Чернышев,1948-09-06,,Masters 65-69,132.4,245,255,260,260,,145,152.5,155,155,,235,245,,245,,660,Yes
1,52,SBD,Single-ply,F,Tatyana Bondarenko,Татьяна Бондаренко,1991-09-12,,Juniors 20-23,50.5,130,135,140,140,,75,77.5,-80,77.5,,105,112.5,115,115,,332.5,Yes
1,52,SBD,Single-ply,F,Ekaterina Vysotskova,Екатерина Высоцкова,1990-06-04,,Open,50.7,160,180,-190,180,,90,103,107.5,107.5,,135,150,160,160,,447.5,Yes
1,60,SBD,Single-ply,F,Svetlana Maletskaya,Светлана Малецкая,1983-06-04,,Open,60,125,135,145,145,,80,85,-90,85,,135,145,-150,145,,375,Yes
1,82.5,SBD,Single-ply,M,Ruslan Sementsov,Руслан Семенцов,1975-07-01,,Open,82.3,260,270,280,280,,160,-170,-170,160,,220,235,-245,235,,675,Yes
2,82.5,SBD,Single-ply,M,Stanislav Bykov,Станислав Быков,1989-10-26,,Open,78,-210,-220,220,220,,-160,160,170,170,,210,220,230,230,,620,Yes
1,82.5,SBD,Single-ply,M,Valeriy Golovin,Валерий Головин,1961-01-16,,Masters 50-54,82.4,-190,190,-205,190,,110,115,-120,115,,170,182.5,195,195,,500,Yes
1,90,SBD,Single-ply,M,Aleksandr Prutsko,Александр Пруцко,1995-11-16,,Teen 18-19,88.6,-200,-200,210,210,,140,-147.5,-147.5,140,,200,215,227.5,227.5,,577.5,Yes
DQ,90,SBD,Single-ply,M,Sergey Mamatkov,Сергей Маматков,1995-09-22,,Teen 18-19,86.4,220,230,240,240,,-150,-150,-150,,,-220,,,,,,Yes
1,90,SBD,Single-ply,M,Aleksey Surenskiy,Алексей Суренский,1986-03-27,,Open,89.9,220,-235,-245,220,,-145,145,-155,145,,210,230,242.5,242.5,,607.5,Yes
1,75,SBD,Multi-ply,M,Dmitriy Plokhoy,Дмитрий Плохой,1987-05-18,,O,73.7,170,190,200,200,,125,132.5,-140,132.5,,190,205,215,215,,547.5,Yes
1,90,SBD,Multi-ply,M,Aleksandr Dronin,Александр Дронин,1987-09-16,,O,88,240,-250,-250,240,,150,-160,-160,150,,-230,230,240,240,,630,Yes
1,44,B,Raw,F,Sofiya Kosheleva,София Кошелева,2001-03-21,,Teen 13-15,43.3,,,,,,-20,20,-25,20,,,,,,,20,Yes
1,52,B,Raw,F,Olga Burchakova,Ольга Бурчакова,2001-02-19,,Teen 13-15,51,,,,,,35,-42.5,-42.5,35,,,,,,,35,Yes
1,52,B,Raw,F,Mariya Vasileva,Мария Васильева,1991-07-01,,Juniors 20-23,52,,,,,,45,-50,-50,45,,,,,,,45,Yes
1,52,B,Raw,F,Marina Krutko,Марина Крутько,1987-11-11,,Open,51.3,,,,,,75,77.5,80,80,,,,,,,80,Yes
1,56,B,Raw,F,Karina Tashueva,Карина Ташуева,1996-04-01,,Teen 18-19,55.8,,,,,,35,-40,-40,35,,,,,,,35,Yes
1,56,B,Raw,F,Yuliya Kupriyanova,Юлия Куприянова,1993-02-08,,Juniors 20-23,53.4,,,,,,-40,40,-45,40,,,,,,,40,Yes
1,56,B,Raw,F,Lyudmila Kostina,Людмила Костина,1981-10-25,,Open,55.8,,,,,,55,-57.5,-57.5,55,,,,,,,55,Yes
2,56,B,Raw,F,Yuliya Volkova,Юлия Волкова,1989-02-24,,Open,53.1,,,,,,35,37.5,-42.5,37.5,,,,,,,37.5,Yes
1,60,B,Raw,F,Svetlana Morozova,Светлана Морозова,1999-10-29,,Teen 13-15,58.7,,,,,,-70,70,-77.5,70,,,,,,,70,Yes
1,60,B,Raw,F,Yuliya Vizgina,Юлия Визгина,1992-02-03,,Juniors 20-23,59.4,,,,,,60,-67.5,-67.5,60,,,,,,,60,Yes
1,60,B,Raw,F,Tatyana Kotlyarova,Татьяна Котлярова,1994-06-06,,Open,57.3,,,,,,72.5,75,-77.5,75,,,,,,,75,Yes
2,60,B,Raw,F,Yuliya Vizgina,Юлия Визгина,1992-02-03,,Open,59.4,,,,,,60,-67.5,-67.5,60,,,,,,,60,Yes
3,60,B,Raw,F,Svetlana Skorikova,Светлана Скорикова,1989-03-06,,Open,58.9,,,,,,-52.5,52.5,-57.5,52.5,,,,,,,52.5,Yes
1,67.5,B,Raw,F,Marina Morozova,Марина Морозова,1978-10-09,,Open,67,,,,,,70,-75,-75,70,,,,,,,70,Yes
1,67.5,B,Raw,F,Irina Karpilenya,Ирина Карпиленя,1982-09-16,,Open,66.2,,,,,,57.5,-65,-65,57.5,,,,,,,57.5,Yes
1,75,B,Raw,F,Tatyana Chuba,Татьяна Чуба,1959-10-01,,Masters 55-59,73.9,,,,,,55,-60,60,60,,,,,,,60,Yes
DQ,82.5,B,Raw,F,Anna Rodnina,Анна Роднина,1984-04-28,,Open,77.6,,,,,,-75,-75,-75,,,,,,,,,Yes
1,56,B,Raw,M,Artem Bobernaga,Артем Бобернага,2000-11-25,,Teen 13-15,55.7,,,,,,80,85,90,90,,,,,,,90,Yes
1,56,B,Raw,M,Aleksandr Krivtsev,Александр Кривцев,1998-04-17,,Teen 16-17,53.7,,,,,,60,65,-70,65,,,,,,,65,Yes
1,56,B,Raw,M,Timur Abduselimov,Тимур Абдуселимов,1993-02-07,,Open,53.7,,,,,,-90,90,-95,90,,,,,,,90,Yes
1,60,B,Raw,M,Alim Arkasov,Алим Аркасов,1998-06-07,,Teen 16-17,59.9,,,,,,90,-97.5,-97.5,90,,,,,,,90,Yes
DQ,60,B,Raw,M,Aleksandr Polyanskiy,Александр Полянский,1993-07-23,,Juniors 20-23,57.8,,,,,,-80,-90,-90,,,,,,,,,Yes
1,67.5,B,Raw,M,Daniil Dityatev,Даниил Дитятьев,1999-12-23,,Teen 13-15,63.7,,,,,,80,90,97.5,97.5,,,,,,,97.5,Yes
1,67.5,B,Raw,M,Simran Sudzhaddinov,Симран Суджаддинов,1998-06-26,,Teen 16-17,67.4,,,,,,107.5,115,-125,115,,,,,,,115,Yes
2,67.5,B,Raw,M,Astemir Khabitezhev,Астемир Хабитежев,1997-09-07,,Teen 16-17,67.1,,,,,,-82.5,85,87.5,87.5,,,,,,,87.5,Yes
3,67.5,B,Raw,M,Beslan Zakaunov,Беслан Закаунов,1997-10-28,,Teen 16-17,67.3,,,,,,75,80,-85,80,,,,,,,80,Yes
1,67.5,B,Raw,M,Aleksandr Ragovskiy,Александр Раговский,1996-11-04,,Teen 18-19,62.8,,,,,,100,107.5,112.5,112.5,,,,,,,112.5,Yes
2,67.5,B,Raw,M,Timur Kardanov,Тимур Карданов,1995-06-29,,Teen 18-19,67.2,,,,,,100,105,-107.5,105,,,,,,,105,Yes
3,67.5,B,Raw,M,Rashad Khalilov,Рашад Халилов,1996-12-08,,Teen 18-19,66.3,,,,,,85,-90,-90,85,,,,,,,85,Yes
1,67.5,B,Raw,M,Maksim Gridnev,Максим Гриднев,1992-10-31,,Juniors 20-23,66.4,,,,,,142.5,150,-155,150,,,,,,,150,Yes
2,67.5,B,Raw,M,Nurbi Mambetov,Нурби Мамбетов,1994-09-27,,Juniors 20-23,67.3,,,,,,-90,90,-102.5,90,,,,,,,90,Yes
1,67.5,B,Raw,M,Sergey Kantsurov,Сергей Канцуров,1991-03-14,,Open,65.4,,,,,,115,125,130,130,,,,,,,130,Yes
1,75,B,Raw,M,Vladislav Gerasimov,Владислав Герасимов,1997-11-22,,Teen 16-17,74,,,,,,130,135,140,140,,,,,,,140,Yes
2,75,B,Raw,M,Sergey Kustovinov,Сергей Кустовинов,1998-05-07,,Teen 16-17,71.2,,,,,,-105,105,-110,105,,,,,,,105,Yes
3,75,B,Raw,M,Astemir Gergov,Астемир Гергов,1997-11-26,,Teen 16-17,73.9,,,,,,85,87.5,-90,87.5,,,,,,,87.5,Yes
1,75,B,Raw,M,Beslan Tlyamitkhachev,Беслан Тлямитхачев,1995-06-01,,Teen 18-19,74.9,,,,,,90,95,97.5,97.5,,,,,,,97.5,Yes
2,75,B,Raw,M,Vadim Guatizhev,Вадим Гуатижев,1996-06-10,,Teen 18-19,73.1,,,,,,80,85,-92.5,85,,,,,,,85,Yes
3,75,B,Raw,M,Zadim Gogunokov,Задим Гогуноков,1995-12-28,,Teen 18-19,74.7,,,,,,75,80,-85,80,,,,,,,80,Yes
1,75,B,Raw,M,Vakha Khadziev,Ваха Хадзиев,1994-09-26,,Juniors 20-23,74.9,,,,,,160,170,180,180,-185,,,,,,180,Yes
2,75,B,Raw,M,Roman Zolotin,Роман Золотин,1991-08-05,,Juniors 20-23,71.9,,,,,,130,135,-140,135,,,,,,,135,Yes
3,75,B,Raw,M,Dashgyn Veliev,Дашгын Велиев,1993-03-27,,Juniors 20-23,73.3,,,,,,110,117.5,120,120,,,,,,,120,Yes
4,75,B,Raw,M,Andrey Chernozubov,Андрей Чернозубов,1991-09-25,,Juniors 20-23,74.7,,,,,,110,117.5,-122.5,117.5,,,,,,,117.5,Yes
5,75,B,Raw,M,Artem Melyan,Артем Мелян,1992-12-30,,Juniors 20-23,74.2,,,,,,107.5,-117.5,-117.5,107.5,,,,,,,107.5,Yes
6,75,B,Raw,M,Islam Bizhoev,Ислам Бижоев,1993-12-27,,Juniors 20-23,73.5,,,,,,85,92.5,-100,92.5,,,,,,,92.5,Yes
1,75,B,Raw,M,Yusif Nurullaev,Юсиф Нуруллаев,1990-09-07,,Open,74.6,,,,,,155,165,-172.5,165,,,,,,,165,Yes
2,75,B,Raw,M,Roman Krivtsev,Роман Кривцев,1978-04-10,,Open,73,,,,,,-145,-145,152.5,152.5,,,,,,,152.5,Yes
3,75,B,Raw,M,Ivan Sokolenko,Иван Соколенко,1986-02-02,,Open,70,,,,,,140,-150,-150,140,,,,,,,140,Yes
4,75,B,Raw,M,Azamat Begiev,Азамат Бегиев,1988-02-19,,Open,72.4,,,,,,110,117.5,120,120,,,,,,,120,Yes
1,75,B,Raw,M,Yuriy Dvizov,Юрий Двизов,1947-02-05,,Masters 65-69,74.4,,,,,,115,120,125,125,,,,,,,125,Yes
1,82.5,B,Raw,M,Vasiliy Eremeev,Василий Еремеев,1999-08-05,,Teen 13-15,81.9,,,,,,90,102.5,112.5,112.5,,,,,,,112.5,Yes
1,82.5,B,Raw,M,Akhmed Kelemetov,Ахмед Келеметов,1997-10-31,,Teen 16-17,82.3,,,,,,130,137.5,-145,137.5,,,,,,,137.5,Yes
2,82.5,B,Raw,M,Dmitriy Pekshov,Дмитрий Пекшов,1997-09-11,,Teen 16-17,81.5,,,,,,127.5,-135,135,135,,,,,,,135,Yes
1,82.5,B,Raw,M,Artem Midov,Артем Мидов,1995-06-16,,Teen 18-19,81.6,,,,,,112.5,120,-122.5,120,,,,,,,120,Yes
1,82.5,B,Raw,M,Aleksey Vlasyan,Алексей Власян,1994-02-18,,Juniors 20-23,82.4,,,,,,-147.5,147.5,152.5,152.5,,,,,,,152.5,Yes
2,82.5,B,Raw,M,Mikhail Bronnikov,Михаил Бронников,1993-05-21,,Juniors 20-23,76.7,,,,,,142.5,147.5,-152.5,147.5,,,,,,,147.5,Yes
3,82.5,B,Raw,M,Ramazan Tsuroev,Рамазан Цуроев,1994-01-23,,Juniors 20-23,81.4,,,,,,140,145,-150,145,,,,,,,145,Yes
4,82.5,B,Raw,M,Denis Bosov,Денис Босов,1991-06-23,,Juniors 20-23,80.5,,,,,,135,-145,-145,135,,,,,,,135,Yes
5,82.5,B,Raw,M,Aleksandr Shcherbakov,Александр Щербаков,1994-08-25,,Juniors 20-23,82.2,,,,,,130,-145,-145,130,,,,,,,130,Yes
1,82.5,B,Raw,M,Alekseey Serykh,Алексеей Серых,1980-02-04,,Open,82.4,,,,,,-160,170,-175,170,,,,,,,170,Yes
2,82.5,B,Raw,M,Mikhail Barilko,Михаил Барилко,1987-05-19,,Open,81.8,,,,,,167.5,-170,-172.5,167.5,,,,,,,167.5,Yes
3,82.5,B,Raw,M,Dmitriy Lyanguzov,Дмитрий Лянгузов,1988-11-15,,Open,81,,,,,,-135,142.5,-147.5,142.5,,,,,,,142.5,Yes
4,82.5,B,Raw,M,Aleksey Goncharenko,Алексей Гончаренко,1981-03-24,,Open,77.8,,,,,,135,-140,140,140,,,,,,,140,Yes
5,82.5,B,Raw,M,Mikhail Goncharenko,Михаил Гончаренко,1977-11-08,,Open,78.7,,,,,,135,-140,-140,135,,,,,,,135,Yes
DQ,82.5,B,Raw,M,Timofey Chernyavskiy,Тимофей Чернявский,1985-09-08,,Open,77.7,,,,,,-165,-165,-165,,,,,,,,,Yes
1,90,B,Raw,M,Georgiy Malazoniya,Георгий Малазония,1996-06-17,,Teen 18-19,88.1,,,,,,132.5,140,-152.5,140,,,,,,,140,Yes
2,90,B,Raw,M,Andrey Gabuev,Андрей Габуев,1996-10-30,,Teen 18-19,90,,,,,,130,132.5,-135,132.5,,,,,,,132.5,Yes
3,90,B,Raw,M,Rustam Kabardokov,Рустам Кабардоков,1995-12-05,,Teen 18-19,89.9,,,,,,-120,120,-132.5,120,,,,,,,120,Yes
4,90,B,Raw,M,Murat Gligurov,Мурат Глигуров,1996-12-01,,Teen 18-19,89.1,,,,,,95,-105,105,105,,,,,,,105,Yes
1,90,B,Raw,M,Maksim Marilov,Максим Марилов,1992-10-12,,Juniors 20-23,90,,,,,,155,-160,160,160,,,,,,,160,Yes
2,90,B,Raw,M,Yusup Barkhanoev,Юсуп Барханоев,1993-05-22,,Juniors 20-23,85,,,,,,140,-150,-160,140,,,,,,,140,Yes
1,90,B,Raw,M,Yuriy Fyodorov,Юрий Фёдоров,1975-05-23,,Open,87,,,,,,190,195,-197.5,195,,,,,,,195,Yes
2,90,B,Raw,M,Nikolay Kelep,Николай Келеп,1984-03-17,,Open,89.4,,,,,,185,-195,-197.5,185,,,,,,,185,Yes
3,90,B,Raw,M,Anatoliy Gudin,Анатолий Гудин,1990-08-25,,Open,87.9,,,,,,160,167.5,-172.5,167.5,,,,,,,167.5,Yes
4,90,B,Raw,M,Evgeniy Ovsyanko,Евгений Овсянко,1983-06-24,,Open,90,,,,,,150,-160,160,160,,,,,,,160,Yes
5,90,B,Raw,M,Oleg Puzikov,Олег Пузиков,1988-07-27,,Open,88.1,,,,,,150,155,-160,155,,,,,,,155,Yes
6,90,B,Raw,M,Maksim Fedoryuk,Максим Федорюк,1984-06-15,,Open,90,,,,,,155,-162.5,-162.5,155,,,,,,,155,Yes
7,90,B,Raw,M,Maksim Lozovoy,Максим Лозовой,1977-09-25,,Open,87.5,,,,,,125,132.5,140,140,,,,,,,140,Yes
8,90,B,Raw,M,Aleksandr Gnedin,Александр Гнедин,1980-07-06,,Open,88.5,,,,,,-132.5,-132.5,132.5,132.5,,,,,,,132.5,Yes
DQ,90,B,Raw,M,Artem Nedvigin,Артем Недвигин,1990-03-01,,Open,89,,,,,,-132.5,-132.5,-132.5,,,,,,,,,Yes
1,90,B,Raw,M,Ruslan Albershteyn,Руслан Альберштейн,1973-01-09,,Masters 40-44,87.8,,,,,,130,137.5,145,145,,,,,,,145,Yes
DQ,90,B,Raw,M,Nikolay Kolyuchkin,Николай Колючкин,1967-05-20,,Masters 45-49,89.6,,,,,,-120,-120,-120,,,,,,,,,Yes
1,90,B,Raw,M,Vasiliy Shmoylov,Василий Шмойлов,1960-04-28,,Masters 50-54,85.2,,,,,,120,137.5,-140,137.5,,,,,,,137.5,Yes
1,100,B,Raw,M,Vitaliy Grigoriy,Виталий Григорий,1997-09-17,,Teen 16-17,94.9,,,,,,125,-132.5,-132.5,125,,,,,,,125,Yes
2,100,B,Raw,M,Ramazan Uyanaev,Рамазан Уянаев,1997-08-14,,Teen 16-17,94.5,,,,,,100,110,-125,110,,,,,,,110,Yes
1,100,B,Raw,M,Vladislav Lyubchenko,Владислав Любченко,1997-02-05,,Teen 18-19,97.9,,,,,,-162.5,165,185,185,,,,,,,185,Yes
1,100,B,Raw,M,Bagaudin Algatov,Багаудин Алгатов,1990-10-05,,Open,96.3,,,,,,170,185,187.5,187.5,,,,,,,187.5,Yes
2,100,B,Raw,M,Vladislav Suprunenko,Владислав Супруненко,1989-02-15,,Open,95,,,,,,165,-185,185,185,,,,,,,185,Yes
3,100,B,Raw,M,Abdul Rashid Metrishev,Абдул Рашид Метришев,1974-01-10,,Open,96.3,,,,,,180,185,-187.5,185,,,,,,,185,Yes
4,100,B,Raw,M,Vladimir Petrykin,Владимир Петрыкин,1981-09-25,,Open,99.3,,,,,,185,-190,-190,185,,,,,,,185,Yes
5,100,B,Raw,M,Vasiliy Shelestov,Василий Шелестов,1975-11-11,,Open,99.8,,,,,,185,-190,-190,185,,,,,,,185,Yes
6,100,B,Raw,M,Leonid Koshlets,Леонид Кошлец,1991-02-07,,Open,95.6,,,,,,175,-180,-185,175,,,,,,,175,Yes
7,100,B,Raw,M,Denis Denisov,Денис Денисов,1985-10-23,,Open,96.3,,,,,,170,-180,-180,170,,,,,,,170,Yes
8,100,B,Raw,M,Vladislav Anosyan,Владислав Аносян,1987-07-06,,Open,99.4,,,,,,162.5,-185,-185,162.5,,,,,,,162.5,Yes
9,100,B,Raw,M,Dmitriy Vertiy,Дмитрий Вертий,1985-08-07,,Open,99.6,,,,,,155,-162.5,-162.5,155,,,,,,,155,Yes
1,100,B,Raw,M,Abdul Rashid Metrishev,Абдул Рашид Метришев,1974-01-10,,Masters 40-44,96.3,,,,,,180,185,-187.5,185,,,,,,,185,Yes
2,100,B,Raw,M,Aleksey Figol,Алексей Фиголь,1973-01-26,,Masters 40-44,97.6,,,,,,140,145,-147.5,145,,,,,,,145,Yes
1,110,B,Raw,M,Sergey Nikitin,Сергей Никитин,1993-03-10,,Juniors 20-23,108.1,,,,,,-140,147.5,-167.5,147.5,,,,,,,147.5,Yes
1,110,B,Raw,M,Arshak Akopyan,Аршак Акопян,1988-12-10,,Open,106.3,,,,,,-180,200,-205,200,,,,,,,200,Yes
2,110,B,Raw,M,Pavel Zhdanov,Павел Жданов,1980-12-03,,Open,108.9,,,,,,180,185,-187.5,185,,,,,,,185,Yes
DQ,110,B,Raw,M,Aleksandr Korovin,Александр Коровин,1988-01-11,,Open,107.1,,,,,,-170,-175,-175,,,,,,,,,Yes
1,110,B,Raw,M,Roman Cheremisin,Роман Черемисин,1971-06-20,,Masters 40-44,104.5,,,,,,-165,165,167.5,167.5,,,,,,,167.5,Yes
1,110,B,Raw,M,Vladimir Chubarov,Владимир Чубаров,1964-04-03,,Masters 50-54,109.1,,,,,,150,-152.5,-155,150,,,,,,,150,Yes
1,110,B,Raw,M,Evgeniy Kozharinov,Евгений Кожаринов,1945-11-04,,Masters 65-69,102,,,,,,120,127.5,132.5,132.5,,,,,,,132.5,Yes
1,125,B,Raw,M,Vyacheslav Lashchilin,Вячеслав Лащилин,1997-01-04,,Teen 18-19,117.6,,,,,,162.5,170,177.5,177.5,,,,,,,177.5,Yes
1,125,B,Raw,M,Dmitriy Gosman,Дмитрий Госман,1993-05-22,,Juniors 20-23,117.3,,,,,,-185,-192.5,192.5,192.5,,,,,,,192.5,Yes
1,125,B,Raw,M,Artur Gulyan,Артур Гулян,1982-01-23,,Open,123.9,,,,,,237.5,245,-250.5,245,,,,,,,245,Yes
2,125,B,Raw,M,Igor Indukaev,Игорь Индукаев,1981-05-31,,Open,119.5,,,,,,185,-195,-200,185,,,,,,,185,Yes
1,125,B,Raw,M,Roman Chuba,Роман Чуба,1954-05-01,,Masters 60-64,113.4,,,,,,140,147.5,150,150,,,,,,,150,Yes
1,140,B,Raw,M,Andrey Dunaevskiy,Андрей Дунаевский,1980-06-20,,Open,127.3,,,,,,175,182.5,-187.5,182.5,,,,,,,182.5,Yes
2,140,B,Raw,M,Anton Epifanov,Антон Епифанов,1985-02-05,,Open,126.7,,,,,,-155,155,170,170,,,,,,,170,Yes
1,140+,B,Raw,M,Roman Marachev,Роман Марачев,1978-05-16,,Open,143.2,,,,,,210,217.5,-220,217.5,,,,,,,217.5,Yes
1,140+,B,Raw,M,Boris Trofimov,Борис Трофимов,1972-03-21,,Masters 40-44,142.2,,,,,,210,-215,-215,210,,,,,,,210,Yes
1,52,B,Single-ply,F,Ekaterina Vysotskova,Екатерина Высоцкова,1990-06-04,,Open,50.7,,,,,,90,100,,100,,,,,,,100,Yes
1,60,B,Single-ply,F,Liliya Linnik,Лилия Линник,1995-11-29,,Open,58.1,,,,,,92.5,-100,100,100,-105.5,,,,,,100,Yes
2,60,B,Single-ply,F,Alena Sotnikova,Алена Сотникова,1989-08-29,,Open,59.9,,,,,,90,97.5,-105.5,97.5,,,,,,,97.5,Yes
1,67.5,B,Single-ply,M,Vladimir Losinskiy,Владимир Лосинский,1987-07-23,,Open,65.2,,,,,,-120,120,130,130,,,,,,,130,Yes
1,75,B,Single-ply,M,Boris Mandzhavidze,Борис Манджавидзе,1997-06-20,,Teen 16-17,72.5,,,,,,-155,165,170,170,,,,,,,170,Yes
2,75,B,Single-ply,M,Maksim Rannev,Максим Раннев,1997-07-28,,Teen 16-17,72.3,,,,,,135,-147.5,-147.5,135,,,,,,,135,Yes
1,75,B,Single-ply,M,Artur Abdyushev,Артур Абдюшев,1993-02-28,,Juniors 20-23,74.1,,,,,,190,-197.5,-197.5,190,,,,,,,190,Yes
1,82.5,B,Single-ply,M,Mikhail Redin,Михаил Редин,1974-10-07,,Open,82.1,,,,,,165,175,-180,175,,,,,,,175,Yes
1,82.5,B,Single-ply,M,Mikhail Redin,Михаил Редин,1974-10-07,,Masters 40-44,82.1,,,,,,165,175,-180,175,,,,,,,175,Yes
DQ,90,B,Single-ply,M,Evgeniy Smirkin,Евгений Смиркин,1992-09-24,,Juniors 20-23,88.3,,,,,,-175,-175,-180,,,,,,,,,Yes
DQ,90,B,Single-ply,M,Vladimir Vanyan,Владимир Ванян,1989-10-14,,Open,89.9,,,,,,-230,-230,-230,,,,,,,,,Yes
DQ,100,B,Single-ply,M,Viktor Chekhirkin,Виктор Чехиркин,1982-05-02,,Open,98.9,,,,,,-205,-205,-205,,,,,,,,,Yes
1,140,B,Single-ply,M,Pavel Kobelev,Павел Кобелев,1990-07-14,,Open,127.2,,,,,,210,230,242.5,242.5,,,,,,,242.5,Yes
1,60,B,Multi-ply,F,Svetlana Morozova,Светлана Морозова,1999-10-29,,Teen 13-15,58.7,,,,,,85,92.5,-100,92.5,,,,,,,92.5,Yes
DQ,75,B,Multi-ply,M,Roman Popov,Роман Попов,1977-09-21,,Open,72.4,,,,,,-180,-180,-180,,,,,,,,,Yes
1,82.5,B,Multi-ply,M,Dmitriy Kochevatkin,Дмитрий Кочеваткин,1976-02-18,,Open,82.4,,,,,,-190,190,200,200,,,,,,,200,Yes
1,125,B,Multi-ply,M,Artem Sedov,Артем Седов,1979-03-18,,Open,122.6,,,,,,245,260,265,265,,,,,,,265,Yes
DQ,125,B,Multi-ply,M,Pavel Guzev,Павел Гузев,1966-05-29,,Open,123.7,,,,,,-300,-300,-300,,,,,,,,,Yes
DQ,125,B,Multi-ply,M,Pavel Guzev,Павел Гузев,1966-05-29,,Masters 45-49,123.7,,,,,,-300,-300,-300,,,,,,,,,Yes
1,52,D,Raw,F,Irina Borisova,Ирина Борисова,1996-06-21,,Teen 18-19,51.5,,,,,,,,,,,90,-95,-95,90,,90,Yes
1,52,D,Raw,F,Anastasiya Svateeva,Анастасия Сватеева,1989-07-24,,Open,50.3,,,,,,,,,,,80,87.5,90,90,,90,Yes
1,56,D,Raw,F,Karina Tashueva,Карина Ташуева,1996-04-01,,Teen 18-19,55.8,,,,,,,,,,,95,-105,-105,95,,95,Yes
1,56,D,Raw,F,Anna Gaydamakina,Анна Гайдамакина,1978-08-23,,Open,55.8,,,,,,,,,,,120,130,-140,130,,130,Yes
2,56,D,Raw,F,Anastasiya Zhdanova,Анастасия Жданова,1980-12-11,,Open,54.4,,,,,,,,,,,100,110,115,115,,115,Yes
1,60,D,Raw,F,Diana Volkova,Диана Волкова,1998-02-04,,Teen 16-17,59.5,,,,,,,,,,,100,110,115,115,,115,Yes
2,60,D,Raw,F,Alina Kravtsova,Алина Кравцова,1997-07-17,,Teen 16-17,59.3,,,,,,,,,,,95,-105,-110,95,,95,Yes
1,75,D,Raw,F,Marina Grigoryan,Марина Григорян,1999-01-12,,Teen 16-17,71.4,,,,,,,,,,,100,110,-125,110,,110,Yes
1,75,D,Raw,F,Rasita Vorokova,Расита Ворокова,1983-01-01,,Open,73.6,,,,,,,,,,,95,105,110,110,,110,Yes
1,82.5,D,Raw,F,Anna Rodnina,Анна Роднина,1984-04-28,,Open,77.6,,,,,,,,,,,115,125,-130,125,,125,Yes
1,60,D,Raw,M,Samvel Gabrielyan,Самвел Габриелян,1989-05-04,,Open,58.8,,,,,,,,,,,160,172.5,-177.5,172.5,,172.5,Yes
1,67.5,D,Raw,M,Astemir Khabitezhev,Астемир Хабитежев,1997-09-07,,Teen 16-17,67.1,,,,,,,,,,,-170,170,-180,170,,170,Yes
2,67.5,D,Raw,M,Beslan Zakaunov,Беслан Закаунов,1997-10-28,,Teen 16-17,67.3,,,,,,,,,,,-140,145,-165,145,,145,Yes
1,67.5,D,Raw,M,Sergey Skalozubov,Сергей Скалозубов,1996-05-27,,Teen 18-19,67.2,,,,,,,,,,,210,220,-232.5,220,,220,Yes
2,67.5,D,Raw,M,Rashad Khalilov,Рашад Халилов,1996-12-08,,Teen 18-19,66.3,,,,,,,,,,,175,-190,-190,175,,175,Yes
3,67.5,D,Raw,M,Timur Kardanov,Тимур Карданов,1995-06-29,,Teen 18-19,67.2,,,,,,,,,,,-175,175,-190,175,,175,Yes
1,67.5,D,Raw,M,Aleksey Dyomin,Алексей Дёмин,1994-11-12,,Juniors 20-23,65.9,,,,,,,,,,,185,200,210,210,,210,Yes
2,67.5,D,Raw,M,Nurbi Mambetov,Нурби Мамбетов,1994-09-27,,Juniors 20-23,67.3,,,,,,,,,,,175,-190,-190,175,,175,Yes
1,75,D,Raw,M,Astemir Gergov,Астемир Гергов,1999-11-26,,Teen 13-15,73.9,,,,,,,,,,,182.5,-202.5,-202.5,182.5,,182.5,Yes
2,75,D,Raw,M,Daniil Zherdev,Даниил Жердев,1999-07-27,,Teen 13-15,73.5,,,,,,,,,,,-165,165,-185,165,,165,Yes
1,75,D,Raw,M,Vadim Guatizhev,Вадим Гуатижев,1996-06-10,,Teen 18-19,73.1,,,,,,,,,,,-202.5,202.5,210,210,,210,Yes
2,75,D,Raw,M,Nikita Kurys,Никита Курысь,1997-04-07,,Teen 18-19,73,,,,,,,,,,,-177.5,177.5,-190,177.5,,177.5,Yes
3,75,D,Raw,M,Zadim Gogunokov,Задим Гогуноков,1995-12-28,,Teen 18-19,74.7,,,,,,,,,,,140,-155,-155,140,,140,Yes
DQ,75,D,Raw,M,Beslan Tlyamitkhachev,Беслан Тлямитхачев,1995-06-01,,Teen 18-19,74.9,,,,,,,,,,,-190,-202.5,-202.5,,,,Yes
1,75,D,Raw,M,Murat Tligurov,Мурат Тлигуров,1993-08-25,,Juniors 20-23,75,,,,,,,,,,,-190,190,200,200,,200,Yes
2,75,D,Raw,M,Islam Bizhoev,Ислам Бижоев,1993-12-27,,Juniors 20-23,73.5,,,,,,,,,,,180,-202.5,-202.5,180,,180,Yes
DQ,75,D,Raw,M,Artem Melyan,Артем Мелян,1992-12-30,,Juniors 20-23,74.2,,,,,,,,,,,-170,-177.5,-177.5,,,,Yes
1,75,D,Raw,M,Yusif Nurullaev,Юсиф Нуруллаев,1990-09-07,,Open,74.6,,,,,,,,,,,-232.5,232.5,-265,232.5,,232.5,Yes
2,75,D,Raw,M,Evgeniy Afanasev,Евгений Афанасьев,1988-04-22,,Open,70.3,,,,,,,,,,,200,210,220,220,,220,Yes
3,75,D,Raw,M,Ruslan Moskalenko,Руслан Москаленко,1981-01-30,,Open,74.7,,,,,,,,,,,185,195,215,215,,215,Yes
4,75,D,Raw,M,Azamat Begiev,Азамат Бегиев,1988-02-19,,Open,72.4,,,,,,,,,,,180,-202.5,-202.5,180,,180,Yes
5,75,D,Raw,M,Aleksandr Lepenin,Александр Лепенин,1977-09-08,,Open,73.9,,,,,,,,,,,160,170,180,180,,180,Yes
6,75,D,Raw,M,Valeriy Voronko,Валерий Воронко,1988-01-01,,Open,75,,,,,,,,,,,180,-192.5,-192.5,180,,180,Yes
7,75,D,Raw,M,Andrey Andreev,Андрей Андреев,1980-03-12,,Open,74.3,,,,,,,,,,,165,170,177.5,177.5,,177.5,Yes
1,82.5,D,Raw,M,Akhmed Kelemetov,Ахмед Келеметов,1997-10-31,,Teen 16-17,82.3,,,,,,,,,,,-215,215,221,221,,221,Yes
1,82.5,D,Raw,M,Amur Shomakhov,Амур Шомахов,1996-08-22,,Teen 18-19,81.5,,,,,,,,,,,205,215,-220,215,,215,Yes
2,82.5,D,Raw,M,Artem Midov,Артем Мидов,1995-06-16,,Teen 18-19,81.6,,,,,,,,,,,190,-200,-215,190,,190,Yes
1,82.5,D,Raw,M,Aleksandr Shcherbakov,Александр Щербаков,1994-08-25,,Juniors 20-23,82.5,,,,,,,,,,,180,-190,-195,180,,180,Yes
1,82.5,D,Raw,M,Sergey Sitalo,Сергей Ситало,1982-06-01,,Open,80.9,,,,,,,,,,,175,-185,185,185,,185,Yes
1,82.5,D,Raw,M,Nikolay Varentsev,Николай Варенцев,1969-02-06,,Masters 45-49,82.2,,,,,,,,,,,130,140,-147.5,140,,140,Yes
1,90,D,Raw,M,Dmitriy Selemenev,Дмитрий Селеменев,1998-06-16,,Teen 16-17,83.4,,,,,,,,,,,155,170,-195,170,,170,Yes
1,90,D,Raw,M,Rustam Kabardokov,Рустам Кабардоков,1995-12-05,,Teen 18-19,89.9,,,,,,,,,,,232.5,-240,-240,232.5,,232.5,Yes
2,90,D,Raw,M,Murat Tligurov,Мурат Тлигуров,1996-12-01,,Teen 18-19,89.1,,,,,,,,,,,195,210,-222.5,210,,210,Yes
1,90,D,Raw,M,Azamat Utov,Азамат Утов,1991-03-06,,Open,89.4,,,,,,,,,,,-180,-195,195,195,,195,Yes
2,90,D,Raw,M,Albert Kartsaev,Альберт Карцаев,1985-06-30,,Open,89.1,,,,,,,,,,,170,-195,-195,170,,170,Yes
1,100,D,Raw,M,Ramazan Uyanaev,Рамазан Уянаев,1997-08-14,,Teen 16-17,94.5,,,,,,,,,,,202.5,-210,-210,202.5,,202.5,Yes
2,100,D,Raw,M,Vitaliy Grigoriy,Виталий Григорий,1997-09-17,,Teen 16-17,94.9,,,,,,,,,,,162.5,-177.5,180,180,,180,Yes
1,100,D,Raw,M,Aleksey Kostenko,Алексей Костенко,1980-02-26,,Open,94.7,,,,,,,,,,,232.5,240,250,250,,250,Yes
1,110,D,Raw,M,Oleg Pagaev,Олег Пагаев,1992-04-22,,Juniors 20-23,104.4,,,,,,,,,,,260,275,290.5,290.5,,290.5,Yes
1,110,D,Raw,M,Oleg Pagaev,Олег Пагаев,1992-04-22,,Open,104.4,,,,,,,,,,,260,275,290.5,290.5,,290,Yes
1,110,D,Raw,M,Vladimir Dubrov,Владимир Дубров,1947-02-23,,Masters 65-69,108,,,,,,,,,,,190,200,207.5,207.5,,207.5,Yes
1,125,D,Raw,M,Roman Lukoshkin,Роман Лукошкин,1975-12-23,,Open,110.9,,,,,,,,,,,250,260,-270,260,,260,Yes
2,125,D,Raw,M,Dmitriy Bykov,Дмитрий Быков,1990-06-01,,Open,123.3,,,,,,,,,,,200,215,230,230,,230,Yes
1,82.5,D,Multi-ply,M,Roman Stupnikov,Роман Ступников,1988-01-21,,O,82,,,,,,,,,,,270,295,-305,295,,295,Yes
1,60,SBD,Wraps,F,Olga Golovacheva,Ольга Головачева,1985-05-26,,Open,56.7,90,100,102.5,102.5,,60,-65,65,65,,110,120,135,135,,302.5,No
1,67.5,SBD,Wraps,F,Ulyana Osipova,Ульяна Осипова,1990-08-16,,Open,66.7,90,95,100,100,,70,75,77.5,77.5,,100,110,115,115,,292.5,No
1,67.5,SBD,Wraps,M,Aleksey Bersenev,Алексей Берсенев,1995-01-18,,Juniors 20-23,66.5,160,170,180,180,,130,-140,140,140,-151,200,210,220,220,-236,540,No
1,75,SBD,Wraps,M,Sergey Ayvazov,Сергей Айвазов,1977-07-19,,Open,75,170,180,190,190,,120,-130,-130,120,,190,210,-230,210,,520,No
2,75,SBD,Wraps,M,Viktor Galchenkov,Виктор Галченков,1987-01-16,,Open,73,125,130,140,140,,125,130,135,135,,170,180,-190,180,,455,No
1,82.5,SBD,Wraps,M,Batyrbiy Pshidatok,Батырбий Пшидаток,1997-05-28,,Teen 16-17,78.5,130,140,-150,140,,80,90,-95,90,,150,160,-172.5,160,,390,No
1,82.5,SBD,Wraps,M,Georgiy Parshin,Георгий Паршин,1995-03-27,,Juniors 20-23,81.2,190,-200,-200,190,,130,140,-145,140,,140,160,190,190,,520,No
1,82.5,SBD,Wraps,M,Vladimir Zhadenov,Владимир Жаденов,1987-06-01,,Open,77.8,240,250,260,260,,170,180,190,190,,240,260,-270,260,,710,No
1,82.5,SBD,Wraps,M,Valeriy Stoyanov,Валерий Стоянов,1957-11-25,,Masters 55-59,82.5,-140,150,160,160,173,115,121,-125,121,,-170,170,190,190,202.5,471,No
1,90,SBD,Wraps,M,Andrey Malyuzhenko,Андрей Малюженко,1996-10-15,,Teen 18-19,87.8,205,215,225,225,,145,150,-155,150,,260,-272.5,-272.5,260,,635,No
2,90,SBD,Wraps,M,Aleksey Duskaliev,Алексей Дускалиев,1996-01-21,,Teen 18-19,85.7,-150,150,-160,150,,110,115,-120,115,,160,165,-170,165,,430,No
1,90,SBD,Wraps,M,Ivan Pipenko,Иван Пипенко,1990-09-29,,Open,89.1,-190,200,215,215,,150,160,-170,160,,-220,240,272.5,272.5,,647.5,No
2,90,SBD,Wraps,M,Grigoriy Provotorov,Григорий Провоторов,1980-07-26,,Open,89.4,200,-210,-210,200,,145,150,155,155,,-230,230,240,240,,595,No
3,90,SBD,Wraps,M,Sergey Afanasev,Сергей Афанасьев,1990-05-02,,Open,85.9,200,-220,-220,200,,120,130,135,135,,230,240,-250,240,,575,No
DQ,90,SBD,Wraps,M,Aleksandr Kolesnikov,Александр Колесников,1985-06-20,,Open,84.6,-180,-180,-180,,,,,,,,,,,,,,No
1,90,SBD,Wraps,M,Evgeniy Khudoleev,Евгений Худолеев,1946-09-10,,Masters 65-69,88.6,170,180,190,190,,-120,130,-132.5,130,,200,210,220,220,,540,No
1,100,SBD,Wraps,M,Aleksey Vorobev,Алексей Воробьев,1983-05-30,,Open,93.6,240,255,265,265,,145,155,160,160,,260,280,290,290,,715,No
2,100,SBD,Wraps,M,Roman Trefilov,Роман Трефилов,1996-08-17,,Open,94,250,260,,260,,-155,155,162.5,162.5,,260,280,-295,280,,702.5,No
3,100,SBD,Wraps,M,Aleksandr Isaev,Александр Исаев,1990-10-26,,Open,98.8,210,220,-230,220,,145,-152.5,-152.5,145,,-230,230,250,250,,615,No
4,100,SBD,Wraps,M,Roman Rodnin,Роман Роднин,1975-10-07,,Open,98.6,-190,190,-205,190,,135,140,-145,140,,-220,230,-240,230,,560,No
1,100,SBD,Wraps,M,Oleg Tsokolov,Олег Цоколов,1974-12-15,,Masters 40-44,99.4,180,200,210,210,,145,-155,-155,145,,245,-255,255,255,,610,No
1,110,SBD,Wraps,M,Egor Mizhevskiy,Егор Мижевский,1990-05-14,,Open,109.9,240,250,255,255,,150,160,165,165,,240,255,265,265,,685,No
1,110,SBD,Wraps,M,Yuriy Malygin,Юрій Малигін,1967-06-30,,Masters 45-49,102.7,100,120,-150,120,,100,-110,110,110,,120,140,,140,,370,No
1,125,SBD,Wraps,M,Aleksey Kostenko,Алексей Костенко,1982-10-15,,Open,119.9,215,-230,230,230,,135,-145,145,145,,220,230,-240,230,,605,No
1,125,SBD,Wraps,M,Vladimir Druker,Владимир Друкер,1950-04-23,,Masters 60-64,114.8,170,190,-200,190,,150,-160,-160,150,,180,200,-210,200,,540,No
1,140,SBD,Wraps,M,Aleksandr Zaytsev,Александр Зайцев,1980-04-06,,Open,126.5,300,-330,-330,300,,220,240,-250,240,,300,320,-340,320,,860,No
2,140,SBD,Wraps,M,Kirill Gulevskiy,Кирилл Гулевский,1987-10-07,,Open,138.4,270,285,300,300,,170,180,185,185,,320,340,-350,340,,825,No
3,140,SBD,Wraps,M,Evgeniy Kuchur,Евгений Кучур,1982-01-22,,Open,127.7,-245,-245,245,245,,190,200,210,210,,240,250,260,260,,715,No
1,75,SBD,Single-ply,F,Valentina Rodichkina,Валентина Родичкина,1986-08-23,,Open,71,155,-165,165,165,,-82.5,82.5,87.5,87.5,,140,150,-160,150,,402.5,No
DQ,75,SBD,Single-ply,M,Oleg Son,Олег Сон,1991-11-18,,Juniors 20-23,74.9,245,257.5,-270,257.5,,-150,-150,-150,,,,,,,,,No
1,82.5,SBD,Single-ply,M,Andrey Gotskiy,Андрей Гоцкий,1992-07-14,,Juniors 20-23,81.9,230,245,255,255,,-195,195,205,205,,210,-230,-230,210,,670,No
1,90,SBD,Single-ply,M,Anatoliy Brezvin,Анатолий Брезвин,1992-10-17,,Juniors 20-23,89.6,285,300,-310,300,,200,212.5,-220,212.5,,250,265,-275,265,,777.5,No
1,90,SBD,Single-ply,M,Roman Khaustov,Роман Хаустов,1983-08-24,,Open,88.4,330,350,360,360,,170,-182.5,182.5,182.5,,290,-300,-300,290,,832.5,No
2,90,SBD,Single-ply,M,Anatoliy Brezvin,Анатолий Брезвин,1992-10-17,,Open,89.6,285,300,-310,300,,200,212.5,-220,212.5,,250,265,-275,265,,777.5,No
3,90,SBD,Single-ply,M,Roman Durnov,Роман Дурнов,1986-09-23,,Open,86.4,260,280,300,300,,-192.5,192.5,-200,192.5,,210,225,-232.5,225,,717.5,No
1,90,SBD,Single-ply,M,Kaplan Tlevtsezhev,Каплан Тлевцежев,1956-02-13,,Masters 55-59,83.3,180,200,210,210,,-105,105,,105,,200,215,,215,,530,No
1,100,SBD,Single-ply,M,Aleksey Osipov,Алексей Осипов,1996-05-15,,Teen 18-19,98.6,260,-280,-280,260,,-180,-180,180,180,,65,,,65,,505,No
1,100,SBD,Single-ply,M,Dmitriy Pershin,Дмитрий Першин,1991-09-28,,Juniors 20-23,100,270,280,290,290,,175,-187.5,-187.5,175,,240,-255,-270,240,,705,No
1,100,SBD,Single-ply,M,Nikolay Gnatyuk,Николай Гнатюк,1987-09-03,,Open,98.8,330,345,355,355,,230,-240,-240,230,,315,-325,-325,315,,900,No
1,110,SBD,Single-ply,M,Yuriy Malygin,Юрій Малигін,1967-06-30,,Masters 45-49,102.7,120,160,,160,,100,150,-160,150,,120,,,120,,430,No
1,125,SBD,Single-ply,M,Ramig Nuruev,Рамиг Нуруев,1984-11-03,,Open,119.6,335,-345,-345,335,,273,-285,-285,273,,300,310,,310,,917.5,No
DQ,125,SBD,Single-ply,M,Aleksandr Malofeev,Александр Малофеев,1981-06-06,,Open,122.3,-270,,,,,,,,,,,,,,,,No
1,82.5,SBD,Multi-ply,M,Alexander Karpenko,Александр Карпенко,1992-04-25,,O,81.9,340,360,370,370,,220,230,-238,230,,-310,310,,310,,910,No
1,90,SBD,Multi-ply,M,Artem Krylov,Артем Крылов,1990-09-03,,O,89.9,-345,345,355,355,,220,230,235,235,,280,295,300,300,,890,No
1,100,SBD,Multi-ply,M,Pavel Mitrofanov,Павел Митрофанов,1983-08-12,,O,97.9,-350,350,-370,350,,-250,250,-270,250,,270,,,270,,870,No
1,110,SBD,Multi-ply,M,Aleksandr Mitrofanov,Александр Митрофанов,1985-12-29,,O,107.6,-400,-400,400,400,,230,250,-260,250,,340,-360,-365,340,,990,No
1,125,SBD,Multi-ply,M,Sergey Starodubskiy,Сергей Стародубский,1977-12-20,,O,113.5,400,-417.5,,400,,285,-301,,285,,250,285,315,315,,1000,No
2,125,SBD,Multi-ply,M,Mikhail Mikao,Михаил Микао,1985-07-29,,O,122.3,375,385,-400,385,,215,220,-225,220,,270,280,-290,280,,885,No
1,60,B,Raw,F,Yana Lavrinenko,Яна Лавриненко,1987-03-16,,Open,59.8,,,,,,52.5,55,,55,,,,,,,55,No
1,67.5,B,Raw,F,Anna Kovaleva,Анна Ковалева,1995-02-24,,Juniors 20-23,66.9,,,,,,60,-65,-65,60,,,,,,,60,No
1,67.5,B,Raw,F,Anzhela Kulagina,Анжела Кулагина,1988-11-04,,Open,65.9,,,,,,117.5,125,127.5,127.5,,,,,,,127.5,No
2,67.5,B,Raw,F,Lyubov Maltseva,Любовь Мальцева,1976-07-05,,Open,67.1,,,,,,105,-110,-110,105,,,,,,,105,No
1,67.5,B,Raw,F,Natalya Goncharova,Наталья Гончарова,1964-09-06,,Masters 50-54,66.9,,,,,,100,105,-110,105,,,,,,,105,No
1,75,B,Raw,F,Svetlana Sinacheva,Светлана Синачева,1966-12-15,,Open,75,,,,,,102.5,107.5,-110,107.5,,,,,,,107.5,No
1,82.5,B,Raw,F,Vladislava Shurygina,Владислава Шурыгина,1995-12-22,,Teen 18-19,81.6,,,,,,-50,-52.5,52.5,52.5,,,,,,,52.5,No
1,52,B,Raw,M,Denis Losev,Денис Лосев,1981-07-31,,Open,40,,,,,,45,50,55,55,,,,,,,55,No
1,60,B,Raw,M,Vladimir Eryshkanov,Владимир Ерышканов,1978-12-02,,Open,60,,,,,,85,90,100,100,,,,,,,100,No
1,67.5,B,Raw,M,Denis Kuimov,Денис Куимов,1991-10-10,,Juniors 20-23,64.7,,,,,,130,140,-150,140,,,,,,,140,No
1,75,B,Raw,M,Andrey Nozdrev,Андрей Ноздрев,1983-02-26,,Open,73,,,,,,100,110,-112.5,110,,,,,,,110,No
1,82.5,B,Raw,M,Ruslan Krestyannikov,Руслан Крестьянников,1995-01-24,,Juniors 20-23,77.4,,,,,,110,120,-125,120,,,,,,,120,No
1,82.5,B,Raw,M,Vladimir Zhadenov,Владимир Жаденов,1987-06-01,,Open,78.4,,,,,,175,185,190,190,,,,,,,190,No
2,82.5,B,Raw,M,Yusif Khudiev,Юсиф Худиев,1990-02-20,,Open,82.1,,,,,,-160,160,170,170,,,,,,,170,No
3,82.5,B,Raw,M,Evgeniy Goloveyko,Евгений Головейко,1989-03-28,,Open,80.5,,,,,,150,160,-170,160,,,,,,,160,No
4,82.5,B,Raw,M,Stanislav Spiridonok,Станислав Спиридонок,1986-10-06,,Open,80.6,,,,,,130,-140,147.5,147.5,,,,,,,147.5,No
DQ,82.5,B,Raw,M,Pavel Petrosyan,Павел Петросян,1991-10-09,,Open,76.5,,,,,,-175,-175,,,,,,,,,,No
DQ,82.5,B,Raw,M,Sergey Vorona,Сергей Ворона,1986-09-08,,Open,80.4,,,,,,-140,,,,,,,,,,,No
1,90,B,Raw,M,Semen Sorokin,Семен Сорокин,1997-04-19,,Teen 16-17,89.9,,,,,,130,135,140,140,,,,,,,140,No
1,90,B,Raw,M,Mikhail Kartashev,Михаил Карташев,1993-04-15,,Juniors 20-23,87.2,,,,,,142.5,-147.5,147.5,147.5,,,,,,,147.5,No
1,90,B,Raw,M,Aleksandr Isadchenko,Александр Исадченко,1985-05-19,,Open,87.1,,,,,,180,185,192.5,192.5,,,,,,,192.5,No
2,90,B,Raw,M,Eduard Petryuk,Эдуард Петрюк,1976-04-11,,Open,88.5,,,,,,180,185,-195,185,,,,,,,185,No
3,90,B,Raw,M,Aleksandr Kolesnikov,Александр Колесников,1985-06-20,,Open,85.4,,,,,,167.5,172.5,175,175,,,,,,,175,No
4,90,B,Raw,M,Denis Krastilevskiy,Денис Крастилевский,1990-06-07,,Open,89.4,,,,,,150,-157.5,-157.5,150,,,,,,,150,No
1,100,B,Raw,M,Sergey Razumov,Сергей Разумов,1993-08-06,,Juniors 20-23,95.2,,,,,,190,195,200,200,,,,,,,200,No
1,100,B,Raw,M,Roman Gavrilenko,Роман Гавриленко,1993-06-24,,Juniors 20-23,97.7,,,,,,130,140,150,150,,,,,,,150,No
1,100,B,Raw,M,Aleksandr Zhachenkov,Александр Жаченков,1981-07-30,,Open,99.6,,,,,,215,222.5,227.5,227.5,,,,,,,227.5,No
2,100,B,Raw,M,Radion Dubenko,Радион Дубенко,1989-01-02,,Open,98.1,,,,,,212.5,225,-230,225,,,,,,,225,No
3,100,B,Raw,M,Denis Prokofev,Денис Прокофьев,1985-04-16,,Open,96.6,,,,,,190,200,207.5,207.5,,,,,,,207.5,No
4,100,B,Raw,M,Semen Shagov,Семен Шагов,1987-10-29,,Open,98.3,,,,,,190,200,-207.5,200,,,,,,,200,No
5,100,B,Raw,M,Ivan Galiguzov,Иван Галигузов,1983-08-21,,Open,100,,,,,,190,200,-210,200,,,,,,,200,No
6,100,B,Raw,M,Timofey Gondarenko,Тимофей Гондаренко,1980-07-17,,Open,99.7,,,,,,170,180,-185,180,,,,,,,180,No
7,100,B,Raw,M,Aleksandr Gribanov,Александр Грибанов,1985-11-19,,Open,100,,,,,,160,165,170,170,,,,,,,170,No
8,100,B,Raw,M,Maksim Kiyashkin,Максим Кияшкин,1988-08-01,,Open,98.8,,,,,,165,-190,-190,165,,,,,,,165,No
1,110,B,Raw,M,Nikita Pudikov,Никита Пудиков,1997-07-06,,Teen 16-17,102.9,,,,,,-165,165,172.5,172.5,,,,,,,172.5,No
1,110,B,Raw,M,Artem Kudryashov,Артем Кудряшов,1996-07-14,,Teen 18-19,104.8,,,,,,155,165,172.5,172.5,,,,,,,172.5,No
1,110,B,Raw,M,Dzhamil Fazlyev,Джамиль Фазлыев,1993-10-16,,Juniors 20-23,109.7,,,,,,175,-197.5,-197.5,175,,,,,,,175,No
1,110,B,Raw,M,Anton Kostyukov,Антон Костюков,1986-09-12,,Open,110,,,,,,220,227.5,232.5,232.5,,,,,,,232.5,No
2,110,B,Raw,M,Nikolay Kuprichenkov,Николай Куприченков,1979-09-20,,Open,109,,,,,,205,210,-215,210,,,,,,,210,No
3,110,B,Raw,M,Sergey Zverkhovskiy,Сергей Зверховский,1984-03-06,,Open,107.4,,,,,,190,200,-205,200,,,,,,,200,No
4,110,B,Raw,M,Denis Nestor,Денис Нестор,1981-06-23,,Open,107.5,,,,,,185,192.5,197.5,197.5,,,,,,,197.5,No
5,110,B,Raw,M,Dmitriy Podbereznyy,Дмитрий Подберезный,1986-03-01,,Open,104.4,,,,,,180,190,-192.5,190,,,,,,,190,No
6,110,B,Raw,M,Aleksandr Morozov,Александр Морозов,1985-11-17,,Open,110,,,,,,160,165,170,170,,,,,,,170,No
1,110,B,Raw,M,Valeriy Akentev,Валерий Акентьев,1958-03-13,,Masters 55-59,106.8,,,,,,160,165,172.5,172.5,,,,,,,172.5,No
1,125,B,Raw,M,Andrey Likhman,Андрей Лихман,1977-05-01,,Open,110.2,,,,,,220,225,-227.5,225,,,,,,,225,No
2,125,B,Raw,M,Vadim Laptiev,Вадим Лаптиев,1981-08-08,,Open,114.6,,,,,,-200,200,210,210,,,,,,,210,No
3,125,B,Raw,M,Vadim Bespalov,Вадим Беспалов,1979-04-20,,Open,125,,,,,,182.5,190,195,195,,,,,,,195,No
4,125,B,Raw,M,Aleksandr Malofeev,Александр Малофеев,1981-06-06,,Open,121.3,,,,,,150,-170,-170,150,,,,,,,150,No
DQ,125,B,Raw,M,Artem Grigoryan,Артем Григорян,1988-05-12,,Open,113.8,,,,,,-150,-150,,,,,,,,,,No
1,140,B,Raw,M,Valeriy Snigirev,Валерий Снигирев,1977-06-10,,Open,135.7,,,,,,230,240,250,250,,,,,,,250,No
2,140,B,Raw,M,Evgeniy Kuchur,Евгений Кучур,1982-01-22,,Open,125.7,,,,,,200,-215,-215,200,,,,,,,200,No
DQ,140,B,Raw,M,Oleg Ogienko,Олег Огиенко,1972-02-10,,Masters 40-44,138.5,,,,,,-190,-190,,,,,,,,,,No
1,56,B,Single-ply,F,Olga Valchevskaya,Ольга Вальчевская,1985-08-06,,Open,56,,,,,,55,-62.5,62.5,62.5,,,,,,,62.5,No
1,67.5,B,Single-ply,M,Kirill Balychev,Кирилл Балычев,2001-09-10,,Teen 13-15,66.8,,,,,,70,-75,80,80,,,,,,,80,No
1,82.5,B,Single-ply,M,Dmitriy Krutko,Дмитрий Крутько,1989-07-24,,Open,82.5,,,,,,210,220,230,230,,,,,,,230,No
2,82.5,B,Single-ply,M,Emi Vaykhanov,Эми Вайханов,1987-07-14,,Open,81.3,,,,,,170,-190,-190,170,,,,,,,170,No
1,100,B,Single-ply,M,Khasan Yusupov,Хасан Юсупов,1989-11-14,,Open,97.7,,,,,,270,280,-292.5,280,,,,,,,280,No
1,110,B,Single-ply,M,Karlen Osipov,Карлен Осипов,1972-08-26,,Masters 40-44,107,,,,,,210,-220,-222.5,210,,,,,,,210,No
DQ,110,B,Single-ply,M,Aleksey Kiselev,Алексей Киселев,1974-04-27,,Masters 40-44,106.5,,,,,,-200,-200,,,,,,,,,,No
1,125,B,Single-ply,M,Aleksey Kostenko,Алексей Костенко,1982-10-15,,Open,119.9,,,,,,210,-230,230,230,,,,,,,230,No
DQ,125,B,Single-ply,M,Aleksandr Malofeev,Александр Малофеев,1981-06-06,,Open,121.3,,,,,,-200,-220,-247.5,,,,,,,,,No
1,75,B,Multi-ply,M,Nikolay Fedotov,Николай Федотов,1988-01-21,,Open,68.8,,,,,,-130,-130,130,130,,,,,,,130,No
DQ,100,B,Multi-ply,M,Vladislav Kornikh,Владислав Корних,1992-06-29,,Juniors 20-23,98.8,,,,,,-227.5,-227.5,-227.5,,,,,,,,,No
1,100,B,Multi-ply,M,Aleksandr Konstantinov,Александр Константинов,1988-09-11,,Open,98.9,,,,,,-280,282.5,295,295,,,,,,,295,No
2,100,B,Multi-ply,M,Igor Kalita,Игорь Калита,1982-06-23,,Open,98,,,,,,270,-280,-282.5,270,,,,,,,270,No
1,110,B,Multi-ply,M,Aleksandr Zavyalov,Александр Завьялов,1979-09-22,,Open,105.6,,,,,,220,-235,-235,220,,,,,,,220,No
2,110,B,Multi-ply,M,Valeriy Akentev,Валерий Акентьев,1958-03-13,,Masters 55-59,106.8,,,,,,230,240,-250,240,,,,,,,240,No
DQ,125,B,Multi-ply,M,Evgeniy Chugunov,Евгений Чугунов,1983-04-24,,Open,118.4,,,,,,-295,-295,-295,,,,,,,,,No
1,140,B,Multi-ply,M,Eduard Smetanin,Эдуард Сметанин,1969-10-15,,Open,137,,,,,,200,-210,-210,200,,,,,,,200,No
1,140,B,Multi-ply,M,Eduard Smetanin,Эдуард Сметанин,1969-10-15,,Masters 45-49,137,,,,,,200,-210,-210,200,,,,,,,200,No
1,60,D,Raw,F,Yana Lavrinenko,Яна Лавриненко,1987-03-16,,Open,59.8,,,,,,,,,,,120,125,-130,125,,125,No
1,82.5,D,Raw,F,Vladislava Shurygina,Владислава Шурыгина,1995-12-22,,Teen 18-19,81.6,,,,,,,,,,,105,110,-120,110,,110,No
1,67.5,D,Raw,M,Dmitriy Samarskiy,Дмитрий Самарский,1992-04-27,,Juniors 20-23,65.3,,,,,,,,,,,180,-202.5,215,215,,215,No
1,82.5,D,Raw,M,Aleksey Kotov,Алексей Котов,1987-05-16,,Open,76.7,,,,,,,,,,,-200,200,210,210,,210,No
2,82.5,D,Raw,M,Stanislav Spiridonok,Станислав Спиридонок,1986-10-06,,Open,80.6,,,,,,,,,,,150,170,202.5,202.5,,202.5,No
1,82.5,D,Raw,M,Valeriy Stoyanov,Валерий Стоянов,1957-11-25,,Masters 55-59,81.7,,,,,,,,,,,170,190,205,205,,205,No
1,90,D,Raw,M,Sergey Afanasev,Сергей Афанасьев,1990-05-02,,Open,86.4,,,,,,,,,,,230,240,,240,,240,No
1,90,D,Raw,M,Evgeniy Khudoleev,Евгений Худолеев,1946-09-10,,Masters 65-69,88.6,,,,,,,,,,,190,200,210,210,,210,No
1,100,D,Raw,M,Roman Konstantinov,Роман Константинов,1984-03-26,,Open,97.9,,,,,,,,,,,240,-260,-260,240,,240,No
1,110,D,Raw,M,Artur Bedikyan,Артур Бедикян,1991-07-02,,Juniors 20-23,107.4,,,,,,,,,,,260,285,,285,,285,No
1,110,D,Raw,M,Aleksey Kiselev,Алексей Киселев,1974-04-27,,Masters 40-44,106.5,,,,,,,,,,,240,260,-280,260,,260,No
1,125,D,Raw,M,Artur Duruev,Артур Дуруев,1994-07-08,,Juniors 20-23,124.4,,,,,,,,,,,270,285,295,295,,295,No
1,125,D,Raw,M,Denis Makeev,Денис Макеев,1983-04-22,,Open,125,,,,,,,,,,,275,290,,290,,290,No
2,125,D,Raw,M,Valeriy Bezborodov,Валерий Безбородов,1976-01-27,,Open,120.6,,,,,,,,,,,255,-270,-270,255,,255,No
DQ,125,D,Raw,M,Nikolay Tuniev,Николай Туниев,1981-04-12,,Open,110.1,,,,,,,,,,,-265,-265,-265,,,,No
1,140+,D,Raw,M,Vladislav Alhazov,Влад Алхазов,1978-04-19,,Open,154.5,,,,,,,,,,,365,-392.5,392.5,392.5,,392.5,No
1,67.5,D,Single-ply,F,Yuliya Pilipchatina,Юлия Пилипчатина,1984-09-29,30,Open,67.5,,,,,,,,,,,150,160,170,170,-180,170,No
1,110,D,Single-ply,M,Ilya Luchnikov,Илья Лучников,1974-03-11,41,Open,107.8,,,,,,,,,,,310,330,337.5,337.5,,337.5,No
1,110,D,Single-ply,M,Denis Nestor,Денис Нестор,1981-06-23,33,Open,107.5,,,,,,,,,,,270,285,300,300,,300,No
1,100,D,Multi-ply,M,Vladimir Zhabin,Владимир Жабин,1980-06-27,,Open,93.2,,,,,,,,,,,320,-340,340,340,-350.5,340,No
