Place,Name,BodyweightKg,Best3SquatKg,Best3BenchKg,Best3DeadliftKg,TotalKg,WeightClassKg,Sex,CyrillicName,BirthYear,Event,Equipment,Division
1,Alexey Romanov,51.9,222.5,112.5,185,520,52,M,Алексей Романов,1981,SBD,Single-ply,Open
2,Yuriy Elkin,51.5,180,95,200,475,52,M,Юрий Елькин,1981,SBD,Single-ply,Open
3,Nikolay Aksenov,51.3,155,80,175,410,52,M,Николай Аксенов,1957,SBD,Single-ply,Open
4,Aleksandr Skibinskiy,51.6,160,70,145,375,52,M,Александр Скибинский,1985,SBD,Single-ply,Open
5,Mudaris Alymbaev,51.9,90,65,125,280,52,M,,1981,SBD,Single-ply,Open
1,Dmitriy Panin,55.8,205,117.5,200,522.5,56,M,Дмитрий Панин,1980,SBD,Single-ply,Open
2,Fail Gizatullin,55.3,170,105,200,475,56,M,Фаиль Гизатуллин,1976,SBD,Single-ply,Open
3,Alexander Ivashnev,55.9,192.5,100,172.5,465,56,M,Александр Ивашнев,1985,SBD,Single-ply,Open
1,Dmitriy Kuntsevich,60,225,125,205,555,60,M,Дмитрий Кунцевич,1980,SBD,Single-ply,Open
2,Andrey Alekseev,58.6,165,97.5,187.5,450,60,M,Андрей Алексеев,1983,SBD,Single-ply,Open
3,Konstantin Murin,59.8,150,95,175,420,60,M,Константин Мурин,1985,SBD,Single-ply,Open
1,Ilya Kokorev,64.8,250,160,260,670,67.5,M,Илья Кокорев,1973,SBD,Single-ply,Open
2,Aleksey Rodin,67.5,230,117.5,252.5,600,67.5,M,Алексей Родин,1983,SBD,Single-ply,Open
3,Janek Nurmeots,62.3,230,130,222.5,582.5,67.5,M,,1974,SBD,Single-ply,Open
4,Konstantin Kuznetsov,66.9,222.5,132.5,215,570,67.5,M,Константин Кузнецов,1981,SBD,Single-ply,Open
5,Igor Maltsev,67,235,115,215,565,67.5,M,Ігор Мальцев,1980,SBD,Single-ply,Open
6,Sergey Petrovskiy,66.4,210,120,195,525,67.5,M,Сергей Петровский,1981,SBD,Single-ply,Open
7,Aleksey Mamrukov,67.5,185,132.5,205,522.5,67.5,M,Алексей Мамруков,1979,SBD,Single-ply,Open
1,Andrey Belyaev,74.5,305,195,290,790,75,M,Андрей Беляев,1983,SBD,Single-ply,Open
2,Andrey Altsybeev,75,285,170,270,725,75,M,Андрей Алцыбеев,1978,SBD,Single-ply,Open
3,Oleg Vorozheykin,75,290,162.5,257.5,710,75,M,Олег Ворожейкин,1980,SBD,Single-ply,Open
4,Sergey Penkin,74.7,280,190,230,700,75,M,Сергей Пенкин,1973,SBD,Single-ply,Open
5,Aleksandr Safronov,73.4,270,160,255,685,75,M,Александр Сафронов,1981,SBD,Single-ply,Open
6,Leonid Baev,74.8,250,170,245,665,75,M,Леонид Баев,1979,SBD,Single-ply,Open
7,Ilya Lutsenko,75,267.5,150,245,662.5,75,M,Илья Луценко,1981,SBD,Single-ply,Open
8,Nikolay Solovyev,74.5,270,142.5,237.5,650,75,M,Николай Соловьев,1968,SBD,Single-ply,Open
9,Evgeniy Sivolapov,75,250,140,260,650,75,M,Евгений Сиволапов,1980,SBD,Single-ply,Open
10,Igor Priemyshev,75,240,165,245,650,75,M,Игорь Приемышев,1982,SBD,Single-ply,Open
11,Aleksey Bolgov,75,250,145,255,650,75,M,Алексей Болгов,1980,SBD,Single-ply,Open
12,Mikhail Zhigalov,74.3,232.5,160,240,632.5,75,M,Михаил Жигалов,1976,SBD,Single-ply,Open
13,Aleksey Mochalov,71.9,250,152.5,222.5,625,75,M,Алексей Мочалов,1980,SBD,Single-ply,Open
14,Roman Sidorenkov,74.5,232.5,160,230,622.5,75,M,Роман Сидоренков,1984,SBD,Single-ply,Open
15,Dmitriy Shabalin,75,220,172.5,230,622.5,75,M,Дмитрий Шабалин,1981,SBD,Single-ply,Open
16,Konstantin Osipov,74.2,230,145,230,605,75,M,Константин Осипов,1970,SBD,Single-ply,Open
17,Vasiliy Lebedka,73.2,190,120,205,515,75,M,Василий Лебедка,1982,SBD,Single-ply,Open
18,Rustam Shakirov,75,120,120,150,390,75,M,,1976,SBD,Single-ply,Open
DQ,Sergey Ozun,74,,,,,75,M,Сергей Озун,1978,SBD,Single-ply,Open
DQ,Aleksey Fedotov,74.7,245,,,,75,M,Алексей Федотов,1982,SBD,Single-ply,Open
1,Sergey Gordeev,82.5,335,205,325,865,82.5,M,Сергей Гордеев,1976,SBD,Single-ply,Open
2,Aleksandr Kokornov,81.7,310,200,282.5,792.5,82.5,M,Александр Кокорнов,1964,SBD,Single-ply,Open
3,Vadim Pugaev,81.3,280,177.5,260,717.5,82.5,M,Вадим Пугаев,1975,SBD,Single-ply,Open
4,Andrey Yakovlev,80,275,165,275,715,82.5,M,Андрей Яковлев,1979,SBD,Single-ply,Open
5,Vladimir Sibalakov,81.6,275,165,275,715,82.5,M,Владимир Сибалаков,1982,SBD,Single-ply,Open
6,Aleksandr Markin,82.3,285,172.5,257.5,715,82.5,M,Александр Маркин,1980,SBD,Single-ply,Open
7,Sergey Gorbachevskiy,81.5,280,175,255,710,82.5,M,Сергей Горбачевский,1977,SBD,Single-ply,Open
8,Vadim Solovykh,82.3,280,160,262.5,702.5,82.5,M,Вадим Соловых,1974,SBD,Single-ply,Open
9,Aleksandr Novozhilov,82.5,262.5,180,257.5,700,82.5,M,Александр Новожилов,1972,SBD,Single-ply,Open
10,Mikhail Putyato,82,255,162.5,277.5,695,82.5,M,Михаил Путято,1970,SBD,Single-ply,Open
11,Dmitriy Veretyokhin,82.2,272.5,167.5,255,695,82.5,M,Дмитрий Веретёхин,1983,SBD,Single-ply,Open
12,Andrey Migal,81.5,260,175,240,675,82.5,M,Андрей Мигаль,1977,SBD,Single-ply,Open
13,Dmitriy Stepanov,82.4,270,147.5,255,672.5,82.5,M,Дмитрий Степанов,1982,SBD,Single-ply,Open
14,Aleksandr Varlamov,82.5,260,160,240,660,82.5,M,Александр Варламов,1978,SBD,Single-ply,Open
15,Vitaliy Yurenya,80.7,245,162.5,230,637.5,82.5,M,Виталий Юреня,1983,SBD,Single-ply,Open
16,Maksim Kalabekov,80.9,240,160,215,615,82.5,M,Максим Калабеков,1985,SBD,Single-ply,Open
DQ,Sergey Kolosov,81.2,,,,,82.5,M,Сергей Колосов,1970,SBD,Single-ply,Open
1,Igor Shestakov,87.7,337.5,195,285,817.5,90,M,Игорь Шестаков,1969,SBD,Single-ply,Open
2,Mikhail Schutskiy,90,310,195,277.5,782.5,90,M,Михаил Щуцкий,1981,SBD,Single-ply,Open
3,Aleksandr Atlas,89.1,300,190,290,780,90,M,Александр Атлас,1981,SBD,Single-ply,Open
4,Pavel Mitin,88.9,295,190,285,770,90,M,Павел Митин,1969,SBD,Single-ply,Open
5,Aleksey Yutkin,88.8,315,175,270,760,90,M,Алексей Юткин,1974,SBD,Single-ply,Open
6,Nikolay Evdokimov,89.5,290,177.5,285,752.5,90,M,Николай Евдокимов,1989,SBD,Single-ply,Open
7,Nikolay Lapushkin,89.2,290,185,270,745,90,M,Николай Лапушкин,1978,SBD,Single-ply,Open
8,Andrey Gornostaev,89.5,300,175,270,745,90,M,Андрей Горностаев,1977,SBD,Single-ply,Open
10,Vladimir Koregin,89.2,270,205,250,725,90,M,Владимир Корегин,1975,SBD,Single-ply,Open
9,Roman Sinetskiy,89.5,265,180,275,720,90,M,Роман Синецкий,1976,SBD,Single-ply,Open
11,Pavel Kulakov,89.6,260,190,270,720,90,M,Павел Кулаков,1974,SBD,Single-ply,Open
12,Nikolay Malysh,88.5,255,182.5,282.5,720,90,M,Николай Малыш,1957,SBD,Single-ply,Open
13,Mikhail Sviryuev,90,295,165,260,720,90,M,Михаил Свирюев,1983,SBD,Single-ply,Open
14,Vladimir Schegolyaev,88.7,285,157.5,270,712.5,90,M,Владимир Щеголяев,1975,SBD,Single-ply,Open
15,Sergey Leschikov,88.5,265,177.5,255,697.5,90,M,Сергей Лещиков,1977,SBD,Single-ply,Open
17,Vladimir Tretyakov,87.7,260,180,240,680,90,M,Владимир Третьяков,1976,SBD,Single-ply,Open
16,Aleksandr Demidov,89,250,150,275,675,90,M,Александр Демидов,1954,SBD,Single-ply,Open
18,Yuriy Seliverstov,86.7,270,160,240,670,90,M,Юрий Селиверстов,1982,SBD,Single-ply,Open
19,Aleksandr Roschin,84.4,230,155,240,625,90,M,Александр Рощин,1972,SBD,Single-ply,Open
DQ,Anatoliy Arkhangelskiy,89.6,,,,,90,M,Анатолий Архангельский,1979,SBD,Single-ply,Open
DQ,Mikhail Levshonkov,85.6,,,,,90,M,Михаил Левшонков,1970,SBD,Single-ply,Open
DQ,Leonid Oplesnin,85.6,,,,,90,M,Леонид Оплеснин,1979,SBD,Single-ply,Open
DQ,Aleksandr Durkin,83.3,,,,,90,M,Александр Дуркин,1972,SBD,Single-ply,Open
DQ,Mikhail Karpov,88.7,260,180,,,90,M,Михаил Карпов,1977,SBD,Single-ply,Open
1,Galim Ismagilov,99.6,345,220,350,915,100,M,Галим Исмагилов,1975,SBD,Single-ply,Open
2,Sergey Kharitonov,98.7,337.5,215,320,872.5,100,M,Сергей Харитонов,1977,SBD,Single-ply,Open
3,Stanislav Chernyshov,98.7,320,220,300,840,100,M,Станислав Чернышов,1979,SBD,Single-ply,Open
4,Aleksey Shmelev,100,300,200,290,790,100,M,Алексей Шмелев,1982,SBD,Single-ply,Open
5,Ilya Tezin,100,310,190,290,790,100,M,Илья Тезин,1980,SBD,Single-ply,Open
6,Nikolay Uglyankin,96,285,200,275,760,100,M,Николай Углянкин,1967,SBD,Single-ply,Open
7,Ilya Sokolov,98.1,300,185,275,760,100,M,Илья Соколов,1981,SBD,Single-ply,Open
8,Andrey Romanov,98.9,295,185,270,750,100,M,Андрей Романов,1976,SBD,Single-ply,Open
9,Andrey Shapovalov,100,300,180,270,750,100,M,Андрей Шаповалов,1977,SBD,Single-ply,Open
10,Georgiy Paradiz,98.5,270,185,250,705,100,M,Георгий Парадиз,1975,SBD,Single-ply,Open
DQ,Andrey Skipin,96.8,,,,,100,M,Андрей Скипин,1977,SBD,Single-ply,Open
1,Aleksey Chebotarev,109.5,330,225,290,845,110,M,Алексей Чеботарев,1978,SBD,Single-ply,Open
2,Andrey Dernov,100.1,325,190,290,805,110,M,Андрей Дернов,1964,SBD,Single-ply,Open
3,Aleksey Salov,109.5,310,205,285,800,110,M,Алексей Салов,1979,SBD,Single-ply,Open
4,Aleksandr Vintenkov,106.1,280,200,300,780,110,M,Александр Винтенков,1976,SBD,Single-ply,Open
5,Denis Khokhrev,103.9,295,215,260,770,110,M,Денис Хохрев,1979,SBD,Single-ply,Open
6,Denis Shevchenko,108.7,295,195,280,770,110,M,Денис Шевченко,1977,SBD,Single-ply,Open
7,Maksim Demidov,108.8,272.5,212.5,285,770,110,M,Максим Демидов,1971,SBD,Single-ply,Open
8,Mikhail Zhukov,109.1,290,195,285,770,110,M,Михаил Жуков,1968,SBD,Single-ply,Open
9,Anatoliy Vorobyov,109,295,190,272.5,757.5,110,M,Анатолий Воробьёв,1977,SBD,Single-ply,Open
10,Nikolay Myshkevich,109.1,315,195,245,755,110,M,Николай Мышкевич,1978,SBD,Single-ply,Open
11,Oleg Belenkiy,110,275,180,290,745,110,M,Олег Беленький,1979,SBD,Single-ply,Open
12,Evgeniy Grebennikov,108.1,270,165,290,725,110,M,Евгений Гребенников,1978,SBD,Single-ply,Open
13,Evgeniy Aleksandrov,104.7,260,160,220,640,110,M,Евгений Александров,1981,SBD,Single-ply,Open
DQ,Dmitriy Kozlov,108,295,180,,,110,M,Дмитрий Козлов,1981,SBD,Single-ply,Open
1,Mikhail Bulychev,125,380,240,340,960,125,M,Михаил Булычев,1973,SBD,Single-ply,Open
2,Aleksandr Bulatov,119,340,180,330,850,125,M,Александр Булатов,1970,SBD,Single-ply,Open
3,Igor Torlak,122.8,300,230,300,830,125,M,Игорь Торлак,1975,SBD,Single-ply,Open
4,Aleksey Pominov,110.5,330,197.5,300,827.5,125,M,Алексей Поминов,1978,SBD,Single-ply,Open
5,Anatoliy Solomonov,117.3,305,202.5,310,817.5,125,M,Анатолий Соломонов,1970,SBD,Single-ply,Open
6,Leonid Zobov,115.7,305,210,295,810,125,M,Леонид Зобов,1973,SBD,Single-ply,Open
7,Aleksandr Kukharenko,124.5,315,177.5,315,807.5,125,M,Александр Кухаренко,1971,SBD,Single-ply,Open
8,Pavel Knysh,118.3,335,200,265,800,125,M,Павел Кныш,1980,SBD,Single-ply,Open
9,Dmitriy Alenin,123.2,312.5,205,280,797.5,125,M,Дмитрий Аленин,1973,SBD,Single-ply,Open
10,Maxim Tikhonov,111,310,180,285,775,125,M,Максим Тихонов,1968,SBD,Single-ply,Open
1,Arkadiy Vasnetsov,147,380,232.5,337.5,950,125+,M,Аркадий Васнецов,1976,SBD,Single-ply,Open
2,Dmitriy Dryanichkin,140.4,360,262.5,275,897.5,125+,M,Дмитрий Дряничкин,1972,SBD,Single-ply,Open
3,Igor Nastynov,159.5,355,232.5,305,892.5,125+,M,Игорь Настынов,1961,SBD,Single-ply,Open
4,Sergey Yarmarkin,138.4,302.5,217.5,290,810,125+,M,Сергей Ярмаркин,1975,SBD,Single-ply,Open
5,Vladimir Korablin,143.2,300,170,270,740,125+,M,Владимир Кораблин,1982,SBD,Single-ply,Open
